time,ps-pos:1
0,0.02
3.43742E-30,0.02
4.12263E-06,0.020000001
2.44354E-05,0.020000018
6.20519E-05,0.020000115
0.000100014,0.020000298
0.000140082,0.020000583
0.000192654,0.020001098
0.000239379,0.020001689
0.000289003,0.020002448
0.00033645,0.020003298
0.000389306,0.020004382
0.000445435,0.020005686
0.00049452,0.020006949
0.000568018,0.020009041
0.00064568,0.020011497
0.000717853,0.020013986
0.000802033,0.020017118
0.000883803,0.020020371
0.000976262,0.020024272
0.001067267,0.02002831
0.001159903,0.020032592
0.001251617,0.020036968
0.00135269,0.020041913
0.001465569,0.020047536
0.001573129,0.020052942
0.001680197,0.020058318
0.001787396,0.020063647
0.001894063,0.020068844
0.002001754,0.020073928
0.002106843,0.020078677
0.002216366,0.020083341
0.002325809,0.020087652
0.002446027,0.020091918
0.002566624,0.020095647
0.002686473,0.02009877
0.00281179,0.020101397
0.002940329,0.020103426
0.003063474,0.020104764
0.003191135,0.020105567
0.00331915,0.020105823
0.003442638,0.020105592
0.003570266,0.020104902
0.003703456,0.020103736
0.003847231,0.02010202
0.003985702,0.020099972
0.004122373,0.020097626
0.004276031,0.02009468
0.004432128,0.02009145
0.004586682,0.020088141
0.004736033,0.020084979
0.004892073,0.020081875
0.005054575,0.020079049
0.005219681,0.02007678
0.005391155,0.020075217
0.005571388,0.02007455
0.005765511,0.020075014
0.005963927,0.020076787
0.006155039,0.020079756
0.00635086,0.020084086
0.006558528,0.020090078
0.006768834,0.020097532
0.006970804,0.020105859
0.007200871,0.020116457
0.007434616,0.020127992
0.007667329,0.020139698
0.007899898,0.020151099
0.008148743,0.020162537
0.008430616,0.020174184
0.00870149,0.020183834
0.008979595,0.020192021
0.009251032,0.020198331
0.009574266,0.020203959
0.009853914,0.02020767
0.010177506,0.02021146
0.010493692,0.020215457
0.010798272,0.020220059
0.011135786,0.020226234
0.011448276,0.02023307
0.011790633,0.020241853
0.012135641,0.020251854
0.01244771,0.020261418
0.012804166,0.020272229
0.013164384,0.020282487
0.013497717,0.02029125
0.013853196,0.020299764
0.014224485,0.020307472
0.014567708,0.020313374
0.014904978,0.020318362
0.015282219,0.020323889
0.015628619,0.020329738
0.015973549,0.020336728
0.016363341,0.020346328
0.016741539,0.020357843
0.01704977,0.020369054
0.017437687,0.020384965
0.017771478,0.020399048
0.018094452,0.02041174
0.01849035,0.020424776
0.018899945,0.020434391
0.019278322,0.02043901
0.019632483,0.020439191
0.020043456,0.020434948
0.020439318,0.020428252
0.020806686,0.02042174
0.021176969,0.020416246
0.021608917,0.020412439
0.022032557,0.020412839
0.022466694,0.020418584
0.022837317,0.02042737
0.023264985,0.02044025
0.023747257,0.020455825
0.024188549,0.020468738
0.02466888,0.020478105
0.025134125,0.020479534
0.025553992,0.020473596
0.026067127,0.020458389
0.026554664,0.020438364
0.027055619,0.020415984
0.027516652,0.0203978
0.027958564,0.020385074
0.028400476,0.020377576
0.028929648,0.020374757
0.029434716,0.020376269
0.029972466,0.020378509
0.030411527,0.020378032
0.030928482,0.020372812
0.031488682,0.020360022
0.032031768,0.020340509
0.032603144,0.020314971
0.033159938,0.020288449
0.033716732,0.020263224
0.034273526,0.020241949
0.034864018,0.020223966
0.035470563,0.020207808
0.036121271,0.020190446
0.036772174,0.02017045
0.037483339,0.020145181
0.038194503,0.020120008
0.038963732,0.02009455
0.039850943,0.020068632
0.040722859,0.020042248
0.041510866,0.020014372
0.042298874,0.0199816
0.043001523,0.019950953
0.043691661,0.019925003
0.044328981,0.019907875
0.044545476,0.019903994
0.044614661,0.019902967
0.044623093,0.019902849
0.044624316,0.019902831
0.04485773,0.019900119
0.04552342,0.019896557
0.046145943,0.019894609
0.046483975,0.019892498
0.047196969,0.019882328
0.047872389,0.019864179
0.048424494,0.019845358
0.049009383,0.019824882
0.049664207,0.019806128
0.050319948,0.019796385
0.05086342,0.019796219
0.051535812,0.019804561
0.052200302,0.019817325
0.052831359,0.019827691
0.053459224,0.01983265
0.05416065,0.019830433
0.05488969,0.019823124
0.055561003,0.019817463
0.056273074,0.019816939
0.057061519,0.019826107
0.05787205,0.019843622
0.058698992,0.019865367
0.059544601,0.019885332
0.060475002,0.019901858
0.060587297,0.019903533
0.060587828,0.019903541
0.06096996,0.019908811
0.061665267,0.019917854
0.062491282,0.019929923
0.063317297,0.019942561
0.064143312,0.019955443
0.064762896,0.019964898
0.065497694,0.019977134
0.066242252,0.019991694
0.066966871,0.020007512
0.067637488,0.020022627
0.068349361,0.020036584
0.069009405,0.020045776
0.069685406,0.020050083
0.070412434,0.020049301
0.071102401,0.020046021
0.071545805,0.020044186
0.072310922,0.020044555
0.0730611,0.020050205
0.073796677,0.020058686
0.074556144,0.020065818
0.075332933,0.020066115
0.076165597,0.020056217
0.077031776,0.020036027
0.077933738,0.020011744
0.078912793,0.019990054
0.079979323,0.019976059
0.081092016,0.01996316
0.081911894,0.01994751
0.082474463,0.01993223
0.083061009,0.019912959
0.08326113,0.019905712
0.083320889,0.019903492
0.083330999,0.019903115
0.083331769,0.019903086
0.083363426,0.019901898
0.084108033,0.019872945
0.08498311,0.019839706
0.085850801,0.01981048
0.086732445,0.019785561
0.087582202,0.0197635
0.088404439,0.019741639
0.089169978,0.01971927
0.089951682,0.019694371
0.090212001,0.019685641
0.090214833,0.019685545
0.090346673,0.019681046
0.091134046,0.019653539
0.091935041,0.019625535
0.092783101,0.019597785
0.09361124,0.019574527
0.094477855,0.019555007
0.095311472,0.019540664
0.096227185,0.01952787
0.097190812,0.019514747
0.098247973,0.019497447
0.099323561,0.019478382
0.100515744,0.019464057
0.101707928,0.019464026
0.102900112,0.019476521
0.104060402,0.019490799
0.105060814,0.019498078
0.106024031,0.019502043
0.107026537,0.019509456
0.107978216,0.019525415
0.108946821,0.019550993
0.109922398,0.019581197
0.110825465,0.01960719
0.111792878,0.019629244
0.112707491,0.019646198
0.113608081,0.019663547
0.114402419,0.019682358
0.114403485,0.019682386
0.114494586,0.019684784
0.115354177,0.019709502
0.116416333,0.019742324
0.117450195,0.01977195
0.118534573,0.019797456
0.119759201,0.019820267
0.121084572,0.019840776
0.122492585,0.019860076
0.123784846,0.019877239
0.125079733,0.019893254
0.126262345,0.019901262
0.127421175,0.019898229
0.128511201,0.019887331
0.129574756,0.019875683
0.130627691,0.019868534
0.131602559,0.019864448
0.132639291,0.019855875
0.133667646,0.019837446
0.134681144,0.019810968
0.135803147,0.019780936
0.136976397,0.019757544
0.138223154,0.019739734
0.139411713,0.01971935
0.140790039,0.019686163
0.140870715,0.019684053
0.140934537,0.019682383
0.14201201,0.01965578
0.14350029,0.019628239
0.144988569,0.019609425
0.146476848,0.019594241
0.147781815,0.019584895
0.149010756,0.019579623
0.150258121,0.019576479
0.151439239,0.019578239
0.152672302,0.019590522
0.153830243,0.019611589
0.1550206,0.019635304
0.156218566,0.019654959
0.157556227,0.019677091
0.157818319,0.019682669
0.157867466,0.019683782
0.158644282,0.019704451
0.159977942,0.019751151
0.161316672,0.019799349
0.163021887,0.019848122
0.164814826,0.019901326
0.164845206,0.019902378
0.16485272,0.019902638
0.165491424,0.0199257
0.166777835,0.019974025
0.168459708,0.020028478
0.169578731,0.020058546
0.170968823,0.020093677
0.172238821,0.02012327
0.173048582,0.020139775
0.174294782,0.020162024
0.175532287,0.020181831
0.176848391,0.020197948
0.178079067,0.020203249
0.179421465,0.020199475
0.180755896,0.020195276
0.18242867,0.020193363
0.184018829,0.020179162
0.185996463,0.020141515
0.187977684,0.020112774
0.190074386,0.020083498
0.19177204,0.02004928
0.193320397,0.020022961
0.194704726,0.0200067
0.196131526,0.019992725
0.197598458,0.019981549
0.19904657,0.019975954
0.200510681,0.019974211
0.201616257,0.019976008
0.203238172,0.019989574
0.205183186,0.020020915
0.206575083,0.020042772
0.208768276,0.020082688
0.211265098,0.020154911
0.213391611,0.020209956
0.215429664,0.020262362
0.217219487,0.020314839
0.218898843,0.020357345
0.220485134,0.020389525
0.222127153,0.020417917
0.223828209,0.020440373
0.225830102,0.020457375
0.227789377,0.020460875
0.230108986,0.020441955
0.23290144,0.020409219
0.235693894,0.02034993
0.238486347,0.020280309
0.240634037,0.020227574
0.242745937,0.020168624
0.244528257,0.020124741
0.246344143,0.020087955
0.248237909,0.020055594
0.2501386,0.020030314
0.252530097,0.020012199
0.255048438,0.020016475
0.257713277,0.020033126
0.260541913,0.020069705
0.26340757,0.020120081
0.265898063,0.020160172
0.26833412,0.020202927
0.270593334,0.020232142
0.27279478,0.020247927
0.275061078,0.020253957
0.277552894,0.02024317
0.280263191,0.020205103
0.283255287,0.020144264
0.286542361,0.020051854
0.289541816,0.019958108
0.291601011,0.019894682
0.292172383,0.019876568
0.292300979,0.019872473
0.292333761,0.019871429
0.292337278,0.019871317
0.293493597,0.019834836
0.296409043,0.019755623
0.299226996,0.019699102
0.30127971,0.019668271
0.301280938,0.019668257
0.301443707,0.019666378
0.303863112,0.019650319
0.306984916,0.019654914
0.308947009,0.019668056
0.308948505,0.019668069
0.309142722,0.019669867
0.311749632,0.019702921
0.315287668,0.019758493
0.318825705,0.019814048
0.322363742,0.019855522
0.325901779,0.019871261
0.327067746,0.019870541
0.327236916,0.019870062
0.328458483,0.01986366
0.331766962,0.019826686
0.335468922,0.019760779
0.339334919,0.019670455
0.339357786,0.01966991
0.339409716,0.019668675
0.340786485,0.019636642
0.34510292,0.019542723
0.349419356,0.019483831
0.353735792,0.01947138
0.358052228,0.019516204
0.362368663,0.019603508
0.364836211,0.019666434
0.364838167,0.019666485
0.364977953,0.019670145
0.366789852,0.019717298
0.371286336,0.019830601
0.373246415,0.019870885
0.373246415,0.019870885
0.373246666,0.019870889
0.373684579,0.0198786
0.375040909,0.019900194
0.37990581,0.019944844
0.385591275,0.019923259
0.388673456,0.019887254
0.389637125,0.019874145
0.389820902,0.019871601
0.389855442,0.019871122
0.389860298,0.019871055
0.390199305,0.019866342
0.394145729,0.019814042
0.399726752,0.019769312
0.405104223,0.019792843
0.409585346,0.019870919
0.409623827,0.019871764
0.409643339,0.019872193
0.41017512,0.019884188
0.412700145,0.019948511
0.417838788,0.020096194
0.42022818,0.02016222
0.426907354,0.020296512
0.433586529,0.02031608
0.440265703,0.020236264
0.446944878,0.020132522
0.453624052,0.02009052
0.460303226,0.020148239
0.466982401,0.020270217
0.473661575,0.020373194
0.480511328,0.020378672
0.487345653,0.020263826
0.494392682,0.020080131
0.501590956,0.019929137
0.506131478,0.019890679
0.511702426,0.019906792
0.518524941,0.019979694
0.525430726,0.020028891
0.531709303,0.019990182
0.536442136,0.019903023
0.53806483,0.019864298
0.538698194,0.019848383
0.538859589,0.019844272
0.538883078,0.019843672
0.543595521,0.019719658
0.546127004,0.019656366
0.546142151,0.019656008
0.546839586,0.019639858
0.553465116,0.019533521
0.564027276,0.019578532
0.568737375,0.019654018
0.568748916,0.019654211
0.569230305,0.019662225
0.574447138,0.019738249
0.585015157,0.019750303
0.592140376,0.019655628
0.592145244,0.019655553
0.592461628,0.01965068
0.597353358,0.019583652
0.610304504,0.019617948
0.612154651,0.019653838
0.612202361,0.019654844
0.613310854,0.019679238
0.619649169,0.01984059
0.619758179,0.019843461
0.619761738,0.019843554
0.620188334,0.019854739
0.622046288,0.019901999
0.629001264,0.02003582
0.634070249,0.020070282
0.646130787,0.019987216
0.653425175,0.019952678
0.662579058,0.020050359
0.669690739,0.020205328
0.682748156,0.020372803
0.696089901,0.020206457
0.709431647,0.020087246
0.722773393,0.02021073
0.736115138,0.020160677
0.747122078,0.019899497
0.749367669,0.019846959
0.750227678,0.019828474
0.750650508,0.019819776
0.75072829,0.019818206
0.750750293,0.019817763
0.752865562,0.019779025
0.763176391,0.019720598
0.775601903,0.01981757
0.775933874,0.019819234
0.775938369,0.019819257
0.77746718,0.019825189
0.781369368,0.019822951
0.781998151,0.019820064
0.7821467,0.019819273
0.782157124,0.019819216
0.782164937,0.019819173
0.7827437,0.019815668
0.79148725,0.01969772
0.794254404,0.019645159
0.794262013,0.019645013
0.794654316,0.019637512
0.800295067,0.019540307
0.813891852,0.019528
0.820802483,0.019641922
0.820814035,0.019642138
0.821264726,0.019650564
0.826029737,0.019734545
0.835819725,0.0198183
0.835819725,0.0198183
0.83584673,0.019818312
0.836374344,0.019818321
0.836761349,0.019818049
0.847410222,0.019754013
0.863078643,0.019812763
0.863436007,0.019819194
0.86344059,0.019819278
0.863977711,0.019829312
0.866280771,0.01987663
0.874175965,0.020061811
0.877263276,0.020126217
0.889910103,0.020216284
0.904521071,0.020100318
0.921372297,0.020236831
0.938223524,0.02030489
0.95507475,0.02001454
0.964328034,0.019957065
0.978531057,0.020013938
0.985073233,0.019982231
0.992941652,0.019852895
0.994689022,0.019815144
0.995309508,0.019801392
0.995513858,0.019796838
0.995555734,0.019795904
0.995559537,0.019795819
0.995560042,0.019795808
0.995562384,0.019795756
0.995938273,0.019787355
1.000860833,0.019680837
1.002642768,0.019646901
1.003188757,0.019637306
1.003189056,0.019637301
1.00320765,0.019636982
1.003449886,0.019632867
1.005515556,0.019601182
1.013152552,0.01954566
1.017224382,0.019554727
1.017234817,0.019554779
1.017240957,0.019554809
1.017508875,0.019556171
1.020435028,0.019575835
1.028271709,0.019640567
1.036614757,0.019671976
1.038500066,0.019669384
1.03850019,0.019669384
1.038529489,0.019669314
1.039316973,0.0196671
1.045531235,0.019632014
1.054021961,0.019567457
1.061769748,0.019549661
1.062174104,0.019550686
1.062174817,0.019550688
1.062249345,0.019550903
1.06364376,0.01955643
1.071020378,0.019628999
1.071775156,0.019640088
1.071775202,0.019640088
1.072058184,0.019644399
1.073479636,0.019667205
1.08035809,0.019793201
1.090616426,0.019969206
1.100874762,0.02007748
1.111133097,0.020172991
1.121482834,0.020344692
1.131847627,0.020592465
1.141179992,0.020813204
1.152690315,0.021023026
1.164044614,0.02121097
1.177978756,0.021525662
1.191912897,0.021880532
1.205847039,0.022167984
1.221994143,0.022495777
1.2388789,0.022899576
1.255763657,0.023240138
1.272648415,0.023570291
1.290827245,0.023988499
1.311162864,0.024391636
1.333149054,0.024838497
1.357886197,0.025349186
1.382623341,0.025863121
1.403582262,0.026305637
1.427614601,0.026781226
1.447395289,0.027208467
1.472821691,0.027733008
1.495424306,0.028208924
1.520672542,0.028720607
1.543408468,0.029208863
1.567122492,0.029703568
1.591511337,0.030206957
1.614250549,0.030682862
1.64048924,0.031240924
1.662476622,0.031697975
1.687480858,0.032212573
1.709165979,0.032673856
1.735083812,0.0332171
1.760672627,0.033743772
1.783832934,0.034225049
1.809360528,0.034767008
1.831123115,0.035215157
1.857574095,0.03576137
1.88120622,0.036260712
1.90547704,0.036772315
1.930422364,0.037285822
1.95299786,0.037761135
1.97829908,0.038300616
2.000922233,0.038773187
2.026794905,0.039311334
2.050452076,0.039816176
2.074880495,0.040332712
2.100440925,0.040861451
2.123127778,0.041338875
2.149325348,0.041895715
2.172710361,0.042380608
2.199913326,0.042945296
2.227148057,0.043523975
2.251601505,0.044034647
2.277253512,0.044565849
2.301042031,0.045071216
2.326711498,0.045615884
2.35159707,0.046133302
2.374502874,0.046617188
2.400812026,0.047181367
2.424371626,0.047676244
2.450722005,0.048228116
2.47747503,0.04880107
2.502811147,0.049336003
2.528426778,0.049868779
2.541306867,0.050140824
2.568550436,0.05072117
2.591489937,0.051198077
2.618216495,0.051747853
2.643792873,0.052281465
2.669310717,0.05280404
2.697061343,0.05335677
2.719242339,0.053803529
2.747092689,0.054360566
2.774564132,0.054891912
2.799710339,0.055380374
2.827359195,0.055917964
2.852063805,0.056381659
2.878767445,0.056879654
2.906769433,0.05740526
2.930277254,0.057832172
2.95840234,0.05833428
2.98410225,0.05879878
3.011077695,0.059274228
3.039260263,0.059759072
3.064187063,0.06019466
3.09124841,0.060660118
3.117691934,0.061101742
3.14059935,0.061489044
3.168124512,0.061953217
3.192156576,0.062344194
3.21976229,0.062792799
3.248047485,0.063254875
3.272148544,0.063634121
3.301117969,0.064084883
3.329227782,0.06452634
3.353753336,0.064898189
3.382567554,0.065327943
3.411555652,0.06576663
3.438135903,0.066156454
3.466266215,0.066562346
3.492650335,0.066950128
3.519673216,0.067337132
3.547990141,0.067733461
3.573247557,0.068093435
3.601190693,0.068482905
3.629781525,0.068868667
3.654531782,0.069207642
3.681307242,0.069568157
3.706890567,0.069899151
3.731055766,0.070214535
3.760018927,0.070592159
3.785530311,0.070910864
3.8114542,0.071235284
3.839128221,0.071585767
3.865192414,0.071903537
3.894448573,0.072258103
3.923713513,0.07261845
3.950038274,0.072930046
3.97927551,0.07327338
4,0.073520875
4.016764688,0.073716711
4.042441258,0.074005822
4.067629894,0.074290946
4.08579151,0.074498678
4.111052217,0.074777865
4.139303992,0.075080991
4.16384577,0.07535006
4.191599472,0.075648166
4.22024484,0.075944623
4.246611675,0.076224051
4.275902489,0.07653015
4.305198375,0.076824903
4.331417639,0.077095111
4.360710316,0.077392015
4.390010688,0.077676829
4.416208884,0.077936952
4.445512961,0.078221943
4.473844632,0.078485175
4.500830771,0.078741268
4.530250409,0.079014939
4.559639431,0.079276486
4.585798562,0.07951552
4.615118459,0.079778817
4.644447301,0.080031712
4.670593491,0.080264076
4.699328721,0.080515348
4.729110574,0.080764962
4.755383386,0.08099148
4.784726607,0.081239169
4.814074092,0.081475463
4.840180665,0.081691233
4.868924525,0.08192321
4.898725117,0.082152021
4.924969111,0.082359408
4.954332069,0.082586308
4.983698809,0.082803046
5.009778252,0.083002404
5.039142204,0.083222623
5.068511828,0.083433509
5.094576813,0.083627723
5.123955242,0.083842063
5.153337954,0.084046474
5.180037364,0.084238617
5.207631662,0.084432109
5.232360028,0.0845962
5.257455467,0.084767178
5.286380907,0.084963516
5.315163967,0.085146378
5.342372149,0.085323564
5.371343379,0.085512681
5.398052735,0.085676512
5.426768268,0.08585774
5.454547837,0.086034874
5.482327407,0.086201256
5.510106976,0.086371819
5.539746505,0.086555432
5.569468933,0.086727038
5.59672824,0.086888448
5.625988718,0.087061167
5.652181133,0.087204716
5.678090504,0.087349936
5.706675424,0.087512136
5.732251845,0.087646932
5.760960039,0.087800475
5.790847209,0.087964799
5.816979112,0.088098659
5.84561406,0.088248047
5.875423516,0.088408331
5.901613403,0.088539207
5.930220621,0.088684219
5.959177381,0.088834975
5.985848231,0.08896298
6.003290555,0.089046012
6.029712928,0.089177718
6.059253362,0.089317921
6.089349145,0.089453302
6.116510211,0.089582665
6.144791443,0.089710639
6.174257371,0.089838434
6.200158295,0.089958403
6.226743931,0.090076644
6.256307091,0.090201653
6.281676074,0.090316271
6.311138787,0.090444863
6.340896432,0.090566698
6.367382627,0.090681987
6.395982279,0.090801028
6.425276134,0.090914598
6.451248338,0.091021727
6.477220542,0.091125102
6.506775658,0.091233686
6.532751341,0.091335656
6.562262742,0.091449484
6.591767292,0.091554683
6.617624875,0.091654053
6.647453586,0.091766869
6.677566674,0.091872231
6.702773215,0.091967199
6.73209881,0.092074917
6.76149544,0.092173623
6.787281048,0.092266268
6.817271529,0.09237066
6.84640645,0.092462659
6.872125812,0.092550084
6.902257231,0.092649584
6.931862612,0.092738792
6.959913573,0.092831282
6.989535149,0.09292549
7.001941508,0.092961726
7.026562656,0.093036727
7.055381653,0.093131596
7.083458221,0.093215541
7.113405689,0.093304528
7.143067739,0.09339887
7.168906029,0.093472006
7.198434972,0.09355517
7.22796272,0.093643843
7.25374892,0.093712204
7.28483707,0.093794939
7.314916084,0.093880718
7.341493137,0.093947536
7.371150335,0.094024898
7.397112731,0.094097941
7.423075127,0.09416308
7.452708654,0.094238376
7.482338708,0.094320487
7.508142448,0.094383645
7.537684777,0.094456288
7.567226737,0.09453466
7.592983342,0.094593992
7.624183247,0.094666099
7.65416133,0.09474046
7.680705682,0.09479696
7.710382715,0.094862596
7.740600698,0.094934513
7.769941281,0.09499471
7.798432399,0.095058182
7.824425495,0.095119618
7.851618384,0.095175284
7.88074782,0.095238419
7.909893847,0.09530592
7.934997338,0.095355428
7.963977893,0.095414726
7.991522429,0.095475456
8.004324888,0.095500325
8.033364631,0.095552192
8.059114502,0.095604667
8.090386106,0.095665431
8.121394808,0.09571827
8.148675942,0.095772991
8.178934506,0.095829123
8.209531759,0.095881591
8.238097844,0.095939391
8.26730624,0.09599184
8.297619994,0.096043993
8.326090333,0.09610025
8.353139623,0.096145764
8.382739561,0.096193556
8.412456853,0.096248262
8.440456376,0.096290893
8.470491701,0.096336502
8.500656572,0.096388709
8.52880327,0.096428572
8.558587372,0.096473888
8.588324027,0.096524632
8.614086888,0.096560795
8.643685109,0.096606274
8.67328389,0.096656734
8.70030157,0.096694013
8.730356238,0.096739322
8.760864577,0.096788197
8.787871769,0.096822048
8.816331957,0.096862132
8.842234039,0.096900937
8.869469427,0.096932729
8.899848177,0.096972128
8.930486283,0.097015798
8.957491547,0.097046102
8.985952137,0.097083869
9.016636635,0.09712776
9.047078853,0.097162496
9.073854936,0.09719958
9.103543926,0.09724086
9.133403769,0.09727345
9.161402719,0.097310645
9.191490366,0.097348306
9.221694041,0.0973779
9.250564385,0.097413904
9.279581744,0.097446001
9.309963371,0.097474188
9.339737169,0.097510968
9.367643213,0.097540322
9.397315336,0.097568975
9.425824321,0.097605275
9.45483813,0.097635824
9.485344311,0.097666329
9.513644146,0.097701907
9.540745831,0.097728304
9.570776423,0.09775615
9.601691508,0.097791542
9.628299822,0.097813578
9.658182801,0.097839098
9.688347904,0.097871099
9.716298888,0.09789226
9.746174794,0.097918409
9.772154886,0.097946368
9.798134978,0.097967123
9.827907147,0.097993083
9.856742502,0.09802488
9.885734023,0.098048123
9.91568697,0.098074749
9.945570799,0.098105565
9.972682699,0.098124378
10.00269219,0.098148884
10.03366784,0.098176885
10.06129223,0.098192988
10.08797539,0.098213649
10.11900743,0.098240386
10.14944415,0.098258038
10.17675899,0.098280969
10.20276801,0.098304172
10.23007606,0.098321034
10.25850694,0.098344472
10.28811632,0.098371345
10.31600728,0.098388055
10.3452299,0.098411265
10.37585975,0.098435912
10.40413888,0.098450013
10.42997615,0.098468572
10.46044413,0.098490529
10.49042918,0.098503779
10.51849639,0.098523796
10.54868493,0.098544381
10.57893981,0.098558829
10.60684317,0.09858087
10.63474654,0.09860036
10.66568645,0.098616414
10.69197717,0.09863774
10.72178744,0.098657465
10.75174821,0.098671693
10.77582419,0.098689509
10.80278749,0.098705793
10.83281984,0.09871686
10.86201285,0.098735656
10.89125231,0.098750714
10.92108779,0.09876148
10.94753248,0.098779238
10.97780189,0.098795326
11.00861359,0.098808459
11.03733825,0.098829505
11.06633651,0.098844402
11.09677149,0.098858657
11.12681196,0.09888001
11.15466657,0.098891513
11.18486523,0.09890438
11.21514343,0.098922858
11.24299182,0.098931001
11.27296602,0.098942896
11.3023214,0.098959288
11.3322163,0.098967288
11.36094541,0.098980716
11.38703797,0.098996302
11.41447201,0.099005091
11.44457052,0.099019854
11.47577192,0.099038776
11.50647305,0.099048306
11.5338662,0.099062899
11.56487921,0.099078539
11.59603611,0.099085746
11.62203116,0.0990984
11.653231,0.099110417
11.68437379,0.099116343
11.71404663,0.099130994
11.74276286,0.099140213
11.773544,0.099148204
11.80139015,0.099163864
11.8292363,0.099173597
11.85983537,0.099183317
11.89015781,0.099200827
11.91817737,0.099209088
11.94843145,0.099218672
11.97872666,0.09923375
12.00650842,0.099238644
12.03651896,0.099246828
12.06672577,0.099259321
12.09247977,0.099262338
12.12309011,0.099271007
12.15459201,0.099284157
12.18271485,0.09928843
12.20966182,0.099298834
12.23911386,0.099312619
12.27031801,0.0993187
12.29731215,0.099330346
12.32838346,0.099343104
12.35963849,0.099347679
12.38564091,0.099358044
12.41682746,0.099366965
12.44773113,0.099369526
12.47516378,0.09937966
12.50310783,0.099385877
12.53312544,0.099388706
12.56347156,0.099401113
12.59311657,0.099407805
12.62419908,0.099414206
12.64989662,0.099426573
12.67559417,0.099433198
12.70525393,0.099438497
12.73279214,0.099450716
12.76283894,0.099456796
12.79399007,0.099460982
12.82616087,0.099472239
12.85292434,0.099473646
12.88151737,0.099477299
12.9115886,0.099487382
12.94066169,0.099489136
12.97115469,0.099495813
13.00222472,0.099507061
13.03048767,0.099509696
13.05749368,0.09951804
13.08826486,0.099529564
13.11854037,0.099532178
13.14800349,0.099541504
13.17854587,0.099549143
13.20891349,0.099549577
13.23662463,0.099557408
13.26791314,0.099561838
13.29928787,0.099562403
13.32760319,0.099571358
13.35463153,0.099574751
13.38533084,0.099577331
13.41326537,0.09958798
13.4411999,0.099592647
13.46913443,0.099596077
13.49949507,0.099607836
13.52681624,0.099611514
13.55734611,0.099614534
13.5868232,0.099623904
13.61630028,0.0996245
13.64665779,0.09962683
13.67603487,0.099634296
13.70619768,0.099633328
13.73566341,0.099637702
13.76608049,0.099645744
13.79451791,0.09964596
13.82157745,0.099652481
13.85211556,0.099661824
13.8820566,0.099662989
13.91144733,0.099671276
13.94285441,0.099678041
13.9742594,0.099677919
14.00528644,0.09968596
14.03352899,0.099687336
14.06424043,0.099686538
14.09552774,0.099694058
14.12393325,0.099693869
14.15568457,0.099696227
14.18538833,0.099704773
14.21538545,0.099705316
14.24483824,0.09971117
14.27510678,0.099720057
14.30622332,0.099720397
14.33581274,0.099727503
14.36719682,0.099732766
14.3994425,0.099731295
14.42660989,0.099737323
14.45655743,0.099738621
14.4880893,0.099736967
14.51858989,0.099743991
14.54795145,0.099743926
14.57934623,0.099746065
14.61116248,0.0997549
14.64183787,0.099755023
14.67162692,0.099761251
14.70328086,0.099768655
14.73429333,0.099767886
14.76385866,0.099774632
14.79342399,0.099777302
14.82443459,0.099774859
14.85454315,0.099780709
14.88403114,0.099780236
14.91240968,0.099778791
14.94419712,0.099785977
14.97246965,0.099785744
15.00364139,0.099787993
15.0349949,0.099796639
15.06546339,0.099796456
15.09588902,0.099802022
15.12726622,0.099808404
15.15864871,0.099806476
15.18897319,0.09981225
15.21965187,0.099813388
15.25082302,0.099810542
15.2822849,0.099816209
15.31175626,0.099814503
15.34313564,0.09981479
15.37501405,0.099821739
15.40486319,0.099820353
15.43535887,0.099825436
15.46705838,0.099832082
15.49805909,0.099831056
15.52763047,0.099837797
15.5590193,0.099840316
15.59083366,0.099838283
15.62262789,0.099844039
15.65135396,0.099841585
15.68263973,0.099840565
15.71401392,0.099845674
15.74525741,0.099842422
15.77498914,0.099846019
15.80676751,0.099851493
15.83866158,0.0998502
15.86835067,0.099857567
15.89906401,0.099860669
15.93088157,0.099860088
15.96268533,0.099867043
15.99105943,0.099865195
16.02287619,0.099864418
16.05368059,0.099868712
16.08395879,0.099864269
16.11442624,0.099866074
16.14582711,0.099869734
16.17784447,0.099866821
16.20660315,0.099872897
16.23803766,0.099876112
16.26945334,0.099875838
16.30163129,0.099883976
16.33037623,0.099883491
16.36223908,0.099883939
16.39316767,0.099888999
16.42429008,0.099884503
16.45400496,0.09988579
16.48585092,0.099888046
16.51789021,0.099883465
16.54748704,0.099888231
16.57806824,0.099889574
16.60774876,0.099888259
16.63781932,0.099895714
16.6666559,0.099896711
16.69752793,0.099897094
16.72885048,0.099904174
16.75921414,0.099901811
16.78985421,0.099902574
16.82169803,0.099905987
16.85379782,0.099900533
16.88226331,0.099902957
16.91408525,0.099904029
16.94590861,0.09990043
16.97657055,0.09990645
17.00607563,0.099906769
17.03788758,0.099907122
17.06970414,0.099914733
17.09804125,0.099913394
17.12931144,0.099915465
17.16066903,0.099920247
17.19297738,0.099915665
17.22165183,0.099918164
17.25359057,0.09991864
17.28547719,0.099913773
17.31492732,0.099918002
17.34518466,0.099916937
17.37713937,0.099915744
17.40918921,0.099922532
17.43876707,0.099921001
17.46941059,0.099923956
17.50123838,0.099929777
17.53181647,0.099926755
17.56106853,0.099930403
17.592948,0.099931775
17.62495354,0.099927006
17.6556951,0.099930739
17.6851924,0.099928253
17.7170237,0.099925568
17.74885296,0.099930616
17.778339,0.099927799
17.80899893,0.099929989
17.84083053,0.099935745
17.87266074,0.09993342
17.9009602,0.099938338
17.93279236,0.099941111
17.96359594,0.099937723
17.99488322,0.099942224
18.0246053,0.099939879
18.0557544,0.09993643
18.08773721,0.099940215
18.11750954,0.099935937
18.14840599,0.099936468
18.18034676,0.099940924
18.21220564,0.099937914
18.24050531,0.099942868
18.27231634,0.099946376
18.30414546,0.099944353
18.33482362,0.09995033
18.3642996,0.09994916
18.39533455,0.099946578
18.42764446,0.099950414
18.45631758,0.099945662
18.4849907,0.099944348
18.51682269,0.099947751
18.54586763,0.099943423
18.57603333,0.099945798
18.60811492,0.099949854
18.64011001,0.099947406
18.66961599,0.099953466
18.70027722,0.099955053
18.73211859,0.099953169
18.76269021,0.099958427
18.79189689,0.099955425
18.82394297,0.099953336
18.85589908,0.099956186
18.88656444,0.099950514
18.91604148,0.099951654
18.94788953,0.099953944
18.9797367,0.099950227
19.00920561,0.099955638
19.03985726,0.099957254
19.07077624,0.099956083
19.10204537,0.099962757
19.13147238,0.099961239
19.16352054,0.099960564
19.19445452,0.099964258
19.22582868,0.099958649
19.25557053,0.099959101
19.2852482,0.099960424
19.31739515,0.099954899
19.34508308,0.09995809
19.37413404,0.099959848
19.40475784,0.099956908
19.43143782,0.099962101
19.46149709,0.099964519
19.49175056,0.099962468
19.51947229,0.099967814
19.5479898,0.099968063
19.57836641,0.099964426
19.60819609,0.099968188
19.63746207,0.099965159
19.66843384,0.0999615
19.69971124,0.09996502
19.72911755,0.099960916
19.76054913,0.099961292
19.79284025,0.099965783
19.82486754,0.099962783
19.85312455,0.099967541
19.88498203,0.099970528
19.91579575,0.099967929
19.94601711,0.099973008
19.97643311,0.099971387
20.00862191,0.099968214
20.04061989,0.099971401
20.070071,0.099966176
20.10071942,0.099965528
20.13259316,0.099968223
20.16447811,0.099963783
20.19269359,0.099967685
20.22455605,0.099970397
20.25642235,0.099968445
20.28708496,0.099974826
20.31651956,0.099974341
20.34839769,0.099972829
20.38026823,0.09997707
20.40969039,0.099972239
20.44033651,0.099971311
20.47219764,0.099972994
20.50278782,0.09996725
20.53193688,0.099969566
20.5633576,0.099971011
20.59577764,0.099968037
20.62541359,0.099974001
20.65562078,0.0999743
20.68701308,0.099973806
20.71846581,0.099979716
20.74890748,0.099976454
20.77976907,0.099976566
20.81079862,0.099978764
20.84331141,0.099972434
20.87179828,0.099973944
20.90368786,0.099973723
20.93451771,0.099969277
20.96588894,0.099974134
20.99557376,0.099973428
21.02749655,0.09997302
21.05938343,0.099979451
21.08759654,0.099977349
21.11887216,0.099978776
21.15023822,0.099982536
21.18288799,0.099977326
21.21135903,0.099979207
21.24330754,0.099978607
21.27521456,0.099973146
21.3045635,0.099976429
21.33212314,0.099974849
21.36345722,0.099972062
21.39537544,0.09997785
21.42358783,0.099976407
21.45544357,0.099977424
21.48731225,0.099983125
21.51672923,0.099979946
21.54693139,0.099981992
21.57911282,0.099983765
21.61114214,0.099978136
21.64057792,0.099980566
21.67121331,0.099978544
21.70310319,0.099974257
21.73500169,0.099978447
21.76322473,0.099975766
21.79297823,0.099975513
21.82324265,0.099981278
21.85273017,0.099979155
21.88341517,0.099981395
21.91437176,0.099985808
21.9468753,0.099981586
21.97534469,0.099984158
22.00654868,0.099984063
22.03789283,0.099978491
22.06828484,0.099981265
22.0986639,0.099978464
22.13089385,0.099975697
22.16288861,0.099980383
22.19213305,0.099977477
22.22291133,0.099979509
22.25484616,0.099984433
22.28674124,0.099981461
22.31492625,0.09998545
22.34609619,0.099986875
22.37843917,0.099982471
22.40929201,0.099985812
22.4387432,0.09998249
22.46981168,0.099978772
22.50112255,0.099981997
22.53043359,0.099977824
22.56187162,0.099978214
22.59421102,0.099982429
22.6262881,0.099979398
22.65453788,0.099983984
22.68641422,0.099986519
22.71829073,0.099983814
22.74892244,0.099988575
22.77832257,0.099986238
22.81021673,0.099983019
22.84211195,0.099985787
22.87151785,0.099980436
22.90215866,0.099979823
22.9340464,0.099982282
22.96464116,0.099977976
22.99371109,0.099981699
23.02584131,0.099984231
23.05787659,0.099982248
23.08731095,0.099988093
23.11744921,0.09998751
23.14883979,0.099985649
23.17902378,0.099989526
23.19036083,0.099988756
23.21683197,0.099983424
23.24520514,0.099983908
23.27707877,0.099984262
23.30789294,0.099978867
23.33810654,0.099982265
23.3689976,0.09998211
23.40006354,0.099980207
23.43260422,0.099986542
23.46099026,0.099985239
23.49293349,0.099986032
23.51375784,0.099990119
23.53954386,0.099989035
23.55759199,0.099986155
23.58551377,0.099987734
23.60902362,0.099989121
23.62446853,0.09998649
23.65545875,0.099982076
23.68722284,0.099985093
23.71573357,0.099981334
23.74771504,0.099980487
23.77966785,0.099984804
23.81030275,0.099981755
23.8396751,0.099985331
23.87164461,0.09998886
23.90326303,0.099986019
23.93042881,0.099990055
23.94703504,0.099991534
23.96942605,0.09998836
23.99141934,0.099985721
24.0203596,0.099988501
24.05111079,0.099985243
24.08350163,0.09998177
24.11563102,0.099984982
24.14514255,0.099980947
24.17400313,0.099981954
24.20649966,0.099986382
24.23924908,0.099983611
24.26749792,0.099988124
24.28529085,0.099990805
24.31040749,0.099988579
24.32770866,0.099987174
24.35062941,0.099989954
24.37241905,0.099991623
24.39262668,0.099988295
24.4147376,0.099985143
24.44252731,0.099987509
24.47285193,0.09998504
24.50465334,0.099981216
24.53653606,0.099985188
24.56528974,0.099982405
24.59537164,0.099982836
24.62595072,0.099988121
24.65338201,0.099985959
24.68235675,0.099987723
24.69751795,0.099990875
24.72464886,0.09999103
24.74411846,0.099988078
24.76828571,0.09998897
24.78451977,0.099991091
24.81293155,0.099988414
24.82868296,0.099985162
24.8577167,0.09998559
24.88873349,0.09998596
24.92050283,0.099980952
24.9507164,0.099984674
24.98154535,0.099984674
