%!PS-Adobe-3.0 EPSF-3.0
%%Creator: (MATLAB, The Mathworks, Inc. Version 9.9.0.1467703 \(R2020b\). Operating System: Windows 10)
%%Title: C:/AlexData/IDrive-Sync/LUT/Courses/Fatigue_Design/Assignment5/Question2_images/figure_0.eps
%%CreationDate: 2020-11-29T00:04:11
%%Pages: (atend)
%%BoundingBox:     0     0   420   315
%%LanguageLevel: 3
%%EndComments
%%BeginProlog
%%BeginResource: procset (Apache XML Graphics Std ProcSet) 1.2 0
%%Version: 1.2 0
%%Copyright: (Copyright 2001-2003,2010 The Apache Software Foundation. License terms: http://www.apache.org/licenses/LICENSE-2.0)
/bd{bind def}bind def
/ld{load def}bd
/GR/grestore ld
/GS/gsave ld
/RM/rmoveto ld
/C/curveto ld
/t/show ld
/L/lineto ld
/ML/setmiterlimit ld
/CT/concat ld
/f/fill ld
/N/newpath ld
/S/stroke ld
/CC/setcmykcolor ld
/A/ashow ld
/cp/closepath ld
/RC/setrgbcolor ld
/LJ/setlinejoin ld
/GC/setgray ld
/LW/setlinewidth ld
/M/moveto ld
/re {4 2 roll M
1 index 0 rlineto
0 exch rlineto
neg 0 rlineto
cp } bd
/_ctm matrix def
/_tm matrix def
/BT { _ctm currentmatrix pop matrix _tm copy pop 0 0 moveto } bd
/ET { _ctm setmatrix } bd
/iTm { _ctm setmatrix _tm concat } bd
/Tm { _tm astore pop iTm 0 0 moveto } bd
/ux 0.0 def
/uy 0.0 def
/F {
  /Tp exch def
  /Tf exch def
  Tf findfont Tp scalefont setfont
  /cf Tf def  /cs Tp def
} bd
/ULS {currentpoint /uy exch def /ux exch def} bd
/ULE {
  /Tcx currentpoint pop def
  gsave
  newpath
  cf findfont cs scalefont dup
  /FontMatrix get 0 get /Ts exch def /FontInfo get dup
  /UnderlinePosition get Ts mul /To exch def
  /UnderlineThickness get Ts mul /Tt exch def
  ux uy To add moveto  Tcx uy To add lineto
  Tt setlinewidth stroke
  grestore
} bd
/OLE {
  /Tcx currentpoint pop def
  gsave
  newpath
  cf findfont cs scalefont dup
  /FontMatrix get 0 get /Ts exch def /FontInfo get dup
  /UnderlinePosition get Ts mul /To exch def
  /UnderlineThickness get Ts mul /Tt exch def
  ux uy To add cs add moveto Tcx uy To add cs add lineto
  Tt setlinewidth stroke
  grestore
} bd
/SOE {
  /Tcx currentpoint pop def
  gsave
  newpath
  cf findfont cs scalefont dup
  /FontMatrix get 0 get /Ts exch def /FontInfo get dup
  /UnderlinePosition get Ts mul /To exch def
  /UnderlineThickness get Ts mul /Tt exch def
  ux uy To add cs 10 mul 26 idiv add moveto Tcx uy To add cs 10 mul 26 idiv add lineto
  Tt setlinewidth stroke
  grestore
} bd
/QT {
/Y22 exch store
/X22 exch store
/Y21 exch store
/X21 exch store
currentpoint
/Y21 load 2 mul add 3 div exch
/X21 load 2 mul add 3 div exch
/X21 load 2 mul /X22 load add 3 div
/Y21 load 2 mul /Y22 load add 3 div
/X22 load /Y22 load curveto
} bd
/SSPD {
dup length /d exch dict def
{
/v exch def
/k exch def
currentpagedevice k known {
/cpdv currentpagedevice k get def
v cpdv ne {
/upd false def
/nullv v type /nulltype eq def
/nullcpdv cpdv type /nulltype eq def
nullv nullcpdv or
{
/upd true def
} {
/sametype v type cpdv type eq def
sametype {
v type /arraytype eq {
/vlen v length def
/cpdvlen cpdv length def
vlen cpdvlen eq {
0 1 vlen 1 sub {
/i exch def
/obj v i get def
/cpdobj cpdv i get def
obj cpdobj ne {
/upd true def
exit
} if
} for
} {
/upd true def
} ifelse
} {
v type /dicttype eq {
v {
/dv exch def
/dk exch def
/cpddv cpdv dk get def
dv cpddv ne {
/upd true def
exit
} if
} forall
} {
/upd true def
} ifelse
} ifelse
} if
} ifelse
upd true eq {
d k v put
} if
} if
} if
} forall
d length 0 gt {
d setpagedevice
} if
} bd
/RE { % /NewFontName [NewEncodingArray] /FontName RE -
  findfont dup length dict begin
  {
    1 index /FID ne
    {def} {pop pop} ifelse
  } forall
  /Encoding exch def
  /FontName 1 index def
  currentdict definefont pop
  end
} bind def
%%EndResource
%%BeginResource: procset (Apache XML Graphics EPS ProcSet) 1.0 0
%%Version: 1.0 0
%%Copyright: (Copyright 2002-2003 The Apache Software Foundation. License terms: http://www.apache.org/licenses/LICENSE-2.0)
/BeginEPSF { %def
/b4_Inc_state save def         % Save state for cleanup
/dict_count countdictstack def % Count objects on dict stack
/op_count count 1 sub def      % Count objects on operand stack
userdict begin                 % Push userdict on dict stack
/showpage { } def              % Redefine showpage, { } = null proc
0 setgray 0 setlinecap         % Prepare graphics state
1 setlinewidth 0 setlinejoin
10 setmiterlimit [ ] 0 setdash newpath
/languagelevel where           % If level not equal to 1 then
{pop languagelevel             % set strokeadjust and
1 ne                           % overprint to their defaults.
{false setstrokeadjust false setoverprint
} if
} if
} bd
/EndEPSF { %def
count op_count sub {pop} repeat            % Clean up stacks
countdictstack dict_count sub {end} repeat
b4_Inc_state restore
} bd
%%EndResource
%FOPBeginFontDict
%%IncludeResource: font Courier-Oblique
%%IncludeResource: font Courier-BoldOblique
%%IncludeResource: font Courier-Bold
%%IncludeResource: font ZapfDingbats
%%IncludeResource: font Symbol
%%IncludeResource: font Helvetica
%%IncludeResource: font Helvetica-Oblique
%%IncludeResource: font Helvetica-Bold
%%IncludeResource: font Helvetica-BoldOblique
%%IncludeResource: font Times-Roman
%%IncludeResource: font Times-Italic
%%IncludeResource: font Times-Bold
%%IncludeResource: font Times-BoldItalic
%%IncludeResource: font Courier
%FOPEndFontDict
%%BeginResource: encoding WinAnsiEncoding
/WinAnsiEncoding [
/.notdef /.notdef /.notdef /.notdef /.notdef
/.notdef /.notdef /.notdef /.notdef /.notdef
/.notdef /.notdef /.notdef /.notdef /.notdef
/.notdef /.notdef /.notdef /.notdef /.notdef
/.notdef /.notdef /.notdef /.notdef /.notdef
/.notdef /.notdef /.notdef /.notdef /.notdef
/.notdef /.notdef /space /exclam /quotedbl
/numbersign /dollar /percent /ampersand /quotesingle
/parenleft /parenright /asterisk /plus /comma
/hyphen /period /slash /zero /one
/two /three /four /five /six
/seven /eight /nine /colon /semicolon
/less /equal /greater /question /at
/A /B /C /D /E
/F /G /H /I /J
/K /L /M /N /O
/P /Q /R /S /T
/U /V /W /X /Y
/Z /bracketleft /backslash /bracketright /asciicircum
/underscore /quoteleft /a /b /c
/d /e /f /g /h
/i /j /k /l /m
/n /o /p /q /r
/s /t /u /v /w
/x /y /z /braceleft /bar
/braceright /asciitilde /bullet /Euro /bullet
/quotesinglbase /florin /quotedblbase /ellipsis /dagger
/daggerdbl /circumflex /perthousand /Scaron /guilsinglleft
/OE /bullet /Zcaron /bullet /bullet
/quoteleft /quoteright /quotedblleft /quotedblright /bullet
/endash /emdash /asciitilde /trademark /scaron
/guilsinglright /oe /bullet /zcaron /Ydieresis
/space /exclamdown /cent /sterling /currency
/yen /brokenbar /section /dieresis /copyright
/ordfeminine /guillemotleft /logicalnot /sfthyphen /registered
/macron /degree /plusminus /twosuperior /threesuperior
/acute /mu /paragraph /middot /cedilla
/onesuperior /ordmasculine /guillemotright /onequarter /onehalf
/threequarters /questiondown /Agrave /Aacute /Acircumflex
/Atilde /Adieresis /Aring /AE /Ccedilla
/Egrave /Eacute /Ecircumflex /Edieresis /Igrave
/Iacute /Icircumflex /Idieresis /Eth /Ntilde
/Ograve /Oacute /Ocircumflex /Otilde /Odieresis
/multiply /Oslash /Ugrave /Uacute /Ucircumflex
/Udieresis /Yacute /Thorn /germandbls /agrave
/aacute /acircumflex /atilde /adieresis /aring
/ae /ccedilla /egrave /eacute /ecircumflex
/edieresis /igrave /iacute /icircumflex /idieresis
/eth /ntilde /ograve /oacute /ocircumflex
/otilde /odieresis /divide /oslash /ugrave
/uacute /ucircumflex /udieresis /yacute /thorn
/ydieresis
] def
%%EndResource
%FOPBeginFontReencode
/Courier-Oblique findfont
dup length dict begin
  {1 index /FID ne {def} {pop pop} ifelse} forall
  /Encoding WinAnsiEncoding def
  currentdict
end
/Courier-Oblique exch definefont pop
/Courier-BoldOblique findfont
dup length dict begin
  {1 index /FID ne {def} {pop pop} ifelse} forall
  /Encoding WinAnsiEncoding def
  currentdict
end
/Courier-BoldOblique exch definefont pop
/Courier-Bold findfont
dup length dict begin
  {1 index /FID ne {def} {pop pop} ifelse} forall
  /Encoding WinAnsiEncoding def
  currentdict
end
/Courier-Bold exch definefont pop
/Helvetica findfont
dup length dict begin
  {1 index /FID ne {def} {pop pop} ifelse} forall
  /Encoding WinAnsiEncoding def
  currentdict
end
/Helvetica exch definefont pop
/Helvetica-Oblique findfont
dup length dict begin
  {1 index /FID ne {def} {pop pop} ifelse} forall
  /Encoding WinAnsiEncoding def
  currentdict
end
/Helvetica-Oblique exch definefont pop
/Helvetica-Bold findfont
dup length dict begin
  {1 index /FID ne {def} {pop pop} ifelse} forall
  /Encoding WinAnsiEncoding def
  currentdict
end
/Helvetica-Bold exch definefont pop
/Helvetica-BoldOblique findfont
dup length dict begin
  {1 index /FID ne {def} {pop pop} ifelse} forall
  /Encoding WinAnsiEncoding def
  currentdict
end
/Helvetica-BoldOblique exch definefont pop
/Times-Roman findfont
dup length dict begin
  {1 index /FID ne {def} {pop pop} ifelse} forall
  /Encoding WinAnsiEncoding def
  currentdict
end
/Times-Roman exch definefont pop
/Times-Italic findfont
dup length dict begin
  {1 index /FID ne {def} {pop pop} ifelse} forall
  /Encoding WinAnsiEncoding def
  currentdict
end
/Times-Italic exch definefont pop
/Times-Bold findfont
dup length dict begin
  {1 index /FID ne {def} {pop pop} ifelse} forall
  /Encoding WinAnsiEncoding def
  currentdict
end
/Times-Bold exch definefont pop
/Times-BoldItalic findfont
dup length dict begin
  {1 index /FID ne {def} {pop pop} ifelse} forall
  /Encoding WinAnsiEncoding def
  currentdict
end
/Times-BoldItalic exch definefont pop
/Courier findfont
dup length dict begin
  {1 index /FID ne {def} {pop pop} ifelse} forall
  /Encoding WinAnsiEncoding def
  currentdict
end
/Courier exch definefont pop
%FOPEndFontReencode
%%EndProlog
%%Page: 1 1
%%PageBoundingBox: 0 0 420 315
%%BeginPageSetup
[1 0 0 -1 0 315] CT
%%EndPageSetup
GS
[0.42857 0 0 0.42857 0 0] CT
1 GC
N
0 0 980 735 re
f
GR
GS
[0.42857 0 0 0.42857 0 0] CT
1 GC
N
127 654 M
887 654 L
887 55 L
127 55 L
cp
f
GR
GS
[0.42857 0 0 0.42857 0 0] CT
0.873 GC
1 LJ
1.167 LW
N
127 654 M
127 55 L
S
GR
GS
[0.42857 0 0 0.42857 0 0] CT
0.873 GC
1 LJ
1.167 LW
N
279 654 M
279 55 L
S
GR
GS
[0.42857 0 0 0.42857 0 0] CT
0.873 GC
1 LJ
1.167 LW
N
431 654 M
431 55 L
S
GR
GS
[0.42857 0 0 0.42857 0 0] CT
0.873 GC
1 LJ
1.167 LW
N
583 654 M
583 55 L
S
GR
GS
[0.42857 0 0 0.42857 0 0] CT
0.873 GC
1 LJ
1.167 LW
N
735 654 M
735 55 L
S
GR
GS
[0.42857 0 0 0.42857 0 0] CT
0.873 GC
1 LJ
1.167 LW
N
887 654 M
887 55 L
S
GR
GS
[0.42857 0 0 0.42857 0 0] CT
0.873 GC
1 LJ
1.167 LW
N
887 654 M
127 654 L
S
GR
GS
[0.42857 0 0 0.42857 0 0] CT
0.873 GC
1 LJ
1.167 LW
N
887 534.2 M
127 534.2 L
S
GR
GS
[0.42857 0 0 0.42857 0 0] CT
0.873 GC
1 LJ
1.167 LW
N
887 414.4 M
127 414.4 L
S
GR
GS
[0.42857 0 0 0.42857 0 0] CT
0.873 GC
1 LJ
1.167 LW
N
887 294.6 M
127 294.6 L
S
GR
GS
[0.42857 0 0 0.42857 0 0] CT
0.873 GC
1 LJ
1.167 LW
N
887 174.8 M
127 174.8 L
S
GR
GS
[0.42857 0 0 0.42857 0 0] CT
0.873 GC
1 LJ
1.167 LW
N
887 55 M
127 55 L
S
GR
GS
[0.42857 0 0 0.42857 0 0] CT
0.149 GC
2 setlinecap
1 LJ
1.167 LW
N
127 654 M
887 654 L
S
GR
GS
[0.42857 0 0 0.42857 0 0] CT
0.149 GC
2 setlinecap
1 LJ
1.167 LW
N
127 55 M
887 55 L
S
GR
GS
[0.42857 0 0 0.42857 0 0] CT
0.149 GC
2 setlinecap
1 LJ
1.167 LW
N
127 654 M
127 646.4 L
S
GR
GS
[0.42857 0 0 0.42857 0 0] CT
0.149 GC
2 setlinecap
1 LJ
1.167 LW
N
279 654 M
279 646.4 L
S
GR
GS
[0.42857 0 0 0.42857 0 0] CT
0.149 GC
2 setlinecap
1 LJ
1.167 LW
N
431 654 M
431 646.4 L
S
GR
GS
[0.42857 0 0 0.42857 0 0] CT
0.149 GC
2 setlinecap
1 LJ
1.167 LW
N
583 654 M
583 646.4 L
S
GR
GS
[0.42857 0 0 0.42857 0 0] CT
0.149 GC
2 setlinecap
1 LJ
1.167 LW
N
735 654 M
735 646.4 L
S
GR
GS
[0.42857 0 0 0.42857 0 0] CT
0.149 GC
2 setlinecap
1 LJ
1.167 LW
N
887 654 M
887 646.4 L
S
GR
GS
[0.42857 0 0 0.42857 0 0] CT
0.149 GC
2 setlinecap
1 LJ
1.167 LW
N
127 55 M
127 62.6 L
S
GR
GS
[0.42857 0 0 0.42857 0 0] CT
0.149 GC
2 setlinecap
1 LJ
1.167 LW
N
279 55 M
279 62.6 L
S
GR
GS
[0.42857 0 0 0.42857 0 0] CT
0.149 GC
2 setlinecap
1 LJ
1.167 LW
N
431 55 M
431 62.6 L
S
GR
GS
[0.42857 0 0 0.42857 0 0] CT
0.149 GC
2 setlinecap
1 LJ
1.167 LW
N
583 55 M
583 62.6 L
S
GR
GS
[0.42857 0 0 0.42857 0 0] CT
0.149 GC
2 setlinecap
1 LJ
1.167 LW
N
735 55 M
735 62.6 L
S
GR
GS
[0.42857 0 0 0.42857 0 0] CT
0.149 GC
2 setlinecap
1 LJ
1.167 LW
N
887 55 M
887 62.6 L
S
GR
GS
[0.42857 0 0 0.42857 54.42857 284.28573] CT
0.149 GC
/Helvetica 23.333 F
GS
[1 0 0 1 0 0] CT
-27 24 moveto 
1 -1 scale
(-0.01) t 
GR
GR
GS
[0.42857 0 0 0.42857 119.57143 284.28573] CT
0.149 GC
/Helvetica 23.333 F
GS
[1 0 0 1 0 0] CT
-33.5 24 moveto 
1 -1 scale
(-0.005) t 
GR
GR
GS
[0.42857 0 0 0.42857 184.71429 284.28573] CT
0.149 GC
/Helvetica 23.333 F
GS
[1 0 0 1 0 0] CT
-6.5 24 moveto 
1 -1 scale
(0) t 
GR
GR
GS
[0.42857 0 0 0.42857 249.85714 284.28573] CT
0.149 GC
/Helvetica 23.333 F
GS
[1 0 0 1 0 0] CT
-29.5 24 moveto 
1 -1 scale
(0.005) t 
GR
GR
GS
[0.42857 0 0 0.42857 315 284.28573] CT
0.149 GC
/Helvetica 23.333 F
GS
[1 0 0 1 0 0] CT
-23 24 moveto 
1 -1 scale
(0.01) t 
GR
GR
GS
[0.42857 0 0 0.42857 380.14286 284.28573] CT
0.149 GC
/Helvetica 23.333 F
GS
[1 0 0 1 0 0] CT
-29.5 24 moveto 
1 -1 scale
(0.015) t 
GR
GR
GS
[0.42857 0 0 0.42857 214.71429 309.42857] CT
0.149 GC
N
3.203 -3.672 M
3.203 -2.797 3.516 -2.047 QT
3.828 -1.297 4.469 -0.844 QT
5.109 -0.391 5.984 -0.391 QT
6.563 -0.391 7.227 -0.648 QT
7.891 -0.906 8.453 -1.211 QT
9.016 -1.516 9.031 -1.516 QT
9.172 -1.516 9.25 -1.352 QT
9.328 -1.188 9.328 -1.047 QT
9.328 -0.906 9.25 -0.859 QT
7.625 0.297 5.953 0.297 QT
4.578 0.297 3.477 -0.344 QT
2.375 -0.984 1.773 -2.133 QT
1.172 -3.281 1.172 -4.641 QT
1.172 -5.984 1.719 -7.195 QT
2.266 -8.406 3.227 -9.305 QT
4.188 -10.203 5.406 -10.703 QT
6.625 -11.203 7.953 -11.203 QT
9.438 -11.203 L
9.828 -11.203 9.828 -10.813 QT
9.828 -10.594 9.68 -10.445 QT
9.531 -10.297 9.328 -10.297 QT
7.906 -10.297 L
6.875 -10.297 6.031 -9.836 QT
5.188 -9.375 4.609 -8.563 QT
4.031 -7.75 3.719 -6.734 QT
8.313 -6.734 L
8.5 -6.734 8.602 -6.625 QT
8.703 -6.516 8.703 -6.344 QT
8.703 -6.125 8.57 -5.977 QT
8.438 -5.828 8.219 -5.828 QT
3.484 -5.828 L
3.203 -4.484 3.203 -3.672 QT
cp
f
GR
GS
[0.42857 0 0 0.42857 0 0] CT
0.149 GC
2 setlinecap
1 LJ
1.167 LW
N
127 654 M
127 55 L
S
GR
GS
[0.42857 0 0 0.42857 0 0] CT
0.149 GC
2 setlinecap
1 LJ
1.167 LW
N
887 654 M
887 55 L
S
GR
GS
[0.42857 0 0 0.42857 0 0] CT
0.149 GC
2 setlinecap
1 LJ
1.167 LW
N
127 654 M
134.6 654 L
S
GR
GS
[0.42857 0 0 0.42857 0 0] CT
0.149 GC
2 setlinecap
1 LJ
1.167 LW
N
127 534.2 M
134.6 534.2 L
S
GR
GS
[0.42857 0 0 0.42857 0 0] CT
0.149 GC
2 setlinecap
1 LJ
1.167 LW
N
127 414.4 M
134.6 414.4 L
S
GR
GS
[0.42857 0 0 0.42857 0 0] CT
0.149 GC
2 setlinecap
1 LJ
1.167 LW
N
127 294.6 M
134.6 294.6 L
S
GR
GS
[0.42857 0 0 0.42857 0 0] CT
0.149 GC
2 setlinecap
1 LJ
1.167 LW
N
127 174.8 M
134.6 174.8 L
S
GR
GS
[0.42857 0 0 0.42857 0 0] CT
0.149 GC
2 setlinecap
1 LJ
1.167 LW
N
127 55 M
134.6 55 L
S
GR
GS
[0.42857 0 0 0.42857 0 0] CT
0.149 GC
2 setlinecap
1 LJ
1.167 LW
N
887 654 M
879.4 654 L
S
GR
GS
[0.42857 0 0 0.42857 0 0] CT
0.149 GC
2 setlinecap
1 LJ
1.167 LW
N
887 534.2 M
879.4 534.2 L
S
GR
GS
[0.42857 0 0 0.42857 0 0] CT
0.149 GC
2 setlinecap
1 LJ
1.167 LW
N
887 414.4 M
879.4 414.4 L
S
GR
GS
[0.42857 0 0 0.42857 0 0] CT
0.149 GC
2 setlinecap
1 LJ
1.167 LW
N
887 294.6 M
879.4 294.6 L
S
GR
GS
[0.42857 0 0 0.42857 0 0] CT
0.149 GC
2 setlinecap
1 LJ
1.167 LW
N
887 174.8 M
879.4 174.8 L
S
GR
GS
[0.42857 0 0 0.42857 0 0] CT
0.149 GC
2 setlinecap
1 LJ
1.167 LW
N
887 55 M
879.4 55 L
S
GR
GS
[0.42857 0 0 0.42857 50.42857 280.28571] CT
0.149 GC
/Helvetica 23.333 F
GS
[1 0 0 1 0 0] CT
-60 9 moveto 
1 -1 scale
(-1000) t 
GR
GR
GS
[0.42857 0 0 0.42857 50.42857 228.94286] CT
0.149 GC
/Helvetica 23.333 F
GS
[1 0 0 1 0 0] CT
-47 9 moveto 
1 -1 scale
(-500) t 
GR
GR
GS
[0.42857 0 0 0.42857 50.42857 177.6] CT
0.149 GC
/Helvetica 23.333 F
GS
[1 0 0 1 0 0] CT
-13 9 moveto 
1 -1 scale
(0) t 
GR
GR
GS
[0.42857 0 0 0.42857 50.42857 126.25715] CT
0.149 GC
/Helvetica 23.333 F
GS
[1 0 0 1 0 0] CT
-39 9 moveto 
1 -1 scale
(500) t 
GR
GR
GS
[0.42857 0 0 0.42857 50.42857 74.91429] CT
0.149 GC
/Helvetica 23.333 F
GS
[1 0 0 1 0 0] CT
-52 9 moveto 
1 -1 scale
(1000) t 
GR
GR
GS
[0.42857 0 0 0.42857 50.42857 23.57143] CT
0.149 GC
/Helvetica 23.333 F
GS
[1 0 0 1 0 0] CT
-52 9 moveto 
1 -1 scale
(1500) t 
GR
GR
GS
[0 -0.42857 0.42857 0 19.28571 171.42857] CT
0.149 GC
N
4.859 0.297 M
3.703 0.297 2.813 -0.258 QT
1.922 -0.813 1.43 -1.75 QT
0.938 -2.688 0.938 -3.828 QT
0.938 -5.031 1.484 -6.359 QT
2.031 -7.688 2.977 -8.797 QT
3.922 -9.906 5.117 -10.555 QT
6.313 -11.203 7.563 -11.203 QT
14.125 -11.203 L
14.391 -11.203 14.578 -11.031 QT
14.766 -10.859 14.766 -10.547 QT
14.766 -10.172 14.492 -9.883 QT
14.219 -9.594 13.844 -9.594 QT
10.672 -9.594 L
11.406 -8.484 11.406 -6.891 QT
11.406 -5.594 10.898 -4.32 QT
10.391 -3.047 9.492 -2 QT
8.594 -0.953 7.398 -0.328 QT
6.203 0.297 4.859 0.297 QT
cp
4.891 -0.391 M
6.313 -0.391 7.406 -1.5 QT
8.5 -2.609 9.086 -4.219 QT
9.672 -5.828 9.672 -7.203 QT
9.672 -8.313 9.055 -8.953 QT
8.438 -9.594 7.344 -9.594 QT
5.828 -9.594 4.766 -8.578 QT
3.703 -7.563 3.18 -6.031 QT
2.656 -4.5 2.656 -3.078 QT
2.656 -1.953 3.242 -1.172 QT
3.828 -0.391 4.891 -0.391 QT
cp
f
GR
GS
[0 -0.42857 0.42857 0 19.28571 165] CT
0.149 GC
/Helvetica 25.667 F
GS
[1 0 0 1 0 0] CT
0 0 moveto 
1 -1 scale
( \(MPa\)) t 
GR
GR
GS
[0.42857 0 0 0.42857 0 0] CT
0 0.447 0.741 RC
1 LJ
1.167 LW
N
431 414.4 M
431.884 413.585 L
432.768 412.77 L
433.652 411.955 L
434.535 411.14 L
435.419 410.325 L
436.303 409.51 L
437.187 408.695 L
438.071 407.88 L
438.955 407.065 L
439.838 406.25 L
440.722 405.435 L
441.606 404.62 L
442.49 403.805 L
443.374 402.99 L
444.258 402.175 L
445.141 401.36 L
446.025 400.545 L
446.909 399.73 L
447.793 398.915 L
448.677 398.099 L
449.561 397.284 L
450.444 396.469 L
451.328 395.654 L
452.212 394.839 L
453.096 394.024 L
453.98 393.209 L
454.864 392.394 L
455.747 391.579 L
456.631 390.764 L
457.515 389.949 L
458.399 389.134 L
459.283 388.319 L
460.167 387.504 L
461.05 386.689 L
461.934 385.874 L
462.818 385.059 L
463.702 384.244 L
464.586 383.429 L
465.47 382.614 L
466.353 381.799 L
467.237 380.984 L
468.121 380.169 L
469.005 379.354 L
469.889 378.539 L
470.773 377.724 L
471.656 376.909 L
472.54 376.094 L
473.424 375.279 L
474.308 374.464 L
475.192 373.649 L
476.076 372.834 L
476.96 372.019 L
477.843 371.204 L
478.727 370.389 L
479.611 369.574 L
480.495 368.759 L
481.379 367.944 L
482.263 367.129 L
483.146 366.314 L
484.03 365.499 L
484.914 364.683 L
485.798 363.868 L
486.682 363.053 L
487.566 362.238 L
488.449 361.423 L
489.333 360.608 L
490.217 359.793 L
491.101 358.978 L
491.985 358.163 L
492.869 357.348 L
493.753 356.533 L
494.636 355.718 L
495.52 354.903 L
496.404 354.088 L
497.288 353.273 L
498.172 352.458 L
499.056 351.643 L
499.94 350.828 L
500.824 350.013 L
501.708 349.198 L
502.591 348.383 L
503.475 347.568 L
504.359 346.753 L
505.243 345.938 L
506.127 345.123 L
507.011 344.308 L
507.895 343.493 L
508.779 342.678 L
509.663 341.863 L
510.547 341.048 L
511.431 340.233 L
512.315 339.418 L
513.199 338.603 L
514.084 337.788 L
514.968 336.973 L
515.852 336.158 L
516.736 335.343 L
517.62 334.528 L
518.505 333.713 L
519.389 332.898 L
520.273 332.082 L
521.158 331.267 L
522.042 330.452 L
522.927 329.637 L
523.811 328.822 L
524.696 328.007 L
525.58 327.192 L
526.465 326.377 L
527.35 325.562 L
528.235 324.747 L
529.12 323.932 L
530.005 323.117 L
530.89 322.302 L
531.775 321.487 L
532.661 320.672 L
533.546 319.857 L
534.432 319.042 L
535.318 318.227 L
536.204 317.412 L
537.09 316.597 L
537.976 315.782 L
538.862 314.967 L
539.749 314.152 L
540.636 313.337 L
541.523 312.522 L
542.41 311.707 L
543.297 310.892 L
544.185 310.077 L
545.073 309.262 L
545.961 308.447 L
546.85 307.632 L
547.739 306.817 L
548.628 306.002 L
549.517 305.187 L
550.407 304.372 L
551.297 303.557 L
552.188 302.742 L
553.079 301.927 L
553.971 301.112 L
554.863 300.297 L
555.755 299.482 L
556.648 298.666 L
557.542 297.851 L
558.436 297.036 L
559.331 296.221 L
560.227 295.406 L
561.123 294.591 L
562.02 293.776 L
562.918 292.961 L
563.816 292.146 L
564.716 291.331 L
565.616 290.516 L
566.517 289.701 L
567.42 288.886 L
568.323 288.071 L
569.227 287.256 L
570.133 286.441 L
571.04 285.626 L
571.948 284.811 L
572.857 283.996 L
573.768 283.181 L
574.68 282.366 L
575.593 281.551 L
576.508 280.736 L
577.425 279.921 L
578.344 279.106 L
579.264 278.291 L
580.187 277.476 L
581.111 276.661 L
582.037 275.846 L
582.966 275.031 L
583.896 274.216 L
584.829 273.401 L
585.765 272.586 L
586.703 271.771 L
587.644 270.956 L
588.588 270.141 L
589.534 269.326 L
590.484 268.511 L
591.436 267.696 L
592.393 266.88 L
593.352 266.065 L
594.315 265.25 L
595.282 264.435 L
596.253 263.62 L
597.227 262.805 L
598.206 261.99 L
599.19 261.175 L
600.178 260.36 L
601.17 259.545 L
602.168 258.73 L
603.171 257.915 L
604.179 257.1 L
605.193 256.285 L
606.212 255.47 L
607.237 254.655 L
608.269 253.84 L
609.307 253.025 L
610.352 252.21 L
611.404 251.395 L
612.463 250.58 L
613.53 249.765 L
614.604 248.95 L
615.686 248.135 L
616.777 247.32 L
617.877 246.505 L
618.985 245.69 L
620.103 244.875 L
621.23 244.06 L
622.368 243.245 L
623.516 242.43 L
624.675 241.615 L
625.845 240.8 L
627.026 239.985 L
628.219 239.17 L
629.425 238.355 L
630.644 237.54 L
631.876 236.725 L
633.121 235.91 L
634.381 235.095 L
635.656 234.279 L
636.945 233.464 L
638.251 232.649 L
639.573 231.834 L
640.911 231.019 L
642.267 230.204 L
643.641 229.389 L
645.033 228.574 L
646.444 227.759 L
647.876 226.944 L
649.327 226.129 L
650.8 225.314 L
652.295 224.499 L
653.812 223.684 L
655.353 222.869 L
656.917 222.054 L
658.506 221.239 L
660.121 220.424 L
661.762 219.609 L
663.43 218.794 L
665.127 217.979 L
666.852 217.164 L
668.607 216.349 L
670.393 215.534 L
672.21 214.719 L
674.061 213.904 L
675.945 213.089 L
677.864 212.274 L
679.818 211.459 L
S
GR
GS
[0.42857 0 0 0.42857 184.71429 177.6] CT
1 0 0 RC
10.0 ML
1.167 LW
N
0 -7 M
0 7 L
-7 0 M
7 0 L
-4.95 -4.95 M
4.95 4.95 L
-4.95 4.95 M
4.95 -4.95 L
S
GR
GS
[0.42857 0 0 0.42857 291.35062 90.6252] CT
1 0 0 RC
10.0 ML
1.167 LW
N
0 -7 M
0 7 L
-7 0 M
7 0 L
-4.95 -4.95 M
4.95 4.95 L
-4.95 4.95 M
4.95 -4.95 L
S
GR
GS
[0.42857 0 0 0.42857 191.06771 183.04234] CT
1 0 0 RC
10.0 ML
1.167 LW
N
0 -7 M
0 7 L
-7 0 M
7 0 L
-4.95 -4.95 M
4.95 4.95 L
-4.95 4.95 M
4.95 -4.95 L
S
GR
GS
[0.42857 0 0 0.42857 251.20009 127.59206] CT
1 0 0 RC
10.0 ML
1.167 LW
N
0 -7 M
0 7 L
-7 0 M
7 0 L
-4.95 -4.95 M
4.95 4.95 L
-4.95 4.95 M
4.95 -4.95 L
S
GR
GS
[0.42857 0 0 0.42857 139.69646 228.01868] CT
1 0 0 RC
10.0 ML
1.167 LW
N
0 -7 M
0 7 L
-7 0 M
7 0 L
-4.95 -4.95 M
4.95 4.95 L
-4.95 4.95 M
4.95 -4.95 L
S
GR
GS
[0.42857 0 0 0.42857 0 0] CT
0.635 0.078 0.184 RC
1 LJ
1.167 LW
N
445.825 427.099 M
586.134 297.715 L
S
GR
GS
[0.42857 0 0 0.42857 0 0] CT
0 0 1 RC
1 LJ
1.167 LW
N
325.958 532.044 M
327.726 530.414 L
329.494 528.784 L
331.261 527.153 L
333.029 525.523 L
334.797 523.893 L
336.564 522.263 L
338.332 520.633 L
340.1 519.003 L
341.867 517.373 L
343.635 515.743 L
345.403 514.113 L
347.171 512.483 L
348.938 510.853 L
350.706 509.223 L
352.474 507.593 L
354.241 505.963 L
356.009 504.333 L
357.777 502.703 L
359.544 501.073 L
361.312 499.443 L
363.08 497.813 L
364.847 496.182 L
366.615 494.552 L
368.383 492.922 L
370.15 491.292 L
371.918 489.662 L
373.686 488.032 L
375.453 486.402 L
377.221 484.772 L
378.989 483.142 L
380.756 481.512 L
382.524 479.882 L
384.292 478.252 L
386.059 476.622 L
387.827 474.992 L
389.595 473.362 L
391.362 471.732 L
393.13 470.102 L
394.898 468.472 L
396.665 466.842 L
398.433 465.212 L
400.201 463.582 L
401.968 461.951 L
403.736 460.321 L
405.504 458.691 L
407.271 457.061 L
409.039 455.431 L
410.807 453.801 L
412.574 452.171 L
414.342 450.541 L
416.11 448.911 L
417.877 447.281 L
419.645 445.651 L
421.413 444.021 L
423.18 442.391 L
424.948 440.761 L
426.716 439.131 L
428.483 437.501 L
430.251 435.871 L
432.019 434.241 L
433.787 432.611 L
435.554 430.98 L
437.322 429.35 L
439.09 427.72 L
440.857 426.09 L
442.625 424.46 L
444.393 422.83 L
446.16 421.2 L
447.928 419.57 L
449.696 417.94 L
451.464 416.31 L
453.231 414.68 L
454.999 413.05 L
456.767 411.42 L
458.535 409.79 L
460.302 408.16 L
462.07 406.53 L
463.838 404.9 L
465.606 403.27 L
467.374 401.64 L
469.141 400.01 L
470.909 398.38 L
472.677 396.749 L
474.445 395.119 L
476.213 393.489 L
477.981 391.859 L
479.749 390.229 L
481.517 388.599 L
483.285 386.969 L
485.053 385.339 L
486.821 383.709 L
488.589 382.079 L
490.357 380.449 L
492.125 378.819 L
493.894 377.189 L
495.662 375.559 L
497.431 373.929 L
499.199 372.299 L
500.968 370.669 L
502.736 369.039 L
504.505 367.409 L
506.274 365.779 L
508.043 364.148 L
509.812 362.518 L
511.581 360.888 L
513.35 359.258 L
515.119 357.628 L
516.889 355.998 L
518.658 354.368 L
520.428 352.738 L
522.198 351.108 L
523.968 349.478 L
525.739 347.848 L
527.509 346.218 L
529.28 344.588 L
531.051 342.958 L
532.822 341.328 L
534.594 339.698 L
536.366 338.068 L
538.138 336.438 L
539.91 334.808 L
541.683 333.178 L
543.456 331.547 L
545.23 329.917 L
547.004 328.287 L
548.778 326.657 L
550.553 325.027 L
552.328 323.397 L
554.104 321.767 L
555.881 320.137 L
557.658 318.507 L
559.435 316.877 L
561.214 315.247 L
562.993 313.617 L
564.773 311.987 L
566.553 310.357 L
568.334 308.727 L
570.117 307.097 L
571.9 305.467 L
573.684 303.837 L
575.469 302.207 L
577.255 300.577 L
579.043 298.946 L
580.831 297.316 L
582.621 295.686 L
584.412 294.056 L
586.205 292.426 L
587.999 290.796 L
589.794 289.166 L
591.591 287.536 L
593.39 285.906 L
595.191 284.276 L
596.993 282.646 L
598.798 281.016 L
600.604 279.386 L
602.413 277.756 L
604.224 276.126 L
606.038 274.496 L
607.854 272.866 L
609.672 271.236 L
611.493 269.606 L
613.318 267.976 L
615.145 266.345 L
616.975 264.715 L
618.809 263.085 L
620.646 261.455 L
622.487 259.825 L
624.331 258.195 L
626.18 256.565 L
628.033 254.935 L
629.89 253.305 L
631.751 251.675 L
633.617 250.045 L
635.488 248.415 L
637.365 246.785 L
639.246 245.155 L
641.134 243.525 L
643.027 241.895 L
644.926 240.265 L
646.831 238.635 L
648.743 237.005 L
650.662 235.375 L
652.589 233.744 L
654.522 232.114 L
656.464 230.484 L
658.413 228.854 L
660.371 227.224 L
662.338 225.594 L
664.314 223.964 L
666.299 222.334 L
668.295 220.704 L
670.3 219.074 L
672.316 217.444 L
674.344 215.814 L
676.383 214.184 L
678.433 212.554 L
680.497 210.924 L
682.573 209.294 L
684.663 207.664 L
686.766 206.034 L
688.884 204.404 L
691.017 202.774 L
693.166 201.143 L
695.331 199.513 L
697.513 197.883 L
699.712 196.253 L
701.929 194.623 L
704.164 192.993 L
706.419 191.363 L
708.695 189.733 L
710.99 188.103 L
713.308 186.473 L
715.648 184.843 L
718.011 183.213 L
720.397 181.583 L
722.809 179.953 L
725.246 178.323 L
727.71 176.693 L
730.201 175.063 L
732.721 173.433 L
735.27 171.803 L
737.849 170.173 L
740.46 168.542 L
743.103 166.912 L
745.78 165.282 L
748.492 163.652 L
751.24 162.022 L
754.024 160.392 L
756.847 158.762 L
759.71 157.132 L
762.613 155.502 L
765.559 153.872 L
768.548 152.242 L
771.583 150.612 L
774.664 148.982 L
777.792 147.352 L
780.971 145.722 L
784.2 144.092 L
787.482 142.462 L
790.819 140.832 L
794.212 139.202 L
797.662 137.572 L
801.172 135.942 L
804.744 134.311 L
808.379 132.681 L
812.08 131.051 L
815.848 129.421 L
819.686 127.791 L
823.595 126.161 L
S
GR
GS
[0.42857 0 0 0.42857 0 0] CT
0 0 1 RC
1 LJ
1.167 LW
N
182.182 617.341 M
186.091 615.711 L
189.929 614.081 L
193.697 612.451 L
197.397 610.821 L
201.032 609.191 L
204.604 607.561 L
208.114 605.931 L
211.565 604.301 L
214.958 602.671 L
218.294 601.041 L
221.576 599.411 L
224.806 597.781 L
227.984 596.151 L
231.113 594.521 L
234.194 592.89 L
237.228 591.26 L
240.218 589.63 L
243.163 588 L
246.067 586.37 L
248.929 584.74 L
251.752 583.11 L
254.537 581.48 L
257.284 579.85 L
259.996 578.22 L
262.673 576.59 L
265.316 574.96 L
267.927 573.33 L
270.507 571.7 L
273.056 570.07 L
275.575 568.44 L
278.067 566.81 L
280.53 565.18 L
282.968 563.55 L
285.379 561.919 L
287.766 560.289 L
290.129 558.659 L
292.469 557.029 L
294.786 555.399 L
297.082 553.769 L
299.357 552.139 L
301.612 550.509 L
303.848 548.879 L
306.065 547.249 L
308.264 545.619 L
310.446 543.989 L
312.61 542.359 L
314.759 540.729 L
316.892 539.099 L
319.01 537.469 L
321.114 535.839 L
323.204 534.209 L
325.28 532.579 L
327.343 530.949 L
329.394 529.318 L
331.433 527.688 L
333.46 526.058 L
335.476 524.428 L
337.482 522.798 L
339.477 521.168 L
341.463 519.538 L
343.439 517.908 L
345.405 516.278 L
347.363 514.648 L
349.313 513.018 L
351.254 511.388 L
353.188 509.758 L
355.114 508.128 L
357.033 506.498 L
358.945 504.868 L
360.851 503.238 L
362.75 501.608 L
364.643 499.978 L
366.53 498.348 L
368.412 496.718 L
370.288 495.087 L
372.159 493.457 L
374.025 491.827 L
375.887 490.197 L
377.744 488.567 L
379.597 486.937 L
381.445 485.307 L
383.29 483.677 L
385.13 482.047 L
386.968 480.417 L
388.801 478.787 L
390.632 477.157 L
392.459 475.527 L
394.283 473.897 L
396.104 472.267 L
397.923 470.637 L
399.739 469.007 L
401.552 467.377 L
403.363 465.747 L
405.172 464.117 L
406.979 462.486 L
408.783 460.856 L
410.586 459.226 L
412.386 457.596 L
414.185 455.966 L
415.982 454.336 L
417.778 452.706 L
419.572 451.076 L
421.364 449.446 L
423.156 447.816 L
424.945 446.186 L
426.734 444.556 L
428.521 442.926 L
430.307 441.296 L
432.093 439.666 L
433.877 438.036 L
435.66 436.406 L
437.442 434.776 L
439.223 433.146 L
441.004 431.516 L
442.784 429.885 L
444.563 428.255 L
446.341 426.625 L
448.119 424.995 L
449.896 423.365 L
451.672 421.735 L
453.448 420.105 L
455.223 418.475 L
456.998 416.845 L
458.773 415.215 L
460.547 413.585 L
462.32 411.955 L
464.093 410.325 L
465.866 408.695 L
467.639 407.065 L
469.411 405.435 L
471.183 403.805 L
472.954 402.175 L
474.725 400.545 L
476.497 398.915 L
478.267 397.284 L
480.038 395.654 L
481.808 394.024 L
483.578 392.394 L
485.348 390.764 L
487.118 389.134 L
488.888 387.504 L
490.657 385.874 L
492.427 384.244 L
494.196 382.614 L
495.965 380.984 L
497.734 379.354 L
499.503 377.724 L
501.272 376.094 L
503.04 374.464 L
504.809 372.834 L
506.578 371.204 L
508.346 369.574 L
510.114 367.944 L
511.883 366.314 L
513.651 364.683 L
515.419 363.053 L
517.188 361.423 L
518.956 359.793 L
520.724 358.163 L
522.492 356.533 L
524.26 354.903 L
526.028 353.273 L
527.796 351.643 L
529.564 350.013 L
531.332 348.383 L
533.1 346.753 L
534.867 345.123 L
536.635 343.493 L
538.403 341.863 L
540.171 340.233 L
541.939 338.603 L
543.706 336.973 L
545.474 335.343 L
547.242 333.713 L
549.01 332.082 L
550.778 330.452 L
552.545 328.822 L
554.313 327.192 L
556.081 325.562 L
557.848 323.932 L
559.616 322.302 L
561.384 320.672 L
563.152 319.042 L
564.919 317.412 L
566.687 315.782 L
568.455 314.152 L
570.222 312.522 L
571.99 310.892 L
573.758 309.262 L
575.525 307.632 L
577.293 306.002 L
579.061 304.372 L
580.828 302.742 L
582.596 301.112 L
584.364 299.482 L
586.131 297.851 L
587.899 296.221 L
589.667 294.591 L
591.435 292.961 L
593.202 291.331 L
594.97 289.701 L
596.738 288.071 L
598.505 286.441 L
600.273 284.811 L
602.041 283.181 L
603.808 281.551 L
605.576 279.921 L
607.344 278.291 L
609.111 276.661 L
610.879 275.031 L
612.647 273.401 L
614.414 271.771 L
616.182 270.141 L
617.95 268.511 L
619.717 266.88 L
621.485 265.25 L
623.253 263.62 L
625.02 261.99 L
626.788 260.36 L
628.556 258.73 L
630.323 257.1 L
632.091 255.47 L
633.859 253.84 L
635.626 252.21 L
637.394 250.58 L
639.162 248.95 L
640.929 247.32 L
642.697 245.69 L
644.465 244.06 L
646.232 242.43 L
648 240.8 L
649.768 239.17 L
651.535 237.54 L
653.303 235.91 L
655.071 234.279 L
656.838 232.649 L
658.606 231.019 L
660.374 229.389 L
662.141 227.759 L
663.909 226.129 L
665.677 224.499 L
667.444 222.869 L
669.212 221.239 L
670.98 219.609 L
672.747 217.979 L
674.515 216.349 L
676.283 214.719 L
678.05 213.089 L
679.818 211.459 L
S
GR
%%Trailer
%%Pages: 1
%%EOF
