time,pos_actual,ps-pos:1,
0,0.023869659,0.02,
3.43742E-30,0.023869659,0.02,
4.12263E-06,0.023869657,0.020000001,
2.44354E-05,0.023869648,0.020000018,
6.20519E-05,0.023869631,0.020000115,
0.000100014,0.023869614,0.020000298,
0.000140082,0.023869596,0.020000583,
0.000192654,0.023869572,0.020001098,
0.000239379,0.023869552,0.020001689,
0.000289003,0.023869529,0.020002448,
0.00033645,0.023869508,0.020003298,
0.000389306,0.023869484,0.020004382,
0.000445435,0.023869459,0.020005686,
0.000494521,0.023869437,0.020006949,
0.00056802,0.023869404,0.020009041,
0.000645682,0.02386937,0.020011498,
0.000717856,0.023869337,0.020013986,
0.000799908,0.023869301,0.020017036,
0.000878253,0.023869265,0.020020145,
0.000964236,0.023869227,0.020023753,
0.001054671,0.023869186,0.020027742,
0.001148766,0.023869144,0.020032071,
0.001244125,0.023869102,0.020036609,
0.001339015,0.023869059,0.020041241,
0.001446389,0.023869011,0.02004658,
0.001557086,0.023868961,0.02005214,
0.001663937,0.023868914,0.020057511,
0.00178049,0.023868861,0.020063316,
0.001883258,0.023868815,0.020068335,
0.00198777,0.023868769,0.020073293,
0.002093147,0.023868721,0.020078089,
0.002205103,0.023868671,0.020082897,
0.00231532,0.023868622,0.020087281,
0.00243955,0.023868566,0.020091732,
0.00255731,0.023868513,0.020095415,
0.002691387,0.023868453,0.020098928,
0.0028103,0.0238684,0.02010142,
0.002939877,0.023868342,0.020103478,
0.003064295,0.023868286,0.020104838,
0.003193377,0.023868229,0.020105653,
0.003315843,0.023868174,0.02010591,
0.003444622,0.023868116,0.020105683,
0.003572336,0.023868059,0.020104998,
0.003705882,0.023867999,0.020103836,
0.003860571,0.02386793,0.020101981,
0.004009524,0.023867863,0.020099745,
0.004164987,0.023867793,0.020097018,
0.004325564,0.023867722,0.020093876,
0.004472159,0.023867656,0.020090819,
0.004626584,0.023867587,0.02008753,
0.004780736,0.023867518,0.020084327,
0.004935541,0.023867448,0.020081361,
0.005096854,0.023867376,0.020078718,
0.005279652,0.023867294,0.02007648,
0.005450317,0.023867218,0.020075257,
0.005620446,0.023867142,0.020074951,
0.005795333,0.023867063,0.020075626,
0.005987508,0.023866977,0.02007755,
0.006182816,0.02386689,0.020080789,
0.006374814,0.023866804,0.020085236,
0.006592176,0.023866706,0.02009175,
0.006800158,0.023866613,0.020099361,
0.006998421,0.023866525,0.020107721,
0.007227712,0.023866422,0.020118442,
0.007461519,0.023866317,0.020130081,
0.007738649,0.023866193,0.020144041,
0.007996041,0.023866078,0.020156483,
0.008258969,0.02386596,0.020168188,
0.00854592,0.023865832,0.020179477,
0.008832872,0.023865703,0.020188994,
0.009128175,0.023865571,0.020196834,
0.009443514,0.02386543,0.020203162,
0.009758853,0.023865288,0.02020787,
0.010067575,0.023865123,0.020211678,
0.010372327,0.023864866,0.020215475,
0.010708879,0.023864581,0.020220396,
0.011046549,0.023864296,0.020226421,
0.011371925,0.023864021,0.020233393,
0.011714552,0.023863732,0.020242064,
0.012065429,0.023863436,0.020252214,
0.012381062,0.023863169,0.020262006,
0.01273264,0.023862872,0.02027295,
0.013074789,0.023862583,0.020283072,
0.013376213,0.023862329,0.02029139,
0.013734298,0.023862026,0.020300517,
0.014066294,0.023861746,0.020308083,
0.014416434,0.02386145,0.020314895,
0.014781921,0.023861141,0.020320866,
0.015121497,0.023860854,0.020326024,
0.015442546,0.023860583,0.020331293,
0.015800053,0.023860281,0.020338196,
0.016136872,0.023859997,0.020345963,
0.016466929,0.023859718,0.020355016,
0.016857766,0.023859388,0.020368044,
0.017233932,0.02385907,0.020382984,
0.017569268,0.023858787,0.020397469,
0.017934369,0.023858479,0.020412948,
0.018331716,0.023858143,0.020427724,
0.018674289,0.023857854,0.020437821,
0.019060472,0.023857528,0.020445566,
0.019466439,0.023857185,0.020448811,
0.019850351,0.02385686,0.020447172,
0.020239021,0.023856521,0.020442098,
0.020631977,0.02385617,0.020435646,
0.021058553,0.02385579,0.02042936,
0.021472151,0.023855421,0.020425447,
0.021899403,0.02385504,0.020425065,
0.022275133,0.023854705,0.020428872,
0.022707853,0.023854319,0.020438191,
0.023150712,0.023853924,0.020451608,
0.023598422,0.023853525,0.0204668,
0.024043104,0.023853128,0.020481322,
0.024525611,0.023852698,0.020493457,
0.024952991,0.023852317,0.020498223,
0.025366134,0.023851949,0.020496114,
0.025845625,0.023851521,0.020485911,
0.026338863,0.023851081,0.020468775,
0.026816436,0.023850655,0.020448737,
0.027307289,0.023850217,0.020428786,
0.027770971,0.023849804,0.020414137,
0.028226583,0.023849398,0.020405258,
0.028734137,0.023848945,0.020401618,
0.029227472,0.023848505,0.020402983,
0.029770784,0.02384802,0.020406745,
0.0302336,0.023847639,0.02040855,
0.030696416,0.023847288,0.020406916,
0.031159232,0.023846937,0.020400667,
0.0317072,0.023846522,0.020386452,
0.032207048,0.023846143,0.020367848,
0.032805377,0.023845689,0.020341707,
0.03337667,0.023845256,0.020316132,
0.033947963,0.023844823,0.020293119,
0.034519256,0.023844389,0.020274787,
0.035177694,0.02384389,0.020257953,
0.035722281,0.023843477,0.020245075,
0.036362844,0.023842991,0.020228952,
0.037070295,0.023842455,0.020207407,
0.037784079,0.023841914,0.020183512,
0.038572122,0.023841316,0.020158377,
0.039360165,0.023840719,0.02013569,
0.040222943,0.023840109,0.020113088,
0.041054947,0.023839644,0.020088195,
0.041826464,0.023839212,0.020060881,
0.042572213,0.023838795,0.020030291,
0.043223909,0.023838431,0.020004268,
0.043761558,0.02383813,0.019986278,
0.043845802,0.023838083,0.019983857,
0.043853762,0.023838079,0.019983635,
0.04385471,0.023838078,0.019983609,
0.0438551,0.023838078,0.019983598,
0.043964636,0.023838017,0.01998066,
0.044630741,0.023837644,0.0199681,
0.045321921,0.023837258,0.01996392,
0.045996421,0.023836881,0.019963186,
0.046582465,0.023836553,0.019960693,
0.047215729,0.023836199,0.019952213,
0.04790313,0.023835814,0.019934803,
0.048509114,0.023835476,0.019915121,
0.049091252,0.02383515,0.019896042,
0.049757497,0.023834777,0.019879134,
0.050404334,0.023835273,0.019871935,
0.050951703,0.023836124,0.019873667,
0.051617402,0.023837158,0.019883755,
0.052301167,0.023838221,0.019897843,
0.052990549,0.023839292,0.019909063,
0.05358298,0.023840213,0.019913145,
0.054285082,0.023841304,0.019910629,
0.054934875,0.023842314,0.019904808,
0.055661177,0.023843443,0.019900061,
0.056346222,0.023844508,0.0199013,
0.057096804,0.023845674,0.019911562,
0.057847386,0.023846841,0.019928686,
0.058597968,0.023848007,0.01994923,
0.059504527,0.023849416,0.019972087,
0.059963684,0.02385013,0.019981513,
0.059963684,0.02385013,0.019981513,
0.059977201,0.023850151,0.019981772,
0.060545884,0.023851236,0.019991754,
0.061427159,0.02385293,0.020004611,
0.062307668,0.023854622,0.020018165,
0.063032881,0.023856016,0.020030188,
0.063829017,0.023857546,0.02004373,
0.06457826,0.023858986,0.020056431,
0.065316268,0.023860404,0.020069499,
0.066080985,0.023861874,0.020085267,
0.066849923,0.023863352,0.020103071,
0.067585794,0.023864767,0.020120994,
0.06831705,0.023866172,0.020136905,
0.068970952,0.023867429,0.0201476,
0.069723553,0.023868875,0.020154141,
0.070417274,0.023869508,0.02015502,
0.071143741,0.023869689,0.020153511,
0.071864842,0.023869869,0.020153348,
0.072521059,0.023870033,0.020157176,
0.073299521,0.023870227,0.020166504,
0.074054161,0.023870415,0.020177492,
0.074836869,0.02387061,0.020185249,
0.075652166,0.023870813,0.020184706,
0.076514969,0.023871028,0.02017323,
0.0773939,0.023871248,0.020153887,
0.07831776,0.023871478,0.020133568,
0.079333587,0.023871731,0.020119062,
0.080513467,0.023871578,0.020110678,
0.081600222,0.023870905,0.020099407,
0.082692852,0.023870229,0.020075383,
0.08363764,0.023869644,0.020045825,
0.084523401,0.023869096,0.020015565,
0.084843201,0.023868898,0.020005135,
0.084944629,0.023868835,0.02000192,
0.084952265,0.02386883,0.02000168,
0.084953533,0.02386883,0.02000164,
0.08511261,0.023868731,0.019996705,
0.0859783,0.023868195,0.019972555,
0.086848004,0.023867657,0.019952695,
0.087695242,0.023867133,0.019934771,
0.088499273,0.023866635,0.019916935,
0.08926846,0.023866159,0.019897761,
0.089417613,0.023866066,0.01989381,
0.089431755,0.023866058,0.019893432,
0.089976635,0.02386572,0.019878376,
0.090804673,0.023866497,0.019853865,
0.091664087,0.023867338,0.019827685,
0.09245038,0.023868108,0.019804634,
0.093208708,0.02386885,0.019785001,
0.094053647,0.023869677,0.019767155,
0.094947528,0.023870551,0.019753294,
0.095892944,0.023871477,0.01974263,
0.096822862,0.023872387,0.0197336,
0.097870342,0.023873412,0.019721054,
0.098911129,0.02387443,0.019705931,
0.100027217,0.023875529,0.019692077,
0.101212247,0.023876943,0.01968872,
0.102450392,0.023878421,0.01970013,
0.103613488,0.023879809,0.019716788,
0.104714972,0.023881123,0.01972869,
0.105702655,0.023882302,0.019734549,
0.106675105,0.023883463,0.019740817,
0.107628142,0.0238846,0.019754094,
0.108590022,0.023885748,0.019776896,
0.109492182,0.023886825,0.019804268,
0.110412322,0.02388725,0.019832401,
0.11137674,0.023886839,0.019857142,
0.111508527,0.023886783,0.019860035,
0.111521714,0.023886777,0.019860318,
0.11196865,0.023886587,0.019869401,
0.112855804,0.023886208,0.01988579,
0.113748617,0.023885827,0.019903745,
0.11471869,0.023885413,0.019928274,
0.115691631,0.023884998,0.019957509,
0.116689164,0.023884573,0.019988301,
0.116838532,0.023884509,0.019992722,
0.116838577,0.023884509,0.019992724,
0.116976836,0.02388445,0.019996752,
0.117828396,0.023884087,0.020019704,
0.119050495,0.023883565,0.020046548,
0.120248443,0.023882872,0.020067973,
0.121554019,0.023881371,0.020088751,
0.123018127,0.023879687,0.020110627,
0.124341684,0.023878164,0.02013047,
0.125665241,0.023876642,0.020147128,
0.126773655,0.023875367,0.020152869,
0.127850533,0.023874128,0.020149236,
0.128998769,0.023872808,0.020140268,
0.130000424,0.023871655,0.020134507,
0.131002949,0.023870347,0.020133046,
0.132000307,0.023869046,0.020132009,
0.133045153,0.023867682,0.020123965,
0.134046743,0.023866376,0.020106569,
0.135083997,0.023865022,0.020083032,
0.136300008,0.023863436,0.020059101,
0.137447108,0.023861939,0.020045265,
0.138648547,0.023860371,0.020033623,
0.139664233,0.023859046,0.020018774,
0.139998652,0.02385861,0.020012562,
0.14016433,0.023858419,0.020009286,
0.140177954,0.023858403,0.020009012,
0.140179269,0.023858402,0.020008985,
0.140238303,0.023858334,0.020007787,
0.141214076,0.02385721,0.019987023,
0.142695447,0.023855504,0.019960096,
0.144415896,0.023853523,0.019941442,
0.145925909,0.023851784,0.019930154,
0.147285199,0.023850219,0.019922684,
0.148539481,0.023848774,0.019919144,
0.148539732,0.023848774,0.019919144,
0.148681645,0.023848611,0.019918896,
0.149784626,0.02384734,0.019917578,
0.15095801,0.023846256,0.019918633,
0.150958362,0.023846256,0.019918634,
0.151098875,0.023846133,0.019919143,
0.152216522,0.023845157,0.019927913,
0.153347768,0.023844168,0.019945924,
0.154626921,0.023843051,0.019971266,
0.155829842,0.023842,0.019991537,
0.156853354,0.023841106,0.020006003,
0.156895086,0.023841069,0.020006623,
0.156899396,0.023841065,0.020006687,
0.157602841,0.023840451,0.020018508,
0.158916892,0.023839303,0.020051347,
0.160252619,0.02383821,0.020096526,
0.16173571,0.023837345,0.020143103,
0.163472396,0.023836333,0.020185247,
0.165457913,0.023835175,0.020243166,
0.167163815,0.02383418,0.020300428,
0.168747218,0.023833257,0.020343788,
0.170207764,0.023832457,0.02037746,
0.171581044,0.023831994,0.020407374,
0.17301462,0.02383151,0.020434495,
0.174354341,0.023831058,0.020455693,
0.175568404,0.023830648,0.020473141,
0.176809557,0.02383023,0.020486925,
0.17814701,0.023829778,0.020491712,
0.179402932,0.023829355,0.020488159,
0.180843578,0.023828458,0.02048491,
0.182347893,0.023827223,0.020485184,
0.184103739,0.023825781,0.020472418,
0.18604129,0.023824189,0.02044041,
0.188093463,0.023822504,0.020417799,
0.190087511,0.023820866,0.020396099,
0.192011926,0.023819286,0.02036436,
0.193549702,0.023818023,0.020345274,
0.194971782,0.023816855,0.02033401,
0.196406897,0.023815676,0.020324533,
0.197851144,0.02381449,0.020318177,
0.199317506,0.023813286,0.020316466,
0.200780947,0.023812084,0.020317589,
0.202274288,0.023810858,0.020324326,
0.204022121,0.023809422,0.020346152,
0.205932569,0.023807853,0.020376291,
0.207892371,0.023806244,0.020404221,
0.21018738,0.023804359,0.020456964,
0.212667581,0.023802322,0.0205191,
0.214692378,0.023800659,0.020561284,
0.21660467,0.023799088,0.020609274,
0.218353117,0.023797652,0.020650429,
0.219935255,0.023796353,0.020679324,
0.221572613,0.023795008,0.020704639,
0.223161471,0.023793703,0.020724682,
0.225002568,0.023792191,0.020740875,
0.226972579,0.023790573,0.020749938,
0.228910076,0.023788982,0.020743568,
0.231206819,0.023785418,0.020723734,
0.233712179,0.023779893,0.020698086,
0.236217539,0.023774369,0.020649546,
0.238722899,0.023768844,0.020602793,
0.240721892,0.02376496,0.020565343,
0.242480344,0.02376235,0.020527457,
0.244292816,0.023759659,0.020493767,
0.246258317,0.023756742,0.020465882,
0.248036364,0.023754102,0.020445563,
0.249934525,0.023751284,0.020429779,
0.252169292,0.023752605,0.020421152,
0.254586844,0.023754172,0.020430465,
0.257325776,0.023755946,0.020452582,
0.26051498,0.023757502,0.020495208,
0.263543648,0.023756497,0.02054804,
0.26593262,0.023755704,0.020585717,
0.268110818,0.023754982,0.020623385,
0.27031382,0.023754243,0.020653073,
0.27253081,0.023753455,0.020671716,
0.274790429,0.023752652,0.020682769,
0.277286645,0.023751764,0.020681431,
0.28005008,0.023750871,0.020657447,
0.283053312,0.023754508,0.020616719,
0.286244766,0.023758374,0.020554933,
0.289253647,0.023762019,0.020489406,
0.29209995,0.023762607,0.020430416,
0.294859142,0.023762203,0.020375358,
0.297503325,0.023761817,0.020339242,
0.300193766,0.02376099,0.020314789,
0.302742796,0.023755112,0.020307151,
0.305988149,0.02374763,0.020323453,
0.309344108,0.023739892,0.020358196,
0.312690878,0.023730396,0.020411773,
0.31611883,0.023720232,0.020467771,
0.319442672,0.023710377,0.020520247,
0.32270744,0.023701229,0.02055454,
0.325953234,0.023692242,0.020571026,
0.328723833,0.023684571,0.020567027,
0.331771534,0.02367717,0.020543797,
0.334969468,0.023670181,0.020506393,
0.338913067,0.023661562,0.020445695,
0.34303856,0.023654592,0.020388497,
0.34515516,0.023651388,0.020363271,
0.345159134,0.023651382,0.020363231,
0.345519079,0.023650837,0.020359695,
0.34872753,0.02364598,0.020342609,
0.352858829,0.023641438,0.020348798,
0.353978214,0.023640412,0.02035806,
0.354026536,0.023640368,0.020358535,
0.355411512,0.023639099,0.020374182,
0.35868915,0.023636094,0.020422614,
0.362493734,0.023633747,0.020497583,
0.366298318,0.023631993,0.020579377,
0.370307315,0.023630241,0.020658502,
0.375220371,0.023629477,0.02072352,
0.380254311,0.023628741,0.020744168,
0.38528825,0.023628854,0.020720235,
0.390322189,0.023628995,0.020671985,
0.395356128,0.02362953,0.020631486,
0.399878031,0.023630011,0.020622999,
0.404616808,0.023630619,0.020653874,
0.409907309,0.023631301,0.020736773,
0.416093126,0.023632028,0.020864585,
0.422456224,0.02363271,0.020975988,
0.428819323,0.023633289,0.021019973,
0.435529288,0.02363374,0.020985172,
0.441808698,0.023634084,0.020915297,
0.448088107,0.023634316,0.020865154,
0.454367516,0.023634465,0.020875366,
0.460999028,0.023632636,0.020952406,
0.46802285,0.02361921,0.021058049,
0.475619158,0.023603484,0.021118553,
0.483371375,0.02359304,0.021074983,
0.491123593,0.023591457,0.020962281,
0.49887581,0.023596092,0.020872916,
0.506628027,0.023590376,0.02087549,
0.514820575,0.023581543,0.020962872,
0.522554306,0.023576737,0.021041359,
0.530057337,0.023580256,0.021042537,
0.537560369,0.023589114,0.020966001,
0.5450634,0.023598716,0.020874557,
0.55346412,0.02360264,0.020846775,
0.562762527,0.023588974,0.020939837,
0.572060935,0.023558288,0.021063157,
0.582100699,0.023520974,0.021088255,
0.593032693,0.02349162,0.021007145,
0.603964686,0.023495362,0.02100962,
0.614896679,0.023525065,0.021167891,
0.625828673,0.023560929,0.021311928,
0.636760666,0.023592476,0.021302105,
0.649138664,0.023600858,0.021240182,
0.662962666,0.023566848,0.021357544,
0.676786669,0.023544415,0.021499113,
0.690610671,0.023514854,0.021426852,
0.704434673,0.023517291,0.021372364,
0.718258675,0.023551006,0.0214956,
0.732082678,0.023560566,0.021520856,
0.747850476,0.023524697,0.021376667,
0.76556207,0.023478425,0.021460324,
0.783273664,0.023474726,0.021534504,
0.800985258,0.023479027,0.021448276,
0.815968168,0.023477227,0.021577177,
0.831655471,0.023492835,0.021687218,
0.8479814,0.023481465,0.021633985,
0.864671133,0.023461858,0.021761388,
0.881360867,0.023446847,0.021891211,
0.898898008,0.023439042,0.021818623,
0.915958118,0.023436871,0.021910659,
0.93201181,0.023437001,0.021978567,
0.948764266,0.023437851,0.021884037,
0.966760526,0.023438616,0.021957847,
0.987858618,0.023423956,0.021981753,
1.0001707,0.023378728,0.021919007,
1.013349884,0.02332954,0.021976842,
1.033160819,0.023305497,0.022096653,
1.053080291,0.023274279,0.022064767,
1.073488034,0.023251297,0.022232388,
1.095671902,0.023273003,0.022240494,
1.117855771,0.023279882,0.022346886,
1.140039639,0.023260724,0.022403678,
1.162223508,0.023247251,0.022394762,
1.184407376,0.023242482,0.022481605,
1.206591245,0.023242188,0.022429598,
1.228775113,0.023205145,0.022552257,
1.250958982,0.023203741,0.02251594,
1.27314285,0.023204897,0.02263915,
1.295326719,0.023226972,0.022679486,
1.317510587,0.023243503,0.022757574,
1.339694456,0.023247132,0.022835256,
1.361878324,0.023245942,0.022843349,
1.384062193,0.023236633,0.022948374,
1.406246061,0.023156706,0.022911018,
1.428998115,0.023115449,0.023004536,
1.45294926,0.023126159,0.022990509,
1.478160186,0.02316229,0.023108854,
1.499764292,0.023122491,0.02311909,
1.522747338,0.023071301,0.023215172,
1.54663128,0.023047422,0.023278016,
1.57185842,0.023043639,0.023356501,
1.597085561,0.023011874,0.023397205,
1.619021285,0.022971205,0.023438423,
1.642998974,0.022997749,0.023499222,
1.666976663,0.023033716,0.02351379,
1.6934966,0.023008452,0.023588118,
1.716748622,0.023007368,0.023628017,
1.740000644,0.022936088,0.023722183,
1.765846916,0.022868778,0.023754697,
1.788277564,0.022848192,0.023851815,
1.814978025,0.022847431,0.023882697,
1.844240375,0.022851535,0.023962623,
1.868821296,0.022853162,0.023990392,
1.894770549,0.022853413,0.02406858,
1.917299829,0.022853283,0.02409369,
1.944198186,0.022853152,0.024182091,
1.971096542,0.022850927,0.024243905,
1.994973489,0.022811015,0.024324999,
2.021261319,0.022823748,0.024368932,
2.046086186,0.022771567,0.024445346,
2.074131947,0.022726781,0.024494916,
2.098894256,0.022753521,0.024545458,
2.123713398,0.022740724,0.024589888,
2.151043838,0.022747595,0.024663738,
2.175118499,0.022744102,0.024714555,
2.204153191,0.022686851,0.024789298,
2.230980264,0.022658238,0.024872389,
2.253557308,0.022653715,0.024919948,
2.281710209,0.022654019,0.024986354,
2.308732245,0.022631695,0.025042505,
2.335626838,0.022617622,0.025120068,
2.362686608,0.022641682,0.02517195,
2.386939277,0.022655767,0.02526775,
2.413621822,0.02265964,0.025344049,
2.441507604,0.022658906,0.025453885,
2.466335551,0.022658073,0.02552603,
2.494453089,0.022657749,0.025637389,
2.520987304,0.022636361,0.025694064,
2.545833445,0.022617567,0.025781611,
2.574014838,0.022600843,0.025862874,
2.598187,0.022626371,0.025965167,
2.624718283,0.022661138,0.026077876,
2.652646732,0.022702228,0.026258494,
2.676525037,0.022727297,0.026412507,
2.705661523,0.022902684,0.026641286,
2.731351503,0.023051454,0.026857697,
2.756268607,0.02323258,0.027082268,
2.783857496,0.023486108,0.027332609,
2.808319108,0.023728333,0.027584577,
2.836438857,0.024052151,0.027891737,
2.864973298,0.024399933,0.028222645,
2.889572099,0.024696562,0.028543137,
2.917950368,0.025095507,0.02893561,
2.945600743,0.025495278,0.029332719,
2.971833876,0.025948189,0.029723278,
3.000611459,0.026502391,0.030169218,
3.028028427,0.026950481,0.030581476,
3.053515794,0.02737077,0.03098004,
3.083548776,0.027889163,0.031456481,
3.113149703,0.028412769,0.031932856,
3.140316214,0.028871489,0.032394259,
3.169401353,0.029432678,0.03291605,
3.195338767,0.030045201,0.033396409,
3.221164899,0.030683101,0.033898847,
3.249813275,0.031381955,0.03448539,
3.272991536,0.031916622,0.034962481,
3.302670864,0.032663047,0.035589446,
3.331392709,0.033416199,0.036211373,
3.358382364,0.034105568,0.03679444,
3.387947798,0.03485358,0.037440081,
3.417309688,0.035627039,0.038099951,
3.443811522,0.036380001,0.038693987,
3.472118268,0.037150823,0.039337956,
3.500479734,0.037895333,0.039999933,
3.525761936,0.038601838,0.040585292,
3.554977544,0.03945251,0.041268982,
3.585294225,0.040334355,0.041993196,
3.6105667,0.041043813,0.042597536,
3.639861693,0.041867312,0.043309675,
3.670469702,0.042672328,0.044082814,
3.695609722,0.043432792,0.044724897,
3.726489614,0.044432577,0.045539112,
3.757109232,0.045471834,0.046378278,
3.784414917,0.046401455,0.047136422,
3.814750537,0.047480588,0.047998708,
3.845422819,0.048525816,0.048894446,
3.874002536,0.049524549,0.049731035,
3.892441164,0.050190197,0.050278168,
3.921416856,0.05122656,0.051154534,
3.947221817,0.052140273,0.051936536,
3.976850378,0.053262653,0.052839819,
4,0.054147574,0.053559078,
4.01437158,0.054652222,0.054006243,
4.039450454,0.055564974,0.054781572,
4.069949396,0.056742155,0.055730912,
4.101434439,0.05787961,0.056716592,
4.132728321,0.058987458,0.057683397,
4.15974378,0.059996388,0.058522729,
4.189617261,0.061128446,0.059451008,
4.218825381,0.062182459,0.060347875,
4.245131712,0.063126389,0.06116015,
4.27574312,0.064196524,0.062106362,
4.305698424,0.065315927,0.063021486,
4.336378954,0.066399157,0.063968447,
4.367291605,0.067409517,0.064922121,
4.398520614,0.068535228,0.065882863,
4.431179039,0.069730862,0.066904009,
4.459758411,0.070737406,0.067796116,
4.49174758,0.071949296,0.068806922,
4.52379187,0.073150038,0.06984353,
4.554640677,0.074341674,0.070852757,
4.583994676,0.075503054,0.071840809,
4.61591966,0.076772197,0.07293851,
4.647894181,0.078028637,0.074049933,
4.668664603,0.07892735,0.074785542,
4.700260322,0.080281143,0.075914862,
4.732784732,0.081623013,0.077078497,
4.762577538,0.08286936,0.078159744,
4.793421847,0.08417473,0.079280555,
4.824804681,0.085434954,0.080417359,
4.855680224,0.086753113,0.08154382,
4.885231844,0.087971785,0.082610613,
4.91755636,0.08933649,0.083774102,
4.949188152,0.090660209,0.084915009,
4.979486495,0.091815167,0.085996478,
5.007738401,0.092937485,0.087010403,
5.040679557,0.094240284,0.088191048,
5.073875191,0.095546773,0.089360576,
5.104211672,0.096764402,0.090411688,
5.134067434,0.097868038,0.091392079,
5.16589106,0.098918926,0.09236032,
5.197415103,0.099816611,0.093245669,
5.225873685,0.100579581,0.093977488,
5.256465746,0.101307006,0.094720072,
5.288775825,0.102036457,0.095489324,
5.321008837,0.102723454,0.096237892,
5.35093502,0.103429529,0.096931297,
5.383560775,0.104233811,0.097680501,
5.416616009,0.105013181,0.098422214,
5.448095758,0.105709119,0.099133395,
5.480191227,0.106394938,0.099857486,
5.513731404,0.107048933,0.100623987,
5.547195171,0.107712552,0.101402985,
5.579572068,0.108469996,0.102147823,
5.610384133,0.109130379,0.102845849,
5.642072608,0.109753443,0.103528198,
5.675731179,0.110405317,0.104197682,
5.709740992,0.111008701,0.104840166,
5.739877789,0.111383828,0.105379103,
5.772491922,0.111786977,0.105963913,
5.806136247,0.112266715,0.106582299,
5.838416244,0.11276271,0.107177267,
5.867738065,0.113238253,0.107721734,
5.898197276,0.113773986,0.108264795,
5.930709808,0.114292889,0.108809451,
5.962387069,0.114691681,0.109315732,
5.99193129,0.114990375,0.109760821,
6.008626363,0.115132982,0.110010054,
6.036229977,0.115341206,0.110426872,
6.069758342,0.115638569,0.110936304,
6.103987577,0.116051359,0.111450102,
6.138190866,0.116452076,0.1119372,
6.168633178,0.116737403,0.112298103,
6.198377259,0.116861783,0.11257228,
6.233356846,0.116825935,0.112807038,
6.268310809,0.116738837,0.112979285,
6.301583665,0.116632981,0.113164442,
6.334276196,0.116597561,0.113393295,
6.368022507,0.116614545,0.113674541,
6.402839813,0.116752254,0.113976375,
6.438078036,0.1167896,0.114245729,
6.473265315,0.116679238,0.11447515,
6.505640691,0.116585225,0.114650715,
6.539305997,0.11646294,0.114813053,
6.574152266,0.116400352,0.114949486,
6.608311439,0.116304823,0.115027984,
6.617609625,0.116255957,0.115035877,
6.642481573,0.116073606,0.115016634,
6.671248794,0.115777209,0.114885063,
6.702582318,0.115257501,0.114618406,
6.728117946,0.114720655,0.114271293,
6.74721822,0.114302702,0.113930039,
6.778602537,0.1136338,0.113219507,
6.809596979,0.112870773,0.112394996,
6.839227855,0.1122174,0.111535216,
6.872100622,0.111439949,0.110589617,
6.905579075,0.110552892,0.109698148,
6.938688077,0.109658142,0.108861149,
6.968364443,0.108820314,0.108106527,
6.999694928,0.107949377,0.107220376,
7.011240648,0.107620839,0.106865415,
7.043139865,0.106719219,0.105810784,
7.075618346,0.105825197,0.104671133,
7.105128659,0.104985356,0.103625641,
7.134218857,0.104191441,0.102635755,
7.167516886,0.103186372,0.101557906,
7.200553479,0.102115088,0.100493754,
7.231009214,0.101182507,0.099484852,
7.26159833,0.100306779,0.0984162,
7.295173994,0.09942033,0.097187861,
7.32842219,0.098463063,0.095962927,
7.361481498,0.097467488,0.094764077,
7.39213645,0.096560954,0.093679313,
7.425933801,0.095527524,0.092505324,
7.45950671,0.094439402,0.091320159,
7.492082761,0.093533383,0.090141453,
7.523876623,0.092601882,0.088964289,
7.555155037,0.091672295,0.087795317,
7.588304077,0.090706397,0.086572353,
7.62180925,0.089736989,0.085363838,
7.650303761,0.088862661,0.084359223,
7.684100205,0.087851051,0.083179331,
7.717759429,0.086795683,0.082000384,
7.750923588,0.08588726,0.080897183,
7.783833403,0.085020091,0.07990704,
7.817869406,0.084212711,0.079119728,
7.848419363,0.083580383,0.078765026,
7.866102857,0.083234909,0.078741699,
7.896382487,0.082850886,0.078882918,
7.910185509,0.082770283,0.079039128,
7.910357939,0.082769678,0.079041317,
7.919214538,0.082738605,0.079155444,
7.944316335,0.08267423,0.079455918,
7.972245211,0.082624752,0.079702191,
8,0.082572949,0.079734205,
8.00867295,0.082570312,0.079706674,
8.033352945,0.082509804,0.079529015,
8.069512872,0.0822322,0.079096184,
8.105672799,0.081720268,0.078551734,
8.141832725,0.080918964,0.077915912,
8.179490632,0.080017188,0.077048975,
8.214962683,0.079174357,0.076018429,
8.249716721,0.078329706,0.07489477,
8.274007413,0.077742159,0.07411522,
8.305374133,0.07692919,0.073179532,
8.340662557,0.076018307,0.072250206,
8.376430085,0.075063662,0.071338662,
8.411660887,0.074151065,0.070374718,
8.446015771,0.073275797,0.069342291,
8.481658797,0.072403005,0.068226865,
8.517492698,0.071554719,0.067135788,
8.55436547,0.070610579,0.06608287,
8.590952054,0.069691007,0.065071037,
8.629663225,0.06867602,0.063957064,
8.667309381,0.067775883,0.062820053,
8.704398083,0.066850917,0.061672398,
8.742382522,0.065910888,0.060521349,
8.779111386,0.064975785,0.059448336,
8.816667064,0.0640135,0.058419693,
8.852877165,0.063136146,0.057551892,
8.889791442,0.062360677,0.056900834,
8.926190292,0.061741962,0.056527144,
8.961311605,0.061228498,0.056314837,
8.994498076,0.060744674,0.056083165,
9.028818559,0.060321559,0.055677117,
9.064344643,0.059829264,0.055075553,
9.099082343,0.059322197,0.054363241,
9.132239463,0.058672898,0.053625581,
9.163685072,0.058007829,0.052900579,
9.197198698,0.057261137,0.052068547,
9.233381557,0.056457963,0.051114288,
9.268418655,0.055777772,0.050181628,
9.288754566,0.055311903,0.049634362,
9.322898233,0.054510099,0.048735495,
9.359492433,0.053592731,0.04778224,
9.395610713,0.052765035,0.046823975,
9.433575204,0.051825337,0.045795515,
9.4676019,0.051062625,0.044838524,
9.5013238,0.050268868,0.043865623,
9.537630854,0.049386543,0.042807705,
9.57439367,0.048534218,0.041736999,
9.611712778,0.047499723,0.040658051,
9.6473011,0.04668958,0.039618381,
9.68381049,0.045855637,0.038554154,
9.721088587,0.044990978,0.037459387,
9.758539305,0.04406055,0.036378419,
9.796622565,0.043188671,0.035359117,
9.833836463,0.042462034,0.03455243,
9.871630702,0.041657079,0.034058718,
9.909274389,0.04108256,0.033924738,
9.948658656,0.040805868,0.033999484,
9.988324802,0.040512975,0.033945375,
10.02557252,0.040104626,0.033489731,
10.06324803,0.03959009,0.03259306,
10.10071614,0.038826802,0.031506635,
10.1374665,0.037997184,0.030479659,
10.17393194,0.037134535,0.029588902,
10.2115578,0.036185818,0.02869556,
10.24851602,0.035346223,0.027699584,
10.28585897,0.034586135,0.026566184,
10.32393316,0.033699909,0.025375467,
10.36133147,0.032782313,0.024293051,
10.39834881,0.031833248,0.023306912,
10.43448814,0.030982511,0.02235675,
10.47320567,0.030080943,0.021260995,
10.51181819,0.029208852,0.020088464,
10.5496481,0.028389067,0.018933963,
10.5858999,0.027629964,0.017978771,
10.62211041,0.026843445,0.017410794,
10.63962972,0.026529047,0.017332966,
10.67255562,0.026189987,0.017475801,
10.70604084,0.026101183,0.017869801,
10.70605771,0.026101145,0.01787001,
10.70759336,0.02609763,0.017888839,
10.72050451,0.02606808,0.018028631,
10.74196902,0.026023045,0.018177914,
10.76024303,0.026024965,0.018187233,
10.78902652,0.025943325,0.017906884,
10.8320529,0.025565243,0.017048554,
10.8682148,0.025085294,0.016265122,
10.90437128,0.024335598,0.015653321,
10.94515842,0.023524038,0.01513445,
10.98457931,0.022867093,0.014520578,
11.01858601,0.02231833,0.01374393,
11.04036683,0.021887316,0.013133311,
11.07939278,0.021152736,0.012005358,
11.11846991,0.020366175,0.011042871,
11.15529588,0.019537269,0.010322715,
11.1957957,0.018691576,0.009574683,
11.23437698,0.017948867,0.008718607,
11.27320166,0.017267736,0.007699784,
11.31325145,0.016498021,0.006630878,
11.35212799,0.015660854,0.005707896,
11.39019384,0.01489557,0.004912817,
11.42928749,0.014134899,0.004080202,
11.46790867,0.013382257,0.003161053,
11.50612392,0.012635844,0.002169933,
11.5450331,0.011887525,0.00118382,
11.58369864,0.011034568,0.000273444,
11.62366486,0.010229773,-0.000617354,
11.66142245,0.009473002,-0.001485279,
11.70306705,0.008681024,-0.002507065,
11.74379263,0.007874001,-0.003542058,
11.78443076,0.007060737,-0.004553042,
11.82656628,0.006180717,-0.005559359,
11.86780524,0.005373189,-0.0065377,
11.9082487,0.004586103,-0.007523222,
11.94734815,0.003822711,-0.008471316,
11.98901803,0.003103594,-0.009272273,
12.02501638,0.002542667,-0.00955578,
12.04808163,0.002303544,-0.009493464,
12.06917378,0.00217491,-0.009328773,
12.10180078,0.00206024,-0.008971474,
12.10181024,0.002060209,-0.008971382,
12.10286761,0.002056782,-0.008961159,
12.11020769,0.002034052,-0.008895876,
12.12729359,0.002021972,-0.008781085,
12.15186916,0.001989604,-0.008745842,
12.1774613,0.001960986,-0.008889539,
12.17748835,0.001960965,-0.00888974,
12.17881403,0.001959942,-0.008899679,
12.19205364,0.001954112,-0.009010465,
12.22923434,0.001851146,-0.009346656,
12.26402189,0.001684391,-0.009452556,
12.29880944,0.001574112,-0.009298727,
12.30554765,0.001566043,-0.009255173,
12.30586006,0.001565703,-0.009253156,
12.3101681,0.00156129,-0.009224853,
12.33160193,0.00157886,-0.009061646,
12.36109733,0.001599469,-0.008889281,
12.39196154,0.001656595,-0.008808382,
12.42479285,0.001600587,-0.008842201,
12.46352544,0.001562045,-0.008854142,
12.50225803,0.001489779,-0.008747718,
12.53769464,0.001467455,-0.008559148,
12.56763795,0.001449607,-0.00837082,
12.60383276,0.001470452,-0.008180171,
12.63969635,0.001494304,-0.008055723,
12.67432077,0.001442713,-0.007948507,
12.71082685,0.001459418,-0.007793788,
12.749117,0.001445572,-0.007584545,
12.78740716,0.001566575,-0.007351051,
12.82131588,0.001696587,-0.007138073,
12.85865829,0.001765569,-0.006929957,
12.89893084,0.001802382,-0.00671027,
12.93719765,0.001911943,-0.006480865,
12.97274309,0.00203242,-0.006233137,
13.01394322,0.002179486,-0.005936288,
13.05371641,0.002368286,-0.005654998,
13.09044633,0.00252689,-0.00540224,
13.12804501,0.002685934,-0.005121236,
13.16769649,0.002893482,-0.004771913,
13.20398812,0.003249788,-0.0043986,
13.23944543,0.00362706,-0.00398445,
13.2762969,0.003991594,-0.003551335,
13.31357772,0.004422695,-0.003129181,
13.34969768,0.004787996,-0.002739357,
13.38752896,0.005048605,-0.002336761,
13.42588293,0.005439114,-0.001922199,
13.46442104,0.005878199,-0.001499914,
13.50479662,0.006320654,-0.001044761,
13.54368834,0.006742515,-0.000608747,
13.58298705,0.007132383,-0.000161201,
13.62126306,0.007463152,0.000274164,
13.66235564,0.007854497,0.000753797,
13.70088907,0.008254304,0.001204368,
13.73792482,0.00872053,0.001643795,
13.77495445,0.009193242,0.002086421,
13.81353151,0.009668804,0.002553366,
13.85195003,0.010053105,0.003023469,
13.89037221,0.010441001,0.003490736,
13.92905886,0.010853623,0.003966125,
13.96841669,0.011332245,0.004446747,
14.00735063,0.011806704,0.00492979,
14.04701914,0.01228322,0.005418121,
14.08913416,0.012681004,0.005941559,
14.13215144,0.013192493,0.00647045,
14.17494919,0.013731999,0.006999358,
14.21724165,0.014254574,0.007516281,
14.26000005,0.014674622,0.008034784,
14.30233384,0.015007044,0.008525271,
14.34501214,0.015473091,0.008998507,
14.38601149,0.015705206,0.009405336,
14.42846126,0.016090827,0.009714033,
14.47280974,0.016106873,0.009897397,
14.51403373,0.016275262,0.010004683,
14.55673607,0.016041806,0.010153501,
14.60101663,0.015982997,0.010394129,
14.64479765,0.015981392,0.010651189,
14.68807121,0.016037587,0.01087621,
14.73144198,0.016003989,0.011109914,
14.77698768,0.01613328,0.011466619,
14.82016793,0.016459161,0.011960004,
14.86276351,0.017103743,0.012572566,
14.90539148,0.017866405,0.013248156,
14.94782826,0.018569206,0.013955498,
14.98991558,0.019178172,0.014675774,
15.03201344,0.019841587,0.015421797,
15.07392336,0.020756248,0.016174868,
15.11646864,0.021673452,0.016950775,
15.15788546,0.022438353,0.017709561,
15.20154372,0.023280732,0.018522149,
15.24461455,0.023876309,0.019326417,
15.28740094,0.024739782,0.020137119,
15.33014653,0.025635917,0.020948974,
15.37376241,0.026528284,0.021786999,
15.416906,0.027460794,0.022613938,
15.4598877,0.028313701,0.023441473,
15.50341609,0.029051162,0.024276046,
15.54670618,0.02988941,0.025112196,
15.5877485,0.030756742,0.025904198,
15.63128163,0.031614081,0.026734769,
15.67477842,0.032378352,0.027471056,
15.71582939,0.032884858,0.027907563,
15.75708946,0.032997404,0.028069479,
15.79664708,0.03294045,0.028079316,
15.83430563,0.032801727,0.028150625,
15.87557579,0.032711428,0.02844662,
15.91679828,0.032902835,0.028929026,
15.9557624,0.033323714,0.029477824,
15.99727602,0.033839258,0.030108737,
16.04105338,0.03446577,0.03085866,
16.08020719,0.035211206,0.031608617,
16.12119424,0.036092705,0.032454612,
16.16252286,0.036985295,0.033326011,
16.20814411,0.038115914,0.034291251,
16.25115864,0.039016576,0.035198369,
16.2930912,0.03985246,0.036091205,
16.33414933,0.040731712,0.036968015,
16.37478099,0.041647874,0.037842103,
16.4155634,0.042560832,0.038719245,
16.45814061,0.043466948,0.039639453,
16.50009357,0.04435148,0.040546878,
16.54177854,0.045279782,0.04145427,
16.58186891,0.046193802,0.04233238,
16.62388539,0.047175195,0.043261147,
16.66710066,0.048163962,0.044223208,
16.70948654,0.04914246,0.04517102,
16.75342215,0.050161325,0.046139428,
16.79690902,0.051050307,0.047022386,
16.83927581,0.05166034,0.04769617,
16.88197434,0.052006964,0.048143282,
16.92903426,0.052145449,0.048526449,
16.97917751,0.052370507,0.049078584,
17.0311457,0.053093903,0.04995312,
17.0563898,0.053626347,0.050447907,
17.10794801,0.05478943,0.051497901,
17.16097643,0.055841327,0.052595215,
17.2105378,0.056644347,0.053641903,
17.26020715,0.05756485,0.054718432,
17.31067892,0.058680584,0.055826293,
17.36224172,0.059897934,0.056972054,
17.41223001,0.060960315,0.058114007,
17.46304592,0.062070118,0.059315837,
17.51317416,0.063285916,0.060543255,
17.56299837,0.06464621,0.061784494,
17.61333642,0.066000106,0.063052472,
17.66423944,0.067262645,0.064344998,
17.71719764,0.068445895,0.065696587,
17.76879308,0.069780346,0.067021252,
17.819287,0.071154072,0.068320285,
17.8700861,0.072521138,0.069631713,
17.92217785,0.073731233,0.070982385,
17.97540192,0.075045159,0.072370678,
18.02710137,0.076398791,0.073705413,
18.06507484,0.077326632,0.074622108,
18.11198414,0.078271475,0.075606076,
18.16152188,0.078917275,0.076459724,
18.21121178,0.079436888,0.077274837,
18.26015612,0.080204789,0.078198835,
18.31663958,0.081414129,0.079460781,
18.36676932,0.08259844,0.080674422,
18.41909174,0.083895123,0.081963224,
18.4714296,0.084988582,0.083253306,
18.52611146,0.086137369,0.084580042,
18.58078445,0.0872863,0.085797031,
18.63310528,0.088104429,0.086757223,
18.68625399,0.088504451,0.087496838,
18.74187605,0.088720274,0.088106377,
18.79771511,0.088836694,0.088613475,
18.86163543,0.088908328,0.089121928,
18.92555575,0.088867112,0.089607699,
18.9826596,0.088693396,0.089961101,
19.02053194,0.088556226,0.090035594,
19.07647055,0.088050442,0.089682167,
19.11571334,0.087274595,0.089118473,
19.13720202,0.086825492,0.088704409,
19.18172516,0.085644958,0.087644317,
19.22302213,0.084492783,0.086396428,
19.26786136,0.08307154,0.084816652,
19.31164134,0.081673151,0.083210673,
19.35275393,0.080344942,0.081654342,
19.39386653,0.078874321,0.079998919,
19.43497912,0.077267692,0.078183945,
19.47981622,0.075612956,0.076101305,
19.52074055,0.074108509,0.074200721,
19.55829986,0.072742091,0.072472833,
19.60251419,0.071074537,0.070424329,
19.64412694,0.069539902,0.068456053,
19.68926395,0.067797727,0.06627519,
19.73337627,0.066191017,0.064160635,
19.77861008,0.064573526,0.062256371,
19.81063077,0.063600394,0.061464209,
19.83169289,0.063081148,0.06135424,
19.85384939,0.06269822,0.06142683,
19.86859274,0.062552248,0.061658572,
19.86860408,0.062552154,0.061658811,
19.86944618,0.062545137,0.061676779,
19.87772098,0.06252032,0.061870261,
19.88889995,0.062513389,0.062151245,
19.90007893,0.062511266,0.062424079,
19.91349853,0.062541613,0.062739079,
19.92691813,0.062595485,0.063040678,
19.94033773,0.062667683,0.063282114,
19.95375733,0.062756304,0.063434488,
19.96717693,0.062828891,0.063533057,
19.98059653,0.06287517,0.063599307,
19.99401613,0.062896934,0.063615376,
20.00771547,0.062904623,0.063595365,
20.02285907,0.062870851,0.063587255,
20.03750442,0.06280494,0.063600563,
20.05159728,0.062721346,0.063620983,
20.06569015,0.062614402,0.063680454,
20.07978301,0.062491801,0.063796322,
20.09494702,0.062415985,0.063936302,
20.11598465,0.062335362,0.064111342,
20.12741402,0.062287177,0.064201474,
20.15118881,0.062227376,0.064273875,
20.17741031,0.062165277,0.064154707,
20.20417833,0.061929421,0.06379751,
20.21455499,0.061799195,0.063605108,
20.24011402,0.06136801,0.063130497,
20.27395906,0.060572719,0.062536457,
20.30322712,0.059891352,0.062229154,
20.33249518,0.059298876,0.062101746,
20.36210997,0.058706036,0.061998434,
20.39422937,0.058225657,0.061778125,
20.42328839,0.05786878,0.061361636,
20.45363036,0.057519095,0.060815284,
20.48440359,0.057003042,0.060268572,
20.51653038,0.056333002,0.059846623,
20.54944813,0.055581188,0.059616925,
20.58111672,0.054954551,0.059423294,
20.61337515,0.054305348,0.059051515,
20.64563465,0.053701693,0.058415762,
20.66380799,0.053408001,0.057922889,
20.69422938,0.052867373,0.057049478,
20.72060963,0.052247537,0.056286195,
20.75260975,0.051417944,0.055550998,
20.78688413,0.05052003,0.054932598,
20.8189226,0.049664818,0.054368349,
20.84592593,0.048946318,0.053824761,
20.8762783,0.04825218,0.053036636,
20.90935397,0.047434234,0.052051692,
20.94182684,0.046670747,0.051093296,
20.96820693,0.046020145,0.0503702,
20.98883001,0.045470102,0.049868183,
21.0150014,0.04475157,0.049269261,
21.04846191,0.043862961,0.04851119,
21.08024608,0.043056042,0.047703091,
21.11068719,0.042304583,0.046865123,
21.13944196,0.041647622,0.046035389,
21.17172155,0.040852436,0.045120688,
21.20283572,0.040043266,0.044314343,
21.23026921,0.039330034,0.043626913,
21.25996876,0.038502134,0.042899143,
21.29175145,0.037653189,0.042088822,
21.3205991,0.036900968,0.041293264,
21.34829173,0.036198964,0.040514324,
21.38172392,0.035455934,0.039563353,
21.41516418,0.034603899,0.038645516,
21.44652584,0.033815952,0.037856056,
21.47574492,0.033062996,0.037229266,
21.5073678,0.032290839,0.036799144,
21.51876189,0.032079842,0.036730525,
21.54440521,0.031745902,0.036738758,
21.56981652,0.031501451,0.036874245,
21.58511934,0.031414733,0.036884245,0.037027694
21.5851438,0.031414654,0.036894245,0.037027967
21.58698547,0.031408678,0.036904245,0.037048736
21.60427664,0.031395409,0.036914245,0.037246666
21.62174328,0.0314124,0.036924245,0.037425244
21.64362534,0.031435355,0.036934245,0.037572381
21.67099581,0.031447914,0.036944245,0.037654399
21.69620764,0.031449019,0.036954245,0.037673763
21.72402369,0.031418894,0.036964245,0.037694301
21.75138485,0.031387797,0.036974245,0.037762356
21.7774632,0.031359639,0.036984245,0.037915247
21.80607715,0.031356763,0.036994245,0.038141671
21.83272568,0.031363304,0.037004245,0.038364729
21.85897504,0.031381308,0.037014245,0.038568774
21.88759806,0.031418416,0.037024245,0.03876092
21.914901,0.031443726,0.037034245,0.038898546
21.9422567,0.031444369,0.037044245,0.039030907
21.97073457,0.031340364,0.037054245,0.039184981
21.99632727,0.031265332,0.037064245,0.039334672
22.02425318,0.031243526,0.037074245,0.039524967
22.05357851,0.031246607,0.037084245,0.039739503
22.08043447,0.031250604,0.037094245,0.039925228
22.10850498,0.031251884,0.037104245,0.040104542
22.13723267,0.031216173,0.037114245,0.040282685
22.16526467,0.031219442,0.037124245,0.040440654
22.1939311,0.031215057,0.037134245,0.04061102
22.22358215,0.031141518,0.037144245,0.040804709
22.25026903,0.031129941,0.037154245,0.040978624
22.27879922,0.031141024,0.037164245,0.041172788
22.30875722,0.03115332,0.037174245,0.041377305
22.33543557,0.03115577,0.037184245,0.041546107
22.36427951,0.031154657,0.037194245,0.041725561
22.39414412,0.031102949,0.037204245,0.041918389
22.42301703,0.031060995,0.037214245,0.042097893
22.45145893,0.031051939,0.037224245,0.042285794
22.48153363,0.031054105,0.037234245,0.042492522
22.50677367,0.031055858,0.037244245,0.042657567
22.53572632,0.031056425,0.037254245,0.042849556
22.5657539,0.031056362,0.037264245,0.043048942
22.59364435,0.031056271,0.037274245,0.043221781
22.62135619,0.031056243,0.037284245,0.043397459
22.65066018,0.031056244,0.037294245,0.043588358
22.67632576,0.031056248,0.037304245,0.043747576
22.70199134,0.03105625,0.037314245,0.043913453
22.73039682,0.03105625,0.037324245,0.044102789
22.75730471,0.03105625,0.037334245,0.044275568
22.78636369,0.03105625,0.037344245,0.044464287
22.81696716,0.031041854,0.037354245,0.044671442
22.84380367,0.030986692,0.037364245,0.044843585
22.87395959,0.030957431,0.037374245,0.045042852
22.90370817,0.030904708,0.037384245,0.045243302
22.93141839,0.030888904,0.037394245,0.04542116
22.9597537,0.030935187,0.037404245,0.045607219
22.98937381,0.030941238,0.037414245,0.045804947
23.01781698,0.030922549,0.037424245,0.045984751
23.0468983,0.030890362,0.037434245,0.0461745
23.07706273,0.030921011,0.037444245,0.046373219
23.1067654,0.030918704,0.037454245,0.046560386
23.13507847,0.030876151,0.037464245,0.046747495
23.16513569,0.03085882,0.037474245,0.046947016
23.19529336,0.030858419,0.037484245,0.047141402
23.22340977,0.030860259,0.037494245,0.047333366
23.25313117,0.030812311,0.037504245,0.047532773
23.2828546,0.030774673,0.037514245,0.047727209
23.30865378,0.030810204,0.037524245,0.047903118
23.33937503,0.030851231,0.037534245,0.048107618
23.37037163,0.030824264,0.037544245,0.048307371
23.39910084,0.030835021,0.037554245,0.048499993
23.42819274,0.030855992,0.037564245,0.048688465
23.45880816,0.030844562,0.037574245,0.048884204
23.48858027,0.030767672,0.037584245,0.04908431
23.51648893,0.030721572,0.037594245,0.049265984
23.54702166,0.030690203,0.037604245,0.049467003
23.57628239,0.030680638,0.037614245,0.049668534
23.60127674,0.030705863,0.037624245,0.049834551
23.62048723,0.030690844,0.037634245,0.049961692
23.64367486,0.030672909,0.037644245,0.050120708
23.67339881,0.030664333,0.037654245,0.050323904
23.70388166,0.030664318,0.037664245,0.050523406
23.73179963,0.030665297,0.037674245,0.050712723
23.76192084,0.030665681,0.037684245,0.05091449
23.79345022,0.030616224,0.037694245,0.051118084
23.82280213,0.030572695,0.037704245,0.051316579
23.85202342,0.030605325,0.037714245,0.051508316
23.88210962,0.030591091,0.037724245,0.051702439
23.90968369,0.030613437,0.037734245,0.051890251
23.93741686,0.030560029,0.037744245,0.052071963
23.96740413,0.030527706,0.037754245,0.052270666
23.99547209,0.030487008,0.037764245,0.052466015
24.02169318,0.030515107,0.037774245,0.052643323
24.05161808,0.03055984,0.037784245,0.052845412
24.0810422,0.030570894,0.037794245,0.053050484
24.10739521,0.030570908,0.037804245,0.053226689
24.13849095,0.030529409,0.037814245,0.053432055
24.1663158,0.030523781,0.037824245,0.053622379
24.19414066,0.03049007,0.037834245,0.053804836
24.2255719,0.030469977,0.037844245,0.054012751
24.2576892,0.030468102,0.037854245,0.054231977
24.28630221,0.03045643,0.037864245,0.054419211
24.31636458,0.030417455,0.037874245,0.054621413
24.34704689,0.030426066,0.037884245,0.0548326
24.37848593,0.030469221,0.037894245,0.055041205
24.40660992,0.030478837,0.037904245,0.05523678
24.43785388,0.030473397,0.037914245,0.055452959
24.47018185,0.030468858,0.037924245,0.055670308
24.4997148,0.030464773,0.037934245,0.055877639
24.52989546,0.030460598,0.037944245,0.056083108
24.5612939,0.030456255,0.037954245,0.056294844
24.59275846,0.030451902,0.037964245,0.056513984
24.62311358,0.030447704,0.037974245,0.05671515
24.65399366,0.030443432,0.037984245,0.056923329
24.68503585,0.030439138,0.037994245,0.057136125
24.71753511,0.030434642,0.038004245,0.057351462
24.74593429,0.030430714,0.038014245,0.057549079
24.77532414,0.030426649,0.038024245,0.057753921
24.8064068,0.030422349,0.038034245,0.057966312
24.83435523,0.030418483,0.038044245,0.058165628
24.86337981,0.030414468,0.038054245,0.058369055
24.89462904,0.030410145,0.038064245,0.058582868
24.92511156,0.030405929,0.038074245,0.058798248
24.95442699,0.030401874,0.038084245,0.058998342
24.98631575,0.030397463,0.038094245,0.059214035
