time,qA:1,cylinder_force:1,pA:1,pos :1
0,0,11451.10522,4050000,0.007353829
0.001436076,0,11450.97253,4049954.951,0.007353835
0.004308229,0,11450.45628,4049776.074,0.007353862
0.007925645,0,11449.11377,4049305.679,0.007353931
0.011543062,0,11447.05781,4048582.492,0.007354039
0.015975976,0,11443.71244,4047403.27,0.007354213
0.02040889,0,11439.66901,4045975.94,0.007354425
0.024841804,0,11435.20186,4044397.347,0.007354659
0.030338335,0,11429.54639,4042396.721,0.007354955
0.037589157,0,11422.82451,4040015.471,0.007355308
0.044839979,0,11417.96638,4038290.282,0.007355563
0.050519715,0,11416.02546,4037596.93,0.007355666
0.056199452,0,11415.99161,4037577.648,0.007355669
0.060570961,0,11417.27995,4038027.886,0.007355602
0.06494247,0,11419.62585,4038852.744,0.00735548
0.069313979,0,11422.87385,4039997.556,0.00735531
0.073685488,0,11426.80921,4041386.636,0.007355105
0.078056997,0,11431.17212,4042928.277,0.007354876
0.083513787,0,11436.76298,4044905.877,0.007354583
0.090578212,0,11443.36366,4047243.899,0.007354237
0.096134836,0,11447.43579,4048689.091,0.007354023
0.10169146,0,11450.02011,4049609.461,0.007353886
0.107248084,0,11450.84613,4049908.663,0.007353842
0.112804708,0,11449.82883,4049555.888,0.007353894
0.11713623,0,11447.81212,4048847.602,0.007353999
0.121467752,0,11444.8621,4047808.425,0.007354153
0.125799274,0,11441.17043,4046505.868,0.007354346
0.130130796,0,11436.97654,4045024.418,0.007354566
0.135359975,0,11431.64587,4043139.441,0.007354845
0.141703925,0,11425.46927,4040952.642,0.007355169
0.146855866,0,11421.19988,4039438.82,0.007355393
0.152007806,0,11418.03972,4038315.887,0.00735556
0.157159747,0,11416.27482,4037685.491,0.007355653
0.162311687,0,11416.06413,4037604.407,0.007355665
0.167463627,0,11417.42515,4038079.422,0.007355595
0.172615568,0,11420.23254,4039066.779,0.007355448
0.177767508,0,11424.22962,4040476.198,0.00735524
0.182919449,0,11429.05184,4042179.134,0.007354987
0.188071389,0,11434.26006,4044020.503,0.007354714
0.19322333,0,11439.38049,4045832.802,0.007354446
0.199365445,0,11444.71134,4047722.165,0.007354166
0.2,0,11445.20456,4047897.157,0.00735414
0.2,0,11445.20456,4047897.157,0.00735414
0.2,0,11445.20456,4047897.157,0.00735414
0.20000071,1.01552E-11,11445.2051,4047897.345,0.00735414
0.200002129,5.06329E-11,11445.20616,4047897.722,0.00735414
0.200003231,1.0969E-10,11445.20698,4047898.015,0.00735414
0.200005215,2.75986E-10,11445.20847,4047898.542,0.00735414
0.200010232,1.02991E-09,11445.21224,4047899.88,0.00735414
0.20001525,2.24543E-09,11445.21604,4047901.23,0.00735414
0.200021617,4.41599E-09,11445.22094,4047902.969,0.007354139
0.200027984,7.25023E-09,11445.22595,4047904.744,0.007354139
0.200034351,1.07072E-08,11445.23109,4047906.567,0.007354139
0.200040718,1.47484E-08,11445.23638,4047908.447,0.007354139
0.200047086,1.93379E-08,11445.24187,4047910.391,0.007354138
0.200055376,2.60777E-08,11445.24932,4047913.034,0.007354138
0.200063667,3.36207E-08,11445.25717,4047915.818,0.007354138
0.200074283,4.43474E-08,11445.26787,4047919.612,0.007354137
0.2000849,5.61654E-08,11445.27937,4047923.69,0.007354137
0.200098256,7.24088E-08,11445.2951,4047929.265,0.007354136
0.200111611,9.0013E-08,11445.31235,4047935.378,0.007354136
0.200128449,1.13876E-07,11445.33644,4047943.913,0.007354135
0.200145287,1.39342E-07,11445.36333,4047953.436,0.007354134
0.200166711,1.73659E-07,11445.40184,4047967.076,0.007354134
0.200188135,2.09752E-07,11445.44542,4047982.509,0.007354133
0.200215837,2.58487E-07,11445.50967,4048005.259,0.007354132
0.20024354,3.09046E-07,11445.58318,4048031.281,0.007354131
0.200280326,3.78238E-07,11445.6956,4048071.077,0.007354129
0.200317112,4.49133E-07,11445.82536,4048117.002,0.007354128
0.200368077,5.49186E-07,11446.03443,4048190.994,0.007354126
0.200419042,6.50622E-07,11446.27805,4048277.203,0.007354124
0.200494658,8.02495E-07,11446.70391,4048427.893,0.007354121
0.200587451,9.90014E-07,11447.33242,4048650.28,0.007354117
0.200715649,1.24986E-06,11448.39357,4049025.721,0.007354113
0.200893083,1.60991E-06,11450.23197,4049676.128,0.007354106
0.201173799,2.17963E-06,11454.01718,4051015.261,0.007354096
0.201681171,3.20914E-06,11463.58021,4054398.438,0.007354078
0.202370154,4.60644E-06,11482.1587,4060971.245,0.007354056
0.203059136,6.00264E-06,11507.14573,4069811.733,0.007354039
0.203748118,7.3974E-06,11538.49285,4080903.105,0.007354029
0.204437101,8.7904E-06,11576.13949,4094224.293,0.007354027
0.205126083,1.01813E-05,11620.01311,4109749.992,0.007354039
0.205815065,1.15699E-05,11670.02934,4127450.721,0.007354067
0.206504048,1.29557E-05,11726.0921,4147292.872,0.007354115
0.20719303,1.43386E-05,11788.09387,4169238.79,0.007354189
0.207882012,1.57182E-05,11855.91582,4193246.838,0.007354295
0.208570995,1.70943E-05,11929.42813,4219271.493,0.007354437
0.209259977,1.84665E-05,12008.49017,4247263.427,0.007354622
0.210090992,2.01162E-05,12111.01136,4283564.955,0.007354914
0.210922007,2.17594E-05,12221.10006,4322550.784,0.007355292
0.211941647,2.37665E-05,12366.04807,4373888.77,0.007355895
0.212961287,2.57626E-05,12521.32135,4428892.991,0.007356677
0.214213054,2.81974E-05,12725.07056,4501083.932,0.007357926
0.215464821,3.0614E-05,12942.12311,4578006.743,0.007359549
0.217028565,3.36059E-05,13229.80441,4679990.282,0.007362198
0.218592309,3.6567E-05,13533.31757,4787624.907,0.007365657
0.220620299,4.03602E-05,13945.46085,4933851.2,0.007371582
0.22264829,4.41004E-05,14372.57658,5085479.854,0.007379408
0.225526995,4.93222E-05,14990.25859,5304947.524,0.007394451
0.228405701,5.44498E-05,15604.41763,5523423.858,0.007414911
0.231284407,5.94985E-05,16195.63094,5734049.034,0.007441713
0.234163112,6.44895E-05,16745.52308,5930320.053,0.007475753
0.237041818,6.94482E-05,17237.39846,6106312.824,0.007517863
0.239920523,7.44038E-05,17656.80253,6256880.299,0.007568786
0.242799229,7.93876E-05,17991.98842,6377818.588,0.007629159
0.246290852,8.55157E-05,18273.12536,6480270.031,0.0077158
0.249782475,9.17839E-05,18409.16914,6531421.161,0.007817696
0.25,9.21793E-05,18412.83696,6532906.18,0.00782455
0.25,9.21799E-05,18412.83696,6532906.18,0.00782455
0.25,9.21799E-05,18412.83696,6532906.18,0.00782455
0.250667536,9.23385E-05,18412.76993,6533444.152,0.007846271
0.252002608,9.24055E-05,18391.20937,6526914.625,0.007890854
0.253337679,9.24579E-05,18326.88585,6505197.217,0.007937717
0.254672751,9.26219E-05,18220.66889,6468586.164,0.007986837
0.256598685,9.29046E-05,17996.42486,6390494.379,0.008061593
0.258923909,9.34245E-05,17619.75343,6258453.951,0.008157771
0.262040975,9.43074E-05,16950.06057,6022614.269,0.008296192
0.265158041,9.54254E-05,16116.30169,5728053.146,0.008444415
0.269157133,9.70622E-05,14860.65465,5283360.052,0.008646422
0.273156224,9.88756E-05,13463.23837,4787512.44,0.008858449
0.277155315,0.00010072,12003.41688,4268817.145,0.009076447
0.281154407,0.000102527,10561.01978,3755815.133,0.009296184
0.285153498,0.000104175,9212.383202,3275828.849,0.009513474
0.289152589,0.000105617,8026.523755,2853558.911,0.009724399
0.293151681,0.000106764,7061.877939,2509892.671,0.009925509
0.297150772,0.000107598,6363.480998,2260885.638,0.010113997
0.301149863,0.000108068,5960.967362,2117053.525,0.010287824
0.305148955,0.000108185,5867.263862,2082926.967,0.010445814
0.309148046,0.000107937,6078.276912,2156970.328,0.010587686
0.313147137,0.000107362,6573.39797,2331794.485,0.010714044
0.317146229,0.000106482,7317.009668,2594720.341,0.01082632
0.32114532,0.000105361,8260.736974,2928595.674,0.010926671
0.325144411,0.00010405,9346.487014,3312876.978,0.011017834
0.329143503,0.000102632,10509.93969,3724856.129,0.011102963
0.333142594,0.000101174,11684.4126,4141007.875,0.01118544
0.337141685,9.97663E-05,12804.72076,4538329.294,0.01126868
0.341140777,9.84797E-05,13810.89665,4895630.47,0.011355943
0.345139868,9.73929E-05,14651.42558,5194660.53,0.011450161
0.349138959,9.65595E-05,15285.89224,5421036.703,0.011553785
0.35,9.64163E-05,15393.7644,5459635.439,0.011577446
0.35,9.64166E-05,15393.7644,5459635.439,0.011577446
0.35,9.64166E-05,15393.7644,5459635.439,0.011577446
0.351112867,9.62686E-05,15505.92532,5499878.718,0.011609374
0.3533386,9.60205E-05,15691.85512,5566787.288,0.011675146
0.355564334,9.58735E-05,15800.55889,5606351.969,0.011744812
0.358972157,9.58455E-05,15817.50169,5613921.696,0.011859227
0.363159103,9.61257E-05,15599.63069,5538441.91,0.012012547
0.36734605,9.67221E-05,15140.58906,5377118.367,0.012179234
0.371532997,9.75818E-05,14476.50946,5142631.446,0.012357839
0.375719944,9.86388E-05,13654.11452,4851486.65,0.012546257
0.379906891,9.9818E-05,12727.57544,4522903.548,0.012741878
0.384093838,0.000101046,11755.16366,4177617.796,0.012941756
0.388280785,0.000102242,10795.70291,3836602.301,0.013142796
0.392467732,0.00010334,9905.189295,3519843.071,0.013341941
0.396654678,0.000104283,9133.764944,3245241.432,0.013536351
0.400841625,0.000105024,8522.990595,3027628.361,0.013723566
0.405947225,0.000105608,8039.860292,2855163.42,0.013939292
0.411052824,0.000105814,7870.253782,2794021.519,0.014139237
0.416158423,0.000105642,8016.701931,2845082.492,0.014322591
0.421264023,0.00010512,8453.915881,2999350.437,0.014490027
0.426369622,0.000104304,9131.884004,3239088.352,0.014643592
0.431475221,0.000103272,9981.122042,3539698.763,0.01478647
0.436580821,0.000102118,10919.57262,3872165.056,0.014922654
0.44168642,0.000100946,11860.47166,4205814.333,0.015056564
0.446792019,9.98625E-05,12720.39605,4511133.867,0.015192634
0.451897619,9.89617E-05,13426.69122,4762371.316,0.015334924
0.457003218,9.8321E-05,13923.56723,4939678.992,0.015486775
0.462108817,9.79908E-05,14176.32712,5030618.464,0.015650545
0.467214417,9.79897E-05,14173.42954,5030918.366,0.015827444
0.472320016,9.83037E-05,13926.34,4944460.677,0.016017479
0.477425615,9.8889E-05,13467.3533,4782548.171,0.016219505
0.482531215,9.96788E-05,12845.73884,4562566.256,0.016431376
0.487636814,0.000100591,12122.66475,4306193.7,0.016650175
0.492742413,0.00010154,11365.40067,4037338.382,0.016872504
0.497848013,0.000102439,10641.30338,3779981.615,0.017094798
0.502953612,0.000103215,10012.06503,3556109.678,0.017313644
0.508059211,0.000103808,9528.662035,3383897.104,0.017526073
0.513164811,0.000104177,9227.380499,3276281.959,0.017729801
0.51827041,0.000104301,9127.212749,3240040.233,0.017923399
0.523376009,0.00010418,9228.813665,3275424.3,0.018106388
0.528481608,0.000103834,9515.081027,3376382.707,0.01827924
0.533587208,0.000103301,9953.284454,3531327.798,0.0184433
0.538692807,0.000102632,10498.52779,3724369.322,0.018600631
0.543798406,0.000101892,11098.20283,3936890.347,0.018753804
0.548904006,0.000101146,11696.99702,4149311.755,0.018905649
0.55,0.000100989,11822.02117,4193694.495,0.018938254
0.55,0.000100989,11822.02117,4193694.495,0.018938254
0.55,0.000100989,11822.02117,4193694.495,0.018938254
0.551609342,0.000100773,11994.07259,4254806.416,0.018986557
0.554828026,0.000100364,12319.27365,4370374.128,0.01908392
0.55804671,0.000100006,12601.70153,4470859.155,0.019183081
0.563380174,9.95607E-05,12951.40587,4595568.248,0.019352829
0.568713638,9.93255E-05,13134.17891,4661194.814,0.019530688
0.574047102,9.93152E-05,13139.95403,4664061.962,0.019717613
0.579380565,9.95209E-05,12976.07887,4606666.162,0.019913651
0.584714029,9.99124E-05,12665.75193,4497145.008,0.020117975
0.590047493,0.000100442,12245.03895,4348235.402,0.020329003
0.596515491,0.000101183,11653.9663,4138635.971,0.020590673
0.6,0.000101591,11327.16724,4022615.441,0.020732803
0.6,0.000101591,11327.16724,4022615.441,0.020732803
0.6,0.000101591,11327.16724,4022615.441,0.020732803
0.60053325,0.000100745,11273.93867,4003708.867,0.020754604
0.60159975,9.87679E-05,11160.69852,3963482.532,0.020798191
0.602419171,9.71775E-05,11064.40437,3929270.773,0.020831654
0.603412753,9.53221E-05,10937.14386,3884051.166,0.020872176
0.604740317,9.28067E-05,10750.08894,3817574.459,0.020926191
0.606368543,8.97619E-05,10495.72491,3727161.238,0.020992153
0.608727095,8.53316E-05,10083.6248,3580651.059,0.021086887
0.612160809,7.88858E-05,9407.20511,3340112.743,0.021222239
0.617057043,6.95557E-05,8336.306717,2959209.988,0.021407198
0.621953277,6.00137E-05,7211.445198,2559072.737,0.021578667
0.626849512,5.01697E-05,6117.029565,2169778.162,0.021731745
0.631745746,4.0032E-05,5133.744826,1820046.645,0.02186166
0.63664198,2.95974E-05,4333.368682,1535367.286,0.021964125
0.641538214,1.89439E-05,3773.996065,1336287.255,0.022035648
0.646434449,8.13038E-06,3496.20614,1237060.232,0.022073791
0.65,2.24551E-07,3483.260303,1231840.926,0.022079832
0.65,2.21379E-07,3483.260303,1231840.926,0.022079832
0.650359233,4.82013E-08,3493.294632,1235324.854,0.022079322
0.650476799,-5.67987E-12,3496.797086,1236542.24,0.022079144
0.650476799,-9.12656E-20,3496.797086,1236542.24,0.022079144
0.650831745,-2.01016E-20,3511.254819,1241590.73,0.022078396
0.650949539,-2.94698E-23,3516.277264,1243345.399,0.022078136
0.650949539,-2.94698E-23,3516.277264,1243345.399,0.022078136
0.651422278,6.3142E-31,3543.258639,1252800.185,0.022076735
0.651535422,6.06053E-24,3549.923971,1255136.318,0.022076389
0.651535422,6.06053E-24,3549.923971,1255136.318,0.022076389
0.652121304,-1.94335E-42,3594.62744,1270834.908,0.022074063
0.652231821,-1.01586E-24,3603.257518,1273865.732,0.022073614
0.652231821,-1.01586E-24,3603.257518,1273865.732,0.022073614
0.652928221,2.90858E-53,3671.704334,1297935.155,0.022070048
0.653037023,1.44029E-25,3682.587985,1301762.345,0.022069481
0.653037023,1.44029E-25,3682.587985,1301762.345,0.022069481
0.653842225,-1.81317E-65,3781.506857,1336578.266,0.022064323
0.653949812,-1.77188E-26,3794.906825,1341294.277,0.022063625
0.653949812,-1.77188E-26,3794.906825,1341294.277,0.022063625
0.654862601,-6.68191E-58,3931.594313,1389431.48,0.022056493
0.654969277,1.92697E-27,3947.744825,1395118.661,0.02205565
0.654969277,1.92697E-27,3947.744825,1395118.661,0.02205565
0.655906583,-5.23876E-88,4113.28653,1453437.74,0.02204701
0.656013081,-2.04161E-28,4132.266587,1460123.559,0.02204602
0.656013081,-2.04161E-28,4132.266587,1460123.559,0.02204602
0.656964309,1.15739E-98,4325.42161,1528185.014,0.022035936
0.65707071,2.13184E-29,4347.192631,1535855.552,0.0220348
0.65707071,2.13184E-29,4347.192631,1535855.552,0.0220348
0.658038512,-3.9833E-111,4568.823942,1613961.192,0.022023228
0.658144802,-2.18845E-30,4593.323696,1622594.238,0.022021949
0.658144802,-2.18845E-30,4593.323696,1622594.238,0.022021949
0.659132488,1.2877E-124,4844.566532,1711142.157,0.022008831
0.659238649,2.20192E-31,4871.722837,1720712.034,0.022007413
0.659238649,2.20192E-31,4871.722837,1720712.034,0.022007413
0.660250198,0,5154.029858,1820212.598,0.021992671
0.660356211,-2.16384E-32,5183.759852,1830689.919,0.021991119
0.660356211,-2.16384E-32,5183.759852,1830689.919,0.021991119
0.661396525,6.1155E-148,5499.011953,1941804.925,0.021974657
0.661502369,2.0683E-33,5531.220842,1953156.158,0.021972975
0.661502369,2.0683E-33,5531.220842,1953156.158,0.021972975
0.662561402,0,5876.282702,2074779.76,0.021954956
0.662667142,-1.94242E-34,5910.860057,2086965.935,0.021953151
0.662667142,-1.94242E-34,5910.860057,2086965.935,0.021953151
0.663692454,0,6266.030684,2212153.474,0.021934604
0.663798385,1.88351E-35,6302.840903,2225126.815,0.021932682
0.663798385,1.88351E-35,6302.840903,2225126.815,0.021932682
0.663798385,1.88351E-35,6302.840903,2225126.815,0.021932682
0.664797262,1.36722E-46,6667.363062,2353612.094,0.021913647
0.664797262,-4.41059E-62,6667.363062,2353612.094,0.021913647
0.665796139,0,7047.142152,2487477.86,0.021893814
0.667793893,0,7834.474437,2764987.703,0.0218527
0.669364235,0,8489.093565,2995741.569,0.021818514
0.672016468,0,9646.719924,3403877.437,0.021758048
0.675595021,0,11267.04766,3975378.319,0.021673379
0.679173573,0,12890.3225,4548338.645,0.021588494
0.682752125,0,14443.22461,5097056.789,0.021507201
0.686330678,0,15855.75566,5596946.578,0.021433142
0.68990923,0,17064.4662,6025644.827,0.021369629
0.693487783,0,18015.34943,6364015.245,0.0213195
0.697066335,0,18666.26146,6597002.884,0.021284982
0.700644887,0,18988.75837,6714300.959,0.021267604
0.70422344,0,18969.27586,6710801.04,0.021268123
0.707801992,0,18609.61416,6586808.008,0.021286492
0.711380544,0,17926.72678,6348012.056,0.02132187
0.714959097,0,16951.84423,6005221.021,0.021372655
0.718537649,0,15728.991,5573866.752,0.02143656
0.722116201,0,14312.9756,5073308.864,0.021510719
0.725694754,0,12766.94892,4525967.515,0.021591808
0.729273306,0,11159.63708,3956323.777,0.021676202
0.732851858,0,9562.361033,3389831.338,0.021760129
0.736430411,0,8045.959145,2851786.763,0.021839841
0.740008963,0,6677.73002,2366207.096,0.021911781
0.743587515,0,5518.512693,1954763.366,0.021972737
0.747166068,0,4620.019037,1635816.365,0.02201999
0.75,0,4121.350645,1458718.001,0.022046228
0.75,0,4121.350645,1458718.001,0.022046228
0.75,0,4121.350645,1458718.001,0.022046228
0.750887663,0,4015.975965,1421249.724,0.022051779
0.752662989,0,3846.537479,1360952.878,0.022060712
0.754438315,0,3760.517762,1330187.298,0.02206527
0.75710618,0,3789.926647,1340087.484,0.022063803
0.76060309,0,4113.917009,1453950.216,0.022046934
0.7641,0,4748.382796,1677432.187,0.022013825
0.76759691,0,5666.3821,2000931.649,0.021965898
0.77109382,0,6828.637155,2410554.057,0.021905214
0.774590729,0,8185.193984,2888708.217,0.021834378
0.778087639,0,9677.583187,3414864.699,0.021756431
0.781584549,0,11241.38016,3966441.21,0.021674718
0.785081459,0,12809.05017,4519777.616,0.021592746
0.788578369,0,14312.94225,5051157.697,0.021514027
0.792075279,0,15688.28597,5537832.309,0.021441931
0.795572189,0,16876.04524,5958998.698,0.02137954
0.799069098,0,17825.49246,6296692.876,0.021329516
0.8,0,18034.1773,6371130.42,0.021318489
0.8,0,18034.1773,6371130.42,0.021318489
0.8,0,18034.1773,6371130.42,0.021318489
0.800905995,0,18206.59344,6432780.202,0.021309355
0.802717986,0,18510.55553,6541711.935,0.021293217
0.804529977,0,18731.39294,6621369.578,0.021281416
0.807227015,0,18901.06595,6683836.212,0.021272161
0.810763892,0,18831.66445,6662570.837,0.021275311
0.814300768,0,18436.00706,6525700.138,0.021295589
0.817837645,0,17732.18607,6279341.209,0.021332087
0.821374521,0,16751.58098,5934378.49,0.021383194
0.824911398,0,15537.41305,5505979.254,0.021446661
0.828448274,0,14142.82406,5012925.652,0.021519708
0.831985151,0,12628.56757,4476793.088,0.021599137
0.835522027,0,11060.41003,3921010.52,0.021681477
0.839058904,0,9506.34452,3369842.866,0.021763134
0.84259578,0,8033.723134,2847338.638,0.021840544
0.846132657,0,6706.414952,2376287.228,0.021910331
0.849669533,0,5582.096411,1977229.96,0.021969452
0.85320641,0,4709.778537,1667566.933,0.022015329
0.856743286,0,4127.671255,1460798.071,0.022045963
0.860280163,0,3861.477642,1365931.503,0.022060017
0.863817039,0,3923.19962,1387085.739,0.022056883
0.867353916,0,4310.520577,1523304.117,0.022036702
0.870890792,0,5006.809162,1768591.062,0.022000362
0.874427669,0,5981.762366,2112169.991,0.02194946
0.877964545,0,7192.675827,2538952.847,0.021886231
0.881501422,0,8586.296739,3030201.468,0.021813452
0.885038298,0,10101.18214,3564352.037,0.021734317
0.888575175,0,11670.45537,4117966.018,0.021652298
0.892112051,0,13224.82869,4666764.9,0.021570992
0.895648928,0,14695.74339,5186701.956,0.021493963
0.899185804,0,16018.47083,5655022.48,0.021424581
0.90272268,0,17135.02083,6051264.611,0.021365877
0.906259557,0,17996.71646,6358155.844,0.021320411
0.909796433,0,18566.31518,6562365.547,0.021290157
0.91333331,0,18819.58456,6655080.75,0.021276421
0.916870186,0,18746.27173,6632380.947,0.021279784
0.920407063,0,18350.439,6495396.928,0.021300078
0.923943939,0,17650.16926,6250248.419,0.021336397
0.927480816,0,16676.67282,5907765.024,0.021387136
0.931017692,0,15472.85089,5483004.139,0.021450065
0.934554569,0,14091.38955,4994587.94,0.021522425
0.938091445,0,12592.47123,4463888.784,0.021601049
0.941628322,0,11041.19991,3914098.34,0.021682501
0.945165198,0,9504.842305,3369220.243,0.021763226
0.948702075,0,8049.989668,2853028.964,0.021839701
0.952238951,0,6739.746713,2388038.888,0.02190859
0.955775828,0,5631.0532,1994527.197,0.02196689
0.959312704,0,4772.241798,1689652.141,0.022012058
0.962849581,0,4200.931354,1486704.586,0.022042125
0.966386457,0,3942.347255,1394525.563,0.022055781
0.969923334,0,4008.149226,1417115.833,0.022052434
0.97346021,0,4395.830846,1553455.637,0.022032235
0.976997087,0,5088.733947,1797543.874,0.021996073
0.980533963,0,6056.695145,2138656.422,0.021945536
0.98407084,0,7257.311862,2561813.491,0.021882844
0.987607716,0,8637.783081,3048436.309,0.02181075
0.991144593,0,10137.24793,3577164.564,0.021732418
0.994681469,0,11689.51571,4124798.334,0.021651286
0.998218346,0,13226.05674,4667322.203,0.02157091
1,0,13972.64759,4931147.425,0.021531824
1,0,13972.64759,4931147.425,0.021531824
1,0,13972.64759,4931147.425,0.021531824
1.00082886,0,14307.70854,5049623.385,0.021514271
1.002486579,0,14961.64463,5280947.344,0.02148
1.004144299,0,15580.16283,5499922.435,0.021447559
1.006957685,0,16530.73238,5836907.107,0.021397634
1.010774912,0,17582.2606,6210693.796,0.021342257
1.01459214,0,18315.0308,6472547.091,0.021303464
1.018409368,0,18692.51033,6609285.138,0.021283206
1.022226595,0,18696.47008,6614114.973,0.02128249
1.026043823,0,18327.75961,6486960.835,0.021301328
1.029861051,0,17606.09727,6234449.6,0.021338738
1.033678278,0,16568.91761,5869557.118,0.021392797
1.037495506,0,15269.36247,5410935.988,0.021460742
1.041312734,0,13773.53629,4881960.653,0.02153911
1.045129961,0,12157.17162,4309538.968,0.021623915
1.048947189,0,10501.86719,3722750.07,0.021710849
1.052764417,0,8891.070736,3151376.183,0.0217955
1.056581644,0,7405.98402,2624400.68,0.021873572
1.060398872,0,6121.568484,2168546.232,0.021941108
1.0642161,0,5102.828326,1806925.132,0.021994683
1.068033327,0,4401.541835,1557868.849,0.022031581
1.071850555,0,4053.601051,1433995.854,0.022049933
1.075667783,0,4077.101964,1441565.649,0.022048812
1.07948501,0,4471.301117,1580153.428,0.022028279
1.083302238,0,5216.518437,1842664.049,0.021989388
1.087119466,0,6275.020627,2215686.962,0.021934123
1.090936693,0,7592.866178,2680176.003,0.021865308
1.094753921,0,9102.635326,3212420.683,0.021786455
1.098571149,0,10726.91076,3785259.679,0.021701588
1.102388376,0,12382.32306,4369473.79,0.021615036
1.106205604,0,13983.93423,4935285.528,0.02153121
1.110022832,0,15449.70766,5453886.503,0.021454379
1.113840059,0,16704.80688,5898912.332,0.021388448
1.117657287,0,17685.4782,6247787.886,0.021336762
1.121474515,0,18342.30368,6482873.264,0.021301934
1.125291742,0,18642.65564,6592352.172,0.021285714
1.12910897,0,18572.23842,6570818.697,0.021288904
1.132926198,0,18135.66094,6419534.802,0.021311317
1.136743425,0,17356.04005,6146348.198,0.02135179
1.140560653,0,16273.68499,5765277.567,0.021408246
1.144377881,0,14943.95559,5295788.596,0.021477801
1.148195108,0,13434.41914,4761799.094,0.021556912
1.152012336,0,11821.45392,4190464.142,0.021641557
1.155829564,0,10186.46261,3610802.239,0.021727435
1.159646791,0,8611.867708,3052230.53,0.021810188
1.163464019,0,7177.065018,2543081.261,0.02188562
1.167281247,0,5954.512354,2109172.399,0.021949904
1.171098475,0,5006.127629,1772503.021,0.021999783
1.174915702,0,4380.163928,1550138.472,0.022032727
1.17873293,0,4108.716981,1453341.688,0.022047067
1.182550158,0,4206.00106,1486995.627,0.022042081
1.186367385,0,4667.50125,1649347.833,0.022018028
1.190184613,0,5470.07234,1932092.32,0.021976139
1.194001841,0,6573.007853,2320786.84,0.021918553
1.197819068,0,7920.048917,2795586.15,0.02184821
1.201636296,0,9442.245337,3332254.923,0.021768702
1.205453524,0,11061.52524,3903408.694,0.021684084
1.209270751,0,12694.78036,4479918.5,0.021598674
1.213087979,0,14258.23689,5032405.685,0.021516822
1.216905207,0,15671.86062,5532748.295,0.021442696
1.220722434,0,16863.54309,5955519.935,0.021380062
1.224539662,0,17772.83173,6279285.975,0.021332095
1.22835689,0,18354.00082,6487690.195,0.02130122
1.232174117,0,18578.3067,6570276.841,0.021288985
1.235991345,0,18435.32516,6523007.628,0.021295988
1.239808573,0,17933.32644,6348449.68,0.021321848
1.2436258,0,17098.69777,6055627.595,0.02136523
1.247443028,0,15974.47209,5659549.848,0.021423909
1.251260256,0,14618.06121,5180435.788,0.021494891
1.255077483,0,13098.32211,4642683.762,0.02157456
1.258894711,0,11492.10646,4073632.961,0.021658865
1.262711939,0,9880.456957,3502180.936,0.021743527
1.266529166,0,8344.622297,2957325.227,0.021824249
1.270346394,0,6962.065775,2466700.872,0.021896936
1.274163622,0,5802.64275,2055185.791,0.021957903
1.277980849,0,4925.118684,1743643.036,0.022004058
1.281798077,0,4374.191735,1547862.728,0.022033064
1.285615305,0,4178.170447,1477757.429,0.02204345
1.289432532,0,4347.436068,1536852.798,0.022034695
1.29324976,0,4873.789221,1722101.184,0.022007249
1.297066988,0,5730.741458,2024029.832,0.021962518
1.300884215,0,6874.76433,2427218.316,0.021902785
1.304701443,0,8247.454485,2911082.523,0.021831099
1.308518671,0,9778.516555,3450926.098,0.02175112
1.312335898,0,11389.41134,4019205.491,0.021666929
1.316153126,0,12997.47017,4586942.924,0.021582818
1.319970354,0,14520.24275,5125213.21,0.021503072
1.323787581,0,15879.82838,5606626.285,0.021431751
1.327604809,0,17006.94223,6006727.684,0.021372475
1.331422037,0,17844.48817,6305243.97,0.02132825
1.335239264,0,18350.44551,6487109.082,0.021301306
1.339056492,0,18499.92524,6543219.823,0.021292993
1.34287372,0,18286.30586,6470883.626,0.02130371
1.346690947,0,17721.41551,6273938.169,0.021332887
1.350508175,0,16834.78004,5962539.477,0.021379021
1.354325403,0,15672.00317,5552631.871,0.02143975
1.35814263,0,14292.38237,5065128.669,0.021511974
1.361959858,0,12765.89257,4524846.306,0.021592017
1.365777086,0,11169.68936,3959245.96,0.021675812
1.369594313,0,9584.295678,3397045.502,0.021759103
1.373411541,0,8089.643318,2866770.395,0.021837665
1.377228769,0,6761.142895,2395314.847,0.021907512
1.381045996,0,5665.955684,2006584.139,0.021965103
1.384863224,0,4859.636235,1720285.37,0.022007519
1.388680452,0,4383.306001,1550927.25,0.02203261
1.392497679,0,4261.503288,1507079.902,0.022039106
1.396314907,0,4500.832302,1590933.43,0.022026682
1.400132135,0,5089.502565,1798179.534,0.021995978
1.403949362,0,5997.809302,2118224.354,0.021948563
1.40776659,0,7179.556592,2534723.762,0.021886858
1.411583818,0,8574.370776,3026415.299,0.021814012
1.415401045,0,10110.7957,3568204.992,0.021733745
1.419218273,0,11710.00903,4132453.21,0.021650151
1.423035501,0,13289.95513,4690392.625,0.021567492
1.426852728,0,14769.6598,5213603.945,0.021489977
1.430669956,0,16073.47893,5675471.847,0.021421551
1.434487184,0,17135.03826,6052544.849,0.021365687
1.438304412,0,17900.64455,6325728.43,0.021325215
1.442121639,0,18331.98644,6481250.229,0.021302174
1.445938867,0,18407.99251,6511348.905,0.021297715
1.449756095,0,18125.7688,6414653.314,0.02131204
1.453573322,0,17500.593,6196235.151,0.021344399
1.45739055,0,16564.9945,5867335.033,0.021393126
1.461207778,0,15366.99325,5444778.407,0.021455728
1.465025005,0,13967.60617,4950112.73,0.021529013
1.468842233,0,12437.75604,4408510.569,0.021609253
1.472659461,0,10854.73598,3847494.075,0.021692368
1.476476688,0,9298.3939,3295544.361,0.021774141
1.480293916,0,7847.207102,2780664.465,0.021850421
1.484111144,0,6574.419882,2328966.651,0.021917341
1.487928371,0,5544.415034,1963353.709,0.021971508
1.491745599,0,4809.485454,1702359.745,0.022010175
1.495562827,0,4407.16197,1559208.726,0.022031383
1.499380054,0,4358.237253,1541138.965,0.02203406
1.5,0,4384.235253,1550207.841,0.022032716
