ISO-10303-21;
HEADER;
FILE_DESCRIPTION (( 'STEP AP203' ),
    '1' );
FILE_NAME ('Lug1_Default_sldprt.STEP',
    '2021-02-07T12:21:23',
    ( '' ),
    ( '' ),
    'SwSTEP 2.0',
    'SolidWorks 2020',
    '' );
FILE_SCHEMA (( 'CONFIG_CONTROL_DESIGN' ));
ENDSEC;

DATA;
#1 = ADVANCED_FACE ( 'NONE', ( #320 ), #972, .T. ) ;
#2 = VERTEX_POINT ( 'NONE', #6 ) ;
#3 = EDGE_LOOP ( 'NONE', ( #782, #573, #669, #986 ) ) ;
#4 = DIRECTION ( 'NONE',  ( 1.000000000000000000, -0.000000000000000000, -0.000000000000000000 ) ) ;
#5 = DIRECTION ( 'NONE',  ( -0.000000000000000000, -1.000000000000000000, -2.602085213965210642E-16 ) ) ;
#6 = CARTESIAN_POINT ( 'NONE',  ( 0.000000000000000000, -70.00000000000000000, 31.00000000000001421 ) ) ;
#7 = VERTEX_POINT ( 'NONE', #484 ) ;
#8 = FACE_OUTER_BOUND ( 'NONE', #788, .T. ) ;
#9 = DIRECTION ( 'NONE',  ( -0.000000000000000000, -0.000000000000000000, 1.000000000000000000 ) ) ;
#10 = VECTOR ( 'NONE', #519, 1000.000000000000000 ) ;
#11 = AXIS2_PLACEMENT_3D ( 'NONE', #471, #939, #704 ) ;
#12 = EDGE_LOOP ( 'NONE', ( #816, #308, #572, #132, #617 ) ) ;
#13 = EDGE_CURVE ( 'NONE', #151, #819, #324, .T. ) ;
#14 = ORIENTED_EDGE ( 'NONE', *, *, #938, .T. ) ;
#15 = DIRECTION ( 'NONE',  ( 0.000000000000000000, 0.000000000000000000, -1.000000000000000000 ) ) ;
#16 = CARTESIAN_POINT ( 'NONE',  ( 20.00000000000000000, -39.99999999999999289, -32.50000000000004263 ) ) ;
#17 = VERTEX_POINT ( 'NONE', #355 ) ;
#18 = CARTESIAN_POINT ( 'NONE',  ( 20.00000000000000000, -70.00000000000000000, 19.00000000000001066 ) ) ;
#19 = DIRECTION ( 'NONE',  ( 0.000000000000000000, 0.000000000000000000, 1.000000000000000000 ) ) ;
#20 = ADVANCED_FACE ( 'NONE', ( #35 ), #134, .F. ) ;
#21 = VERTEX_POINT ( 'NONE', #530 ) ;
#22 = CARTESIAN_POINT ( 'NONE',  ( 110.0000000000000000, -39.99999999999999289, -32.50000000000004263 ) ) ;
#23 = FACE_BOUND ( 'NONE', #283, .T. ) ;
#24 = AXIS2_PLACEMENT_3D ( 'NONE', #944, #314, #219 ) ;
#25 = AXIS2_PLACEMENT_3D ( 'NONE', #335, #246, #265 ) ;
#26 = VECTOR ( 'NONE', #607, 1000.000000000000000 ) ;
#27 = VERTEX_POINT ( 'NONE', #678 ) ;
#28 = CARTESIAN_POINT ( 'NONE',  ( 0.000000000000000000, 70.00000000000000000, -25.00000000000001776 ) ) ;
#29 = DIRECTION ( 'NONE',  ( -1.000000000000000000, -0.000000000000000000, -0.000000000000000000 ) ) ;
#30 = ORIENTED_EDGE ( 'NONE', *, *, #32, .F. ) ;
#31 = EDGE_CURVE ( 'NONE', #374, #228, #441, .T. ) ;
#32 = EDGE_CURVE ( 'NONE', #717, #374, #478, .T. ) ;
#33 = VERTEX_POINT ( 'NONE', #855 ) ;
#34 = LINE ( 'NONE', #676, #715 ) ;
#35 = FACE_OUTER_BOUND ( 'NONE', #499, .T. ) ;
#36 = ORIENTED_EDGE ( 'NONE', *, *, #447, .F. ) ;
#37 = DIRECTION ( 'NONE',  ( 1.000000000000000000, 0.000000000000000000, 0.000000000000000000 ) ) ;
#38 = FACE_BOUND ( 'NONE', #957, .T. ) ;
#39 = DIRECTION ( 'NONE',  ( 1.000000000000000000, 0.000000000000000000, 0.000000000000000000 ) ) ;
#40 = AXIS2_PLACEMENT_3D ( 'NONE', #787, #62, #726 ) ;
#41 = AXIS2_PLACEMENT_3D ( 'NONE', #82, #585, #486 ) ;
#42 = ORIENTED_EDGE ( 'NONE', *, *, #976, .T. ) ;
#43 = CARTESIAN_POINT ( 'NONE',  ( 0.000000000000000000, -70.00000000000000000, 31.00000000000001421 ) ) ;
#44 = APPROVAL ( #65, 'UNSPECIFIED' ) ;
#45 = CYLINDRICAL_SURFACE ( 'NONE', #864, 6.000000000000001776 ) ;
#46 = EDGE_CURVE ( 'NONE', #479, #694, #613, .T. ) ;
#47 = CARTESIAN_POINT ( 'NONE',  ( 70.00000000000000000, -4.898587196589413026E-15, -45.00000000000000000 ) ) ;
#48 = ORIENTED_EDGE ( 'NONE', *, *, #501, .F. ) ;
#49 = LINE ( 'NONE', #680, #913 ) ;
#50 = FACE_OUTER_BOUND ( 'NONE', #577, .T. ) ;
#51 = DIRECTION ( 'NONE',  ( 0.000000000000000000, 0.000000000000000000, 1.000000000000000000 ) ) ;
#52 = EDGE_CURVE ( 'NONE', #694, #422, #435, .T. ) ;
#53 = ORIENTED_EDGE ( 'NONE', *, *, #932, .T. ) ;
#54 = PERSON_AND_ORGANIZATION_ROLE ( 'design_owner' ) ;
#55 = CARTESIAN_POINT ( 'NONE',  ( 0.000000000000000000, -70.00000000000000000, -30.99999999999996447 ) ) ;
#56 = DIRECTION ( 'NONE',  ( 0.000000000000000000, 1.000000000000000000, 1.982541115402064370E-16 ) ) ;
#57 = ORIENTED_EDGE ( 'NONE', *, *, #839, .T. ) ;
#58 = AXIS2_PLACEMENT_3D ( 'NONE', #114, #907, #39 ) ;
#59 = COORDINATED_UNIVERSAL_TIME_OFFSET ( 2, 0, .AHEAD. ) ;
#60 = AXIS2_PLACEMENT_3D ( 'NONE', #187, #510, #133 ) ;
#61 = FACE_OUTER_BOUND ( 'NONE', #418, .T. ) ;
#62 = DIRECTION ( 'NONE',  ( 0.000000000000000000, -1.734723475976807587E-16, 1.000000000000000000 ) ) ;
#63 = APPROVAL ( #1020, 'UNSPECIFIED' ) ;
#64 = VERTEX_POINT ( 'NONE', #523 ) ;
#65 = APPROVAL_STATUS ( 'not_yet_approved' ) ;
#66 = ADVANCED_FACE ( 'NONE', ( #449, #513, #774, #615, #1011 ), #194, .T. ) ;
#67 = EDGE_CURVE ( 'NONE', #27, #973, #927, .T. ) ;
#68 = FACE_OUTER_BOUND ( 'NONE', #211, .T. ) ;
#69 = LINE ( 'NONE', #558, #629 ) ;
#70 = ORIENTED_EDGE ( 'NONE', *, *, #677, .F. ) ;
#71 = DIRECTION ( 'NONE',  ( -0.000000000000000000, -0.000000000000000000, 1.000000000000000000 ) ) ;
#72 = FACE_OUTER_BOUND ( 'NONE', #555, .T. ) ;
#73 = VERTEX_POINT ( 'NONE', #760 ) ;
#74 = CIRCLE ( 'NONE', #980, 6.000000000000001776 ) ;
#75 = ORIENTED_EDGE ( 'NONE', *, *, #501, .T. ) ;
#76 = PLANE ( 'NONE',  #144 ) ;
#77 = AXIS2_PLACEMENT_3D ( 'NONE', #985, #259, #900 ) ;
#78 = CC_DESIGN_APPROVAL ( #63, ( #96 ) ) ;
#79 = DIRECTION ( 'NONE',  ( 1.000000000000000000, 0.000000000000000000, 0.000000000000000000 ) ) ;
#80 = VERTEX_POINT ( 'NONE', #764 ) ;
#81 = ORIENTED_EDGE ( 'NONE', *, *, #660, .F. ) ;
#82 = CARTESIAN_POINT ( 'NONE',  ( 110.0000000000000000, -40.00000000000000000, 32.50000000000001421 ) ) ;
#83 = DIRECTION ( 'NONE',  ( 0.000000000000000000, -1.000000000000000000, -1.734723475976807341E-16 ) ) ;
#84 = EDGE_CURVE ( 'NONE', #807, #1019, #360, .T. ) ;
#85 = ORIENTED_EDGE ( 'NONE', *, *, #781, .T. ) ;
#86 = ADVANCED_FACE ( 'NONE', ( #838 ), #361, .F. ) ;
#87 = ORIENTED_EDGE ( 'NONE', *, *, #993, .F. ) ;
#88 = FACE_OUTER_BOUND ( 'NONE', #651, .T. ) ;
#89 = DIRECTION ( 'NONE',  ( 1.000000000000000000, -0.000000000000000000, -0.000000000000000000 ) ) ;
#90 = ORIENTED_EDGE ( 'NONE', *, *, #170, .F. ) ;
#91 = ORIENTED_EDGE ( 'NONE', *, *, #624, .T. ) ;
#92 = CARTESIAN_POINT ( 'NONE',  ( 70.00000000000000000, -40.00000000000000000, -45.00000000000000000 ) ) ;
#93 = DIRECTION ( 'NONE',  ( 1.000000000000000000, -0.000000000000000000, -0.000000000000000000 ) ) ;
#94 = AXIS2_PLACEMENT_3D ( 'NONE', #498, #658, #491 ) ;
#95 = VECTOR ( 'NONE', #366, 1000.000000000000000 ) ;
#96 = SECURITY_CLASSIFICATION ( '', '', #946 ) ;
#97 = EDGE_CURVE ( 'NONE', #252, #891, #597, .T. ) ;
#98 = ORIENTED_EDGE ( 'NONE', *, *, #976, .F. ) ;
#99 = LINE ( 'NONE', #419, #278 ) ;
#100 = EDGE_CURVE ( 'NONE', #238, #356, #210, .T. ) ;
#101 = LINE ( 'NONE', #409, #126 ) ;
#102 = ORIENTED_EDGE ( 'NONE', *, *, #526, .T. ) ;
#103 = CARTESIAN_POINT ( 'NONE',  ( 0.000000000000000000, -70.00000000000000000, 19.00000000000001066 ) ) ;
#104 = CARTESIAN_POINT ( 'NONE',  ( 20.00000000000000000, 100.0000000000000000, 45.00000000000000000 ) ) ;
#105 = VERTEX_POINT ( 'NONE', #698 ) ;
#106 = CARTESIAN_POINT ( 'NONE',  ( 110.0000000000000000, -4.898587196589413026E-15, -45.00000000000000000 ) ) ;
#107 = CARTESIAN_POINT ( 'NONE',  ( 20.00000000000000000, -40.00000000000000000, 32.50000000000001421 ) ) ;
#108 = AXIS2_PLACEMENT_3D ( 'NONE', #47, #367, #688 ) ;
#109 = ORIENTED_EDGE ( 'NONE', *, *, #420, .F. ) ;
#110 = LOCAL_TIME ( 14, 21, 23.00000000000000000, #300 ) ;
#111 = ORIENTED_EDGE ( 'NONE', *, *, #526, .F. ) ;
#112 = CARTESIAN_POINT ( 'NONE',  ( 0.000000000000000000, -100.0000000000000000, -45.00000000000000000 ) ) ;
#113 = CARTESIAN_POINT ( 'NONE',  ( 110.0000000000000000, -39.99999999999999289, -17.50000000000005329 ) ) ;
#114 = CARTESIAN_POINT ( 'NONE',  ( 70.00000000000000000, 0.000000000000000000, 17.50000000000001421 ) ) ;
#115 = ORIENTED_EDGE ( 'NONE', *, *, #744, .F. ) ;
#116 = CYLINDRICAL_SURFACE ( 'NONE', #616, 17.50000000000001421 ) ;
#117 = CARTESIAN_POINT ( 'NONE',  ( 87.50000000000002842, 0.000000000000000000, 32.50000000000001421 ) ) ;
#118 = DIRECTION ( 'NONE',  ( 0.000000000000000000, 0.000000000000000000, -1.000000000000000000 ) ) ;
#119 = EDGE_CURVE ( 'NONE', #295, #532, #372, .T. ) ;
#120 = EDGE_LOOP ( 'NONE', ( #217, #761 ) ) ;
#121 = FACE_OUTER_BOUND ( 'NONE', #929, .T. ) ;
#122 = EDGE_CURVE ( 'NONE', #532, #962, #282, .T. ) ;
#123 = CARTESIAN_POINT ( 'NONE',  ( 110.0000000000000000, -39.99999999999999289, -17.50000000000005329 ) ) ;
#124 = DIRECTION ( 'NONE',  ( -0.000000000000000000, -1.000000000000000000, -0.000000000000000000 ) ) ;
#125 = AXIS2_PLACEMENT_3D ( 'NONE', #231, #468, #791 ) ;
#126 = VECTOR ( 'NONE', #9, 1000.000000000000000 ) ;
#127 = CIRCLE ( 'NONE', #159, 17.50000000000000711 ) ;
#128 = ORIENTED_EDGE ( 'NONE', *, *, #923, .F. ) ;
#129 = ADVANCED_FACE ( 'NONE', ( #595 ), #770, .T. ) ;
#130 = CARTESIAN_POINT ( 'NONE',  ( 20.00000000000000000, 0.000000000000000000, 0.000000000000000000 ) ) ;
#131 = DIRECTION ( 'NONE',  ( 1.000000000000000000, -0.000000000000000000, -0.000000000000000000 ) ) ;
#132 = ORIENTED_EDGE ( 'NONE', *, *, #660, .T. ) ;
#133 = DIRECTION ( 'NONE',  ( 0.000000000000000000, 1.000000000000000000, 2.602085213965211135E-16 ) ) ;
#134 = PLANE ( 'NONE',  #799 ) ;
#135 = ORIENTED_EDGE ( 'NONE', *, *, #470, .F. ) ;
#136 = APPROVAL_DATE_TIME ( #543, #44 ) ;
#137 = ORIENTED_EDGE ( 'NONE', *, *, #437, .T. ) ;
#138 = DIRECTION ( 'NONE',  ( 0.000000000000000000, 1.000000000000000000, 0.000000000000000000 ) ) ;
#139 = CARTESIAN_POINT ( 'NONE',  ( 0.000000000000000000, 70.00000000000000000, -31.00000000000002132 ) ) ;
#140 = ADVANCED_FACE ( 'NONE', ( #693 ), #291, .F. ) ;
#141 = EDGE_CURVE ( 'NONE', #1019, #807, #646, .T. ) ;
#142 = ORIENTED_EDGE ( 'NONE', *, *, #249, .F. ) ;
#143 = AXIS2_PLACEMENT_3D ( 'NONE', #604, #851, #56 ) ;
#144 = AXIS2_PLACEMENT_3D ( 'NONE', #711, #872, #153 ) ;
#145 = DIRECTION ( 'NONE',  ( 0.000000000000000000, -1.734723475976807587E-16, 1.000000000000000000 ) ) ;
#146 = APPROVAL_PERSON_ORGANIZATION ( #871, #748, #552 ) ;
#147 = CYLINDRICAL_SURFACE ( 'NONE', #125, 17.50000000000001421 ) ;
#148 = ORIENTED_EDGE ( 'NONE', *, *, #982, .T. ) ;
#149 = LINE ( 'NONE', #794, #1033 ) ;
#150 = CARTESIAN_POINT ( 'NONE',  ( 70.00000000000000000, 40.00000000000000000, -45.00000000000000000 ) ) ;
#151 = VERTEX_POINT ( 'NONE', #139 ) ;
#152 = DATE_AND_TIME ( #461, #753 ) ;
#153 = DIRECTION ( 'NONE',  ( 0.000000000000000000, -0.000000000000000000, 1.000000000000000000 ) ) ;
#154 = EDGE_CURVE ( 'NONE', #412, #741, #344, .T. ) ;
#155 = DIRECTION ( 'NONE',  ( 0.000000000000000000, -0.000000000000000000, -1.000000000000000000 ) ) ;
#156 = ORIENTED_EDGE ( 'NONE', *, *, #248, .T. ) ;
#157 = ORIENTED_EDGE ( 'NONE', *, *, #548, .T. ) ;
#158 = PLANE ( 'NONE',  #223 ) ;
#159 = AXIS2_PLACEMENT_3D ( 'NONE', #627, #145, #383 ) ;
#160 = LINE ( 'NONE', #541, #239 ) ;
#161 = DIRECTION ( 'NONE',  ( 1.000000000000000000, 0.000000000000000000, 0.000000000000000000 ) ) ;
#162 = ORIENTED_EDGE ( 'NONE', *, *, #677, .T. ) ;
#163 = CARTESIAN_POINT ( 'NONE',  ( 0.000000000000000000, 70.00000000000000000, 18.99999999999999645 ) ) ;
#164 = LINE ( 'NONE', #104, #909 ) ;
#165 = ORIENTED_EDGE ( 'NONE', *, *, #119, .T. ) ;
#166 = ORIENTED_EDGE ( 'NONE', *, *, #437, .F. ) ;
#167 = CARTESIAN_POINT ( 'NONE',  ( 20.00000000000000000, 70.00000000000000000, -31.00000000000002132 ) ) ;
#168 = CARTESIAN_POINT ( 'NONE',  ( 20.00000000000000000, 70.00000000000000000, -25.00000000000001776 ) ) ;
#169 = EDGE_CURVE ( 'NONE', #2, #80, #930, .T. ) ;
#170 = EDGE_CURVE ( 'NONE', #64, #299, #258, .T. ) ;
#171 = ORIENTED_EDGE ( 'NONE', *, *, #347, .T. ) ;
#172 = ORIENTED_EDGE ( 'NONE', *, *, #122, .F. ) ;
#173 = CARTESIAN_POINT ( 'NONE',  ( 87.50000000000002842, 9.027796614315162806E-31, -17.50000000000004263 ) ) ;
#174 = DIRECTION ( 'NONE',  ( 1.000000000000000000, 0.000000000000000000, -0.000000000000000000 ) ) ;
#175 = VECTOR ( 'NONE', #645, 1000.000000000000000 ) ;
#176 = VECTOR ( 'NONE', #301, 1000.000000000000000 ) ;
#177 = AXIS2_PLACEMENT_3D ( 'NONE', #496, #408, #729 ) ;
#178 = ORIENTED_EDGE ( 'NONE', *, *, #689, .F. ) ;
#179 = PLANE ( 'NONE',  #997 ) ;
#180 = LINE ( 'NONE', #323, #175 ) ;
#181 = ORIENTED_EDGE ( 'NONE', *, *, #738, .T. ) ;
#182 = FACE_OUTER_BOUND ( 'NONE', #402, .T. ) ;
#183 = EDGE_CURVE ( 'NONE', #1003, #775, #221, .T. ) ;
#184 = FACE_BOUND ( 'NONE', #1030, .T. ) ;
#185 = ORIENTED_EDGE ( 'NONE', *, *, #249, .T. ) ;
#186 = CARTESIAN_POINT ( 'NONE',  ( 110.0000000000000000, -40.00000000000000000, 17.50000000000001776 ) ) ;
#187 = CARTESIAN_POINT ( 'NONE',  ( 70.00000000000000000, -4.898587196589413026E-15, -17.50000000000004263 ) ) ;
#188 = VECTOR ( 'NONE', #124, 1000.000000000000000 ) ;
#189 = CARTESIAN_POINT ( 'NONE',  ( 70.00000000000000000, -4.898587196589413026E-15, 17.50000000000001421 ) ) ;
#190 = AXIS2_PLACEMENT_3D ( 'NONE', #671, #285, #371 ) ;
#191 = ORIENTED_EDGE ( 'NONE', *, *, #119, .F. ) ;
#192 = DIRECTION ( 'NONE',  ( 1.000000000000000000, 0.000000000000000000, -0.000000000000000000 ) ) ;
#193 = FACE_OUTER_BOUND ( 'NONE', #432, .T. ) ;
#194 = PLANE ( 'NONE',  #846 ) ;
#195 = EDGE_LOOP ( 'NONE', ( #240, #425, #165, #831, #898 ) ) ;
#196 = DIRECTION ( 'NONE',  ( -0.000000000000000000, -0.000000000000000000, 1.000000000000000000 ) ) ;
#197 = DIRECTION ( 'NONE',  ( 0.000000000000000000, 0.000000000000000000, 1.000000000000000000 ) ) ;
#198 = DIRECTION ( 'NONE',  ( -0.000000000000000000, -0.000000000000000000, -1.000000000000000000 ) ) ;
#199 = ADVANCED_FACE ( 'NONE', ( #72 ), #712, .F. ) ;
#200 = ORIENTED_EDGE ( 'NONE', *, *, #67, .T. ) ;
#201 = DIRECTION ( 'NONE',  ( 1.000000000000000000, -0.000000000000000000, -0.000000000000000000 ) ) ;
#202 = DIRECTION ( 'NONE',  ( 1.000000000000000000, 0.000000000000000000, 0.000000000000000000 ) ) ;
#203 = CARTESIAN_POINT ( 'NONE',  ( 110.0000000000000000, 40.00000000000000000, 17.50000000000001776 ) ) ;
#204 = VECTOR ( 'NONE', #968, 1000.000000000000000 ) ;
#205 = AXIS2_PLACEMENT_3D ( 'NONE', #805, #950, #83 ) ;
#206 = AXIS2_PLACEMENT_3D ( 'NONE', #168, #174, #421 ) ;
#207 = ORIENTED_EDGE ( 'NONE', *, *, #341, .T. ) ;
#208 = MECHANICAL_CONTEXT ( 'NONE', #287, 'mechanical' ) ;
#209 = DIRECTION ( 'NONE',  ( -1.000000000000000000, 0.000000000000000000, 0.000000000000000000 ) ) ;
#210 = LINE ( 'NONE', #684, #815 ) ;
#211 = EDGE_LOOP ( 'NONE', ( #507, #90, #565, #267 ) ) ;
#212 = COORDINATED_UNIVERSAL_TIME_OFFSET ( 2, 0, .AHEAD. ) ;
#213 = EDGE_CURVE ( 'NONE', #299, #64, #74, .T. ) ;
#214 = LINE ( 'NONE', #858, #293 ) ;
#215 = EDGE_CURVE ( 'NONE', #694, #295, #625, .T. ) ;
#216 = DIRECTION ( 'NONE',  ( 0.000000000000000000, 0.000000000000000000, -1.000000000000000000 ) ) ;
#217 = ORIENTED_EDGE ( 'NONE', *, *, #84, .F. ) ;
#218 = DIRECTION ( 'NONE',  ( 1.000000000000000000, 0.000000000000000000, 0.000000000000000000 ) ) ;
#219 = DIRECTION ( 'NONE',  ( 0.000000000000000000, 0.000000000000000000, -1.000000000000000000 ) ) ;
#220 = EDGE_LOOP ( 'NONE', ( #584, #200, #901, #812, #806 ) ) ;
#221 = CIRCLE ( 'NONE', #966, 39.99999999999999289 ) ;
#222 = APPROVAL_DATE_TIME ( #1014, #748 ) ;
#223 = AXIS2_PLACEMENT_3D ( 'NONE', #22, #963, #808 ) ;
#224 = CYLINDRICAL_SURFACE ( 'NONE', #464, 6.000000000000001776 ) ;
#225 = CIRCLE ( 'NONE', #951, 6.000000000000001776 ) ;
#226 = CARTESIAN_POINT ( 'NONE',  ( 70.00000000000000000, -40.00000000000000000, -32.50000000000004263 ) ) ;
#227 = EDGE_CURVE ( 'NONE', #410, #652, #160, .T. ) ;
#228 = VERTEX_POINT ( 'NONE', #859 ) ;
#229 = APPROVAL_STATUS ( 'not_yet_approved' ) ;
#230 = CARTESIAN_POINT ( 'NONE',  ( 70.00000000000000000, 0.000000000000000000, -45.00000000000000000 ) ) ;
#231 = CARTESIAN_POINT ( 'NONE',  ( 70.00000000000000000, 0.000000000000000000, -45.00000000000000000 ) ) ;
#232 = ORIENTED_EDGE ( 'NONE', *, *, #470, .T. ) ;
#233 = EDGE_CURVE ( 'NONE', #568, #431, #448, .T. ) ;
#234 = ORIENTED_EDGE ( 'NONE', *, *, #436, .T. ) ;
#235 = CYLINDRICAL_SURFACE ( 'NONE', #614, 17.50000000000001421 ) ;
#236 = PERSON ( 'UNSPECIFIED', 'UNSPECIFIED', 'UNSPECIFIED', ('UNSPECIFIED'), ('UNSPECIFIED'), ('UNSPECIFIED') ) ;
#237 = DIRECTION ( 'NONE',  ( 1.000000000000000000, 0.000000000000000000, 0.000000000000000000 ) ) ;
#238 = VERTEX_POINT ( 'NONE', #483 ) ;
#239 = VECTOR ( 'NONE', #477, 1000.000000000000000 ) ;
#240 = ORIENTED_EDGE ( 'NONE', *, *, #183, .T. ) ;
#241 = FACE_OUTER_BOUND ( 'NONE', #364, .T. ) ;
#242 = AXIS2_PLACEMENT_3D ( 'NONE', #1004, #138, #955 ) ;
#243 = CARTESIAN_POINT ( 'NONE',  ( 70.00000000000000000, 0.000000000000000000, 32.50000000000001421 ) ) ;
#244 = ORIENTED_EDGE ( 'NONE', *, *, #583, .F. ) ;
#245 = VERTEX_POINT ( 'NONE', #463 ) ;
#246 = DIRECTION ( 'NONE',  ( 0.000000000000000000, 0.000000000000000000, 1.000000000000000000 ) ) ;
#247 = DIRECTION ( 'NONE',  ( 0.000000000000000000, 0.000000000000000000, -1.000000000000000000 ) ) ;
#248 = EDGE_CURVE ( 'NONE', #272, #485, #863, .T. ) ;
#249 = EDGE_CURVE ( 'NONE', #245, #252, #705, .T. ) ;
#250 = EDGE_CURVE ( 'NONE', #389, #245, #785, .T. ) ;
#251 = ORIENTED_EDGE ( 'NONE', *, *, #767, .T. ) ;
#252 = VERTEX_POINT ( 'NONE', #384 ) ;
#253 = CYLINDRICAL_SURFACE ( 'NONE', #817, 6.000000000000001776 ) ;
#254 = CYLINDRICAL_SURFACE ( 'NONE', #582, 6.000000000000001776 ) ;
#255 = EDGE_CURVE ( 'NONE', #431, #568, #801, .T. ) ;
#256 = ORIENTED_EDGE ( 'NONE', *, *, #233, .T. ) ;
#257 = CARTESIAN_POINT ( 'NONE',  ( 110.0000000000000000, -4.898587196589413026E-15, 32.50000000000001421 ) ) ;
#258 = CIRCLE ( 'NONE', #948, 6.000000000000001776 ) ;
#259 = DIRECTION ( 'NONE',  ( 1.000000000000000000, 0.000000000000000000, -0.000000000000000000 ) ) ;
#260 = VECTOR ( 'NONE', #4, 1000.000000000000000 ) ;
#261 = AXIS2_PLACEMENT_3D ( 'NONE', #390, #458, #376 ) ;
#262 = AXIS2_PLACEMENT_3D ( 'NONE', #482, #327, #813 ) ;
#263 = ADVANCED_FACE ( 'NONE', ( #865 ), #147, .F. ) ;
#264 = ORIENTED_EDGE ( 'NONE', *, *, #714, .T. ) ;
#265 = DIRECTION ( 'NONE',  ( 1.000000000000000000, 0.000000000000000000, 0.000000000000000000 ) ) ;
#266 = DIRECTION ( 'NONE',  ( -0.000000000000000000, -0.000000000000000000, 1.000000000000000000 ) ) ;
#267 = ORIENTED_EDGE ( 'NONE', *, *, #255, .T. ) ;
#268 = DIRECTION ( 'NONE',  ( 0.000000000000000000, 0.000000000000000000, -1.000000000000000000 ) ) ;
#269 = CARTESIAN_POINT ( 'NONE',  ( 70.00000000000000000, -4.898587196589413026E-15, 32.50000000000001421 ) ) ;
#270 = EDGE_CURVE ( 'NONE', #451, #105, #69, .T. ) ;
#271 = DESIGN_CONTEXT ( 'detailed design', #575, 'design' ) ;
#272 = VERTEX_POINT ( 'NONE', #226 ) ;
#273 = VERTEX_POINT ( 'NONE', #388 ) ;
#274 = LINE ( 'NONE', #692, #330 ) ;
#275 = AXIS2_PLACEMENT_3D ( 'NONE', #620, #400, #563 ) ;
#276 = DIRECTION ( 'NONE',  ( 0.000000000000000000, -0.000000000000000000, -1.000000000000000000 ) ) ;
#277 = CIRCLE ( 'NONE', #769, 39.99999999999999289 ) ;
#278 = VECTOR ( 'NONE', #196, 1000.000000000000000 ) ;
#279 = EDGE_LOOP ( 'NONE', ( #156, #560, #706, #111 ) ) ;
#280 = LINE ( 'NONE', #370, #26 ) ;
#281 = DIRECTION ( 'NONE',  ( 1.000000000000000000, -0.000000000000000000, -0.000000000000000000 ) ) ;
#282 = LINE ( 'NONE', #922, #188 ) ;
#283 = EDGE_LOOP ( 'NONE', ( #244, #438, #172, #977 ) ) ;
#284 = DIRECTION ( 'NONE',  ( 1.000000000000000000, 0.000000000000000000, -0.000000000000000000 ) ) ;
#285 = DIRECTION ( 'NONE',  ( 0.000000000000000000, 2.602085213965211135E-16, -1.000000000000000000 ) ) ;
#286 = CARTESIAN_POINT ( 'NONE',  ( 110.0000000000000000, 40.00000000000000000, 32.50000000000001421 ) ) ;
#287 = APPLICATION_CONTEXT ( 'configuration controlled 3d designs of mechanical parts and assemblies' ) ;
#288 = ORIENTED_EDGE ( 'NONE', *, *, #810, .T. ) ;
#289 = DIRECTION ( 'NONE',  ( 1.000000000000000000, 0.000000000000000000, -0.000000000000000000 ) ) ;
#290 = PLANE ( 'NONE',  #586 ) ;
#291 = PLANE ( 'NONE',  #1032 ) ;
#292 = CIRCLE ( 'NONE', #878, 39.99999999999999289 ) ;
#293 = VECTOR ( 'NONE', #798, 1000.000000000000000 ) ;
#294 = APPROVAL_PERSON_ORGANIZATION ( #1029, #44, #937 ) ;
#295 = VERTEX_POINT ( 'NONE', #554 ) ;
#296 = PERSON_AND_ORGANIZATION ( #236, #880 ) ;
#297 = LINE ( 'NONE', #312, #981 ) ;
#298 = CARTESIAN_POINT ( 'NONE',  ( 20.00000000000000000, -70.00000000000000000, -24.99999999999996447 ) ) ;
#299 = VERTEX_POINT ( 'NONE', #472 ) ;
#300 = COORDINATED_UNIVERSAL_TIME_OFFSET ( 2, 0, .AHEAD. ) ;
#301 = DIRECTION ( 'NONE',  ( 1.000000000000000000, -0.000000000000000000, -0.000000000000000000 ) ) ;
#302 = DIRECTION ( 'NONE',  ( -0.000000000000000000, -0.000000000000000000, 1.000000000000000000 ) ) ;
#303 = ORIENTED_EDGE ( 'NONE', *, *, #270, .T. ) ;
#304 = PERSON_AND_ORGANIZATION ( #236, #880 ) ;
#305 = CARTESIAN_POINT ( 'NONE',  ( 70.00000000000000000, 0.000000000000000000, -45.00000000000000000 ) ) ;
#306 = EDGE_CURVE ( 'NONE', #299, #568, #506, .T. ) ;
#307 = DIRECTION ( 'NONE',  ( 1.000000000000000000, 0.000000000000000000, 0.000000000000000000 ) ) ;
#308 = ORIENTED_EDGE ( 'NONE', *, *, #624, .F. ) ;
#309 = CIRCLE ( 'NONE', #325, 17.50000000000001421 ) ;
#310 = DIRECTION ( 'NONE',  ( 0.000000000000000000, 0.000000000000000000, 1.000000000000000000 ) ) ;
#311 = AXIS2_PLACEMENT_3D ( 'NONE', #230, #708, #218 ) ;
#312 = CARTESIAN_POINT ( 'NONE',  ( 110.0000000000000000, -39.99999999999999289, -32.50000000000004263 ) ) ;
#313 = CIRCLE ( 'NONE', #512, 6.000000000000001776 ) ;
#314 = DIRECTION ( 'NONE',  ( 1.000000000000000000, 0.000000000000000000, 0.000000000000000000 ) ) ;
#315 = EDGE_CURVE ( 'NONE', #422, #532, #180, .T. ) ;
#316 = ORIENTED_EDGE ( 'NONE', *, *, #547, .T. ) ;
#317 = ORIENTED_EDGE ( 'NONE', *, *, #315, .T. ) ;
#318 = LINE ( 'NONE', #553, #176 ) ;
#319 = CARTESIAN_POINT ( 'NONE',  ( 110.0000000000000000, 40.00000000000000711, -32.50000000000002842 ) ) ;
#320 = FACE_OUTER_BOUND ( 'NONE', #888, .T. ) ;
#321 = ORIENTED_EDGE ( 'NONE', *, *, #169, .T. ) ;
#322 = DIRECTION ( 'NONE',  ( 0.000000000000000000, 0.000000000000000000, -1.000000000000000000 ) ) ;
#323 = CARTESIAN_POINT ( 'NONE',  ( 20.00000000000000000, 40.00000000000000000, 32.50000000000001421 ) ) ;
#324 = LINE ( 'NONE', #647, #204 ) ;
#325 = AXIS2_PLACEMENT_3D ( 'NONE', #243, #571, #821 ) ;
#326 = EDGE_LOOP ( 'NONE', ( #178, #251, #14, #115 ) ) ;
#327 = DIRECTION ( 'NONE',  ( 1.000000000000000000, -0.000000000000000000, -0.000000000000000000 ) ) ;
#328 = ADVANCED_FACE ( 'NONE', ( #428 ), #827, .T. ) ;
#329 = EDGE_CURVE ( 'NONE', #973, #238, #965, .T. ) ;
#330 = VECTOR ( 'NONE', #906, 1000.000000000000000 ) ;
#331 = AXIS2_PLACEMENT_3D ( 'NONE', #28, #201, #601 ) ;
#332 = CARTESIAN_POINT ( 'NONE',  ( 0.000000000000000000, -70.00000000000000000, -18.99999999999996092 ) ) ;
#333 = EDGE_LOOP ( 'NONE', ( #1035, #638 ) ) ;
#334 = EDGE_LOOP ( 'NONE', ( #674, #663 ) ) ;
#335 = CARTESIAN_POINT ( 'NONE',  ( 70.00000000000000000, 0.000000000000000000, 32.50000000000001421 ) ) ;
#336 = DIRECTION ( 'NONE',  ( -1.000000000000000000, -0.000000000000000000, -0.000000000000000000 ) ) ;
#337 = ORIENTED_EDGE ( 'NONE', *, *, #756, .T. ) ;
#338 = DIRECTION ( 'NONE',  ( 0.000000000000000000, 0.000000000000000000, -1.000000000000000000 ) ) ;
#339 = CARTESIAN_POINT ( 'NONE',  ( 0.000000000000000000, 100.0000000000000000, 45.00000000000000000 ) ) ;
#340 = PRODUCT_RELATED_PRODUCT_CATEGORY ( 'detail', '', ( #536 ) ) ;
#341 = EDGE_CURVE ( 'NONE', #228, #524, #309, .T. ) ;
#342 = EDGE_LOOP ( 'NONE', ( #860, #85, #887, #171 ) ) ;
#343 = DIRECTION ( 'NONE',  ( 1.000000000000000000, -0.000000000000000000, -0.000000000000000000 ) ) ;
#344 = CIRCLE ( 'NONE', #275, 6.000000000000001776 ) ;
#345 = FACE_BOUND ( 'NONE', #120, .T. ) ;
#346 = VECTOR ( 'NONE', #598, 1000.000000000000000 ) ;
#347 = EDGE_CURVE ( 'NONE', #962, #17, #814, .T. ) ;
#348 = ORIENTED_EDGE ( 'NONE', *, *, #915, .F. ) ;
#349 = CARTESIAN_POINT ( 'NONE',  ( 20.00000000000000000, -40.00000000000000000, 32.50000000000001421 ) ) ;
#350 = CARTESIAN_POINT ( 'NONE',  ( 20.00000000000000000, -100.0000000000000000, 45.00000000000000000 ) ) ;
#351 = ORIENTED_EDGE ( 'NONE', *, *, #738, .F. ) ;
#352 = ORIENTED_EDGE ( 'NONE', *, *, #932, .F. ) ;
#353 = CYLINDRICAL_SURFACE ( 'NONE', #331, 6.000000000000001776 ) ;
#354 = DIRECTION ( 'NONE',  ( 1.000000000000000000, 0.000000000000000000, 0.000000000000000000 ) ) ;
#355 = CARTESIAN_POINT ( 'NONE',  ( 20.00000000000000000, -40.00000000000000000, 17.50000000000001776 ) ) ;
#356 = VERTEX_POINT ( 'NONE', #16 ) ;
#357 = CARTESIAN_POINT ( 'NONE',  ( 0.000000000000000000, 70.00000000000000000, -25.00000000000001776 ) ) ;
#358 = EDGE_CURVE ( 'NONE', #652, #792, #416, .T. ) ;
#359 = FACE_OUTER_BOUND ( 'NONE', #220, .T. ) ;
#360 = CIRCLE ( 'NONE', #564, 6.000000000000001776 ) ;
#361 = CYLINDRICAL_SURFACE ( 'NONE', #427, 6.000000000000001776 ) ;
#362 = CIRCLE ( 'NONE', #177, 17.50000000000001421 ) ;
#363 = AXIS2_PLACEMENT_3D ( 'NONE', #670, #268, #525 ) ;
#364 = EDGE_LOOP ( 'NONE', ( #352, #87, #288, #924 ) ) ;
#365 = CARTESIAN_POINT ( 'NONE',  ( 20.00000000000000000, -70.00000000000000000, 31.00000000000001421 ) ) ;
#366 = DIRECTION ( 'NONE',  ( -1.000000000000000000, -0.000000000000000000, -0.000000000000000000 ) ) ;
#367 = DIRECTION ( 'NONE',  ( -0.000000000000000000, -0.000000000000000000, 1.000000000000000000 ) ) ;
#368 = EDGE_CURVE ( 'NONE', #410, #751, #164, .T. ) ;
#369 = ORIENTED_EDGE ( 'NONE', *, *, #227, .T. ) ;
#370 = CARTESIAN_POINT ( 'NONE',  ( 20.00000000000000000, -100.0000000000000000, 45.00000000000000000 ) ) ;
#371 = DIRECTION ( 'NONE',  ( 0.000000000000000000, 1.000000000000000000, 1.982541115402064370E-16 ) ) ;
#372 = LINE ( 'NONE', #1018, #731 ) ;
#373 = ADVANCED_FACE ( 'NONE', ( #487 ), #254, .F. ) ;
#374 = VERTEX_POINT ( 'NONE', #590 ) ;
#375 = CALENDAR_DATE ( 2021, 7, 2 ) ;
#376 = DIRECTION ( 'NONE',  ( 0.000000000000000000, 0.000000000000000000, -1.000000000000000000 ) ) ;
#377 = CARTESIAN_POINT ( 'NONE',  ( 0.000000000000000000, -70.00000000000000000, -24.99999999999996447 ) ) ;
#378 = CIRCLE ( 'NONE', #206, 6.000000000000001776 ) ;
#379 = CIRCLE ( 'NONE', #261, 6.000000000000001776 ) ;
#380 = AXIS2_PLACEMENT_3D ( 'NONE', #186, #832, #289 ) ;
#381 = ORIENTED_EDGE ( 'NONE', *, *, #32, .T. ) ;
#382 = CALENDAR_DATE ( 2021, 7, 2 ) ;
#383 = DIRECTION ( 'NONE',  ( 0.000000000000000000, -1.000000000000000000, 0.000000000000000000 ) ) ;
#384 = CARTESIAN_POINT ( 'NONE',  ( 52.50000000000000000, 2.143131898507870615E-15, -17.50000000000004263 ) ) ;
#385 = EDGE_LOOP ( 'NONE', ( #142, #516, #588, #958 ) ) ;
#386 = PERSON_AND_ORGANIZATION_ROLE ( 'design_supplier' ) ;
#387 = CARTESIAN_POINT ( 'NONE',  ( 0.000000000000000000, -70.00000000000000000, -24.99999999999996447 ) ) ;
#388 = CARTESIAN_POINT ( 'NONE',  ( 110.0000000000000142, -4.898587196589413026E-15, -17.50000000000004263 ) ) ;
#389 = VERTEX_POINT ( 'NONE', #730 ) ;
#390 = CARTESIAN_POINT ( 'NONE',  ( 0.000000000000000000, 70.00000000000000000, 24.99999999999999645 ) ) ;
#391 = EDGE_CURVE ( 'NONE', #717, #524, #101, .T. ) ;
#392 = CARTESIAN_POINT ( 'NONE',  ( 0.000000000000000000, -70.00000000000000000, 25.00000000000001066 ) ) ;
#393 = EDGE_CURVE ( 'NONE', #751, #792, #740, .T. ) ;
#394 = AXIS2_PLACEMENT_3D ( 'NONE', #956, #873, #635 ) ;
#395 = ORIENTED_EDGE ( 'NONE', *, *, #917, .T. ) ;
#396 = AXIS2_PLACEMENT_3D ( 'NONE', #123, #608, #446 ) ;
#397 = PERSON_AND_ORGANIZATION ( #236, #880 ) ;
#398 = ORIENTED_EDGE ( 'NONE', *, *, #897, .T. ) ;
#399 = CARTESIAN_POINT ( 'NONE',  ( 0.000000000000000000, 70.00000000000000000, 31.00000000000000000 ) ) ;
#400 = DIRECTION ( 'NONE',  ( 1.000000000000000000, 0.000000000000000000, 0.000000000000000000 ) ) ;
#401 = ORIENTED_EDGE ( 'NONE', *, *, #215, .F. ) ;
#402 = EDGE_LOOP ( 'NONE', ( #911, #1009, #166, #395, #803 ) ) ;
#403 = FACE_OUTER_BOUND ( 'NONE', #195, .T. ) ;
#404 = CARTESIAN_POINT ( 'NONE',  ( 20.00000000000000000, 100.0000000000000000, 45.00000000000000000 ) ) ;
#405 = EDGE_CURVE ( 'NONE', #27, #273, #292, .T. ) ;
#406 = ORIENTED_EDGE ( 'NONE', *, *, #839, .F. ) ;
#407 = ORIENTED_EDGE ( 'NONE', *, *, #393, .F. ) ;
#408 = DIRECTION ( 'NONE',  ( 0.000000000000000000, 0.000000000000000000, 1.000000000000000000 ) ) ;
#409 = CARTESIAN_POINT ( 'NONE',  ( 87.50000000000002842, 0.000000000000000000, -45.00000000000000000 ) ) ;
#410 = VERTEX_POINT ( 'NONE', #971 ) ;
#411 = VECTOR ( 'NONE', #609, 1000.000000000000000 ) ;
#412 = VERTEX_POINT ( 'NONE', #975 ) ;
#413 = DIRECTION ( 'NONE',  ( 1.000000000000000000, -0.000000000000000000, -0.000000000000000000 ) ) ;
#414 = AXIS2_PLACEMENT_3D ( 'NONE', #1021, #1038, #959 ) ;
#415 = AXIS2_PLACEMENT_3D ( 'NONE', #539, #310, #776 ) ;
#416 = LINE ( 'NONE', #339, #895 ) ;
#417 = CC_DESIGN_PERSON_AND_ORGANIZATION_ASSIGNMENT ( #397, #618, ( #700 ) ) ;
#418 = EDGE_LOOP ( 'NONE', ( #953, #727, #207, #845 ) ) ;
#419 = CARTESIAN_POINT ( 'NONE',  ( 70.00000000000000000, 40.00000000000000000, -45.00000000000000000 ) ) ;
#420 = EDGE_CURVE ( 'NONE', #356, #755, #576, .T. ) ;
#421 = DIRECTION ( 'NONE',  ( 0.000000000000000000, 0.000000000000000000, 1.000000000000000000 ) ) ;
#422 = VERTEX_POINT ( 'NONE', #894 ) ;
#423 = LINE ( 'NONE', #644, #1015 ) ;
#424 = DIRECTION ( 'NONE',  ( 1.000000000000000000, 0.000000000000000000, 0.000000000000000000 ) ) ;
#425 = ORIENTED_EDGE ( 'NONE', *, *, #515, .T. ) ;
#426 = CARTESIAN_POINT ( 'NONE',  ( 20.00000000000000000, -100.0000000000000000, 45.00000000000000000 ) ) ;
#427 = AXIS2_PLACEMENT_3D ( 'NONE', #377, #131, #118 ) ;
#428 = FACE_OUTER_BOUND ( 'NONE', #882, .T. ) ;
#429 = CIRCLE ( 'NONE', #25, 17.50000000000001421 ) ;
#430 = CC_DESIGN_APPROVAL ( #44, ( #531 ) ) ;
#431 = VERTEX_POINT ( 'NONE', #979 ) ;
#432 = EDGE_LOOP ( 'NONE', ( #303, #724, #406, #856 ) ) ;
#433 = DIRECTION ( 'NONE',  ( -0.000000000000000000, -1.000000000000000000, -0.000000000000000000 ) ) ;
#434 = CARTESIAN_POINT ( 'NONE',  ( 20.00000000000000000, 70.00000000000000000, 24.99999999999999645 ) ) ;
#435 = LINE ( 'NONE', #203, #411 ) ;
#436 = EDGE_CURVE ( 'NONE', #819, #7, #378, .T. ) ;
#437 = EDGE_CURVE ( 'NONE', #21, #479, #529, .T. ) ;
#438 = ORIENTED_EDGE ( 'NONE', *, *, #347, .F. ) ;
#439 = DIRECTION ( 'NONE',  ( 1.000000000000000000, 0.000000000000000000, 0.000000000000000000 ) ) ;
#440 = CARTESIAN_POINT ( 'NONE',  ( 20.00000000000000000, -100.0000000000000000, 45.00000000000000000 ) ) ;
#441 = LINE ( 'NONE', #537, #445 ) ;
#442 = MANIFOLD_SOLID_BREP ( 'Cut-Extrude3', #908 ) ;
#443 = ORIENTED_EDGE ( 'NONE', *, *, #810, .F. ) ;
#444 = FACE_BOUND ( 'NONE', #679, .T. ) ;
#445 = VECTOR ( 'NONE', #834, 1000.000000000000000 ) ;
#446 = DIRECTION ( 'NONE',  ( 0.000000000000000000, 1.000000000000000000, 2.602085213965211135E-16 ) ) ;
#447 = EDGE_CURVE ( 'NONE', #7, #819, #630, .T. ) ;
#448 = CIRCLE ( 'NONE', #494, 6.000000000000001776 ) ;
#449 = FACE_BOUND ( 'NONE', #825, .T. ) ;
#450 = VECTOR ( 'NONE', #522, 1000.000000000000000 ) ;
#451 = VERTEX_POINT ( 'NONE', #502 ) ;
#452 =( LENGTH_UNIT ( ) NAMED_UNIT ( * ) SI_UNIT ( .MILLI., .METRE. ) );
#453 = ADVANCED_FACE ( 'NONE', ( #23, #345, #903, #184, #1001, #50, #527 ), #290, .F. ) ;
#454 = DIRECTION ( 'NONE',  ( 0.000000000000000000, 0.000000000000000000, -1.000000000000000000 ) ) ;
#455 = EDGE_CURVE ( 'NONE', #1003, #962, #594, .T. ) ;
#456 = DIRECTION ( 'NONE',  ( 0.000000000000000000, -1.000000000000000000, 0.000000000000000000 ) ) ;
#457 = ORIENTED_EDGE ( 'NONE', *, *, #341, .F. ) ;
#458 = DIRECTION ( 'NONE',  ( 1.000000000000000000, 0.000000000000000000, 0.000000000000000000 ) ) ;
#459 = DIRECTION ( 'NONE',  ( -1.000000000000000000, 0.000000000000000000, 0.000000000000000000 ) ) ;
#460 = VERTEX_POINT ( 'NONE', #350 ) ;
#461 = CALENDAR_DATE ( 2021, 7, 2 ) ;
#462 = LINE ( 'NONE', #943, #497 ) ;
#463 = CARTESIAN_POINT ( 'NONE',  ( 52.50000000000000000, 2.143131898507869826E-15, -32.50000000000003553 ) ) ;
#464 = AXIS2_PLACEMENT_3D ( 'NONE', #387, #619, #790 ) ;
#465 = VERTEX_POINT ( 'NONE', #988 ) ;
#466 =( NAMED_UNIT ( * ) SI_UNIT ( $, .STERADIAN. ) SOLID_ANGLE_UNIT ( ) );
#467 = CARTESIAN_POINT ( 'NONE',  ( 20.00000000000000000, -100.0000000000000000, -45.00000000000000000 ) ) ;
#468 = DIRECTION ( 'NONE',  ( -0.000000000000000000, -0.000000000000000000, 1.000000000000000000 ) ) ;
#469 = EDGE_LOOP ( 'NONE', ( #841, #181, #473, #1028 ) ) ;
#470 = EDGE_CURVE ( 'NONE', #891, #252, #750, .T. ) ;
#471 = CARTESIAN_POINT ( 'NONE',  ( 0.000000000000000000, 70.00000000000000000, -25.00000000000001776 ) ) ;
#472 = CARTESIAN_POINT ( 'NONE',  ( 0.000000000000000000, -70.00000000000000000, -18.99999999999996092 ) ) ;
#473 = ORIENTED_EDGE ( 'NONE', *, *, #447, .T. ) ;
#474 = DATE_TIME_ROLE ( 'classification_date' ) ;
#475 = ORIENTED_EDGE ( 'NONE', *, *, #169, .F. ) ;
#476 = DIRECTION ( 'NONE',  ( -1.000000000000000000, -0.000000000000000000, -0.000000000000000000 ) ) ;
#477 = DIRECTION ( 'NONE',  ( -1.000000000000000000, -0.000000000000000000, -0.000000000000000000 ) ) ;
#478 = CIRCLE ( 'NONE', #58, 17.50000000000001421 ) ;
#479 = VERTEX_POINT ( 'NONE', #843 ) ;
#480 = CIRCLE ( 'NONE', #567, 6.000000000000001776 ) ;
#481 = ORIENTED_EDGE ( 'NONE', *, *, #515, .F. ) ;
#482 = CARTESIAN_POINT ( 'NONE',  ( 0.000000000000000000, -70.00000000000000000, 25.00000000000001066 ) ) ;
#483 = CARTESIAN_POINT ( 'NONE',  ( 20.00000000000000000, -39.99999999999999289, -17.50000000000005329 ) ) ;
#484 = CARTESIAN_POINT ( 'NONE',  ( 20.00000000000000000, 70.00000000000000000, -19.00000000000001776 ) ) ;
#485 = VERTEX_POINT ( 'NONE', #535 ) ;
#486 = DIRECTION ( 'NONE',  ( -1.000000000000000000, 0.000000000000000000, -0.000000000000000000 ) ) ;
#487 = FACE_OUTER_BOUND ( 'NONE', #732, .T. ) ;
#488 = VERTEX_POINT ( 'NONE', #833 ) ;
#489 = ORIENTED_EDGE ( 'NONE', *, *, #1026, .T. ) ;
#490 = CYLINDRICAL_SURFACE ( 'NONE', #262, 6.000000000000001776 ) ;
#491 = DIRECTION ( 'NONE',  ( 1.000000000000000000, 0.000000000000000000, 0.000000000000000000 ) ) ;
#492 = EDGE_CURVE ( 'NONE', #757, #488, #949, .T. ) ;
#493 = ORIENTED_EDGE ( 'NONE', *, *, #52, .T. ) ;
#494 = AXIS2_PLACEMENT_3D ( 'NONE', #298, #79, #1034 ) ;
#495 = ORIENTED_EDGE ( 'NONE', *, *, #31, .F. ) ;
#496 = CARTESIAN_POINT ( 'NONE',  ( 70.00000000000000000, 0.000000000000000000, 17.50000000000001421 ) ) ;
#497 = VECTOR ( 'NONE', #720, 1000.000000000000000 ) ;
#498 = CARTESIAN_POINT ( 'NONE',  ( 70.00000000000000000, -4.898587196589413026E-15, -45.00000000000000000 ) ) ;
#499 = EDGE_LOOP ( 'NONE', ( #401, #493, #317, #191 ) ) ;
#500 = CARTESIAN_POINT ( 'NONE',  ( 0.000000000000000000, 100.0000000000000000, 45.00000000000000000 ) ) ;
#501 = EDGE_CURVE ( 'NONE', #479, #775, #773, .T. ) ;
#502 = CARTESIAN_POINT ( 'NONE',  ( 0.000000000000000000, -100.0000000000000000, 45.00000000000000000 ) ) ;
#503 = ADVANCED_BREP_SHAPE_REPRESENTATION ( 'Lug1_Default_sldprt', ( #442, #415 ), #850 ) ;
#504 = EDGE_LOOP ( 'NONE', ( #656, #551 ) ) ;
#505 = DIRECTION ( 'NONE',  ( 0.000000000000000000, 1.000000000000000000, 0.000000000000000000 ) ) ;
#506 = LINE ( 'NONE', #332, #749 ) ;
#507 = ORIENTED_EDGE ( 'NONE', *, *, #306, .F. ) ;
#508 = LINE ( 'NONE', #106, #550 ) ;
#509 = AXIS2_PLACEMENT_3D ( 'NONE', #319, #640, #800 ) ;
#510 = DIRECTION ( 'NONE',  ( 0.000000000000000000, 2.602085213965211135E-16, -1.000000000000000000 ) ) ;
#511 = VECTOR ( 'NONE', #29, 1000.000000000000000 ) ;
#512 = AXIS2_PLACEMENT_3D ( 'NONE', #357, #284, #905 ) ;
#513 = FACE_BOUND ( 'NONE', #333, .T. ) ;
#514 = ADVANCED_FACE ( 'NONE', ( #926 ), #45, .F. ) ;
#515 = EDGE_CURVE ( 'NONE', #775, #295, #277, .T. ) ;
#516 = ORIENTED_EDGE ( 'NONE', *, *, #250, .F. ) ;
#517 = DIRECTION ( 'NONE',  ( -1.000000000000000000, -0.000000000000000000, -0.000000000000000000 ) ) ;
#518 = DIRECTION ( 'NONE',  ( -0.000000000000000000, 1.000000000000000000, 0.000000000000000000 ) ) ;
#519 = DIRECTION ( 'NONE',  ( -1.000000000000000000, -0.000000000000000000, -0.000000000000000000 ) ) ;
#520 = EDGE_LOOP ( 'NONE', ( #48, #685, #989, #481 ) ) ;
#521 = FACE_OUTER_BOUND ( 'NONE', #385, .T. ) ;
#522 = DIRECTION ( 'NONE',  ( -1.000000000000000000, -0.000000000000000000, -0.000000000000000000 ) ) ;
#523 = CARTESIAN_POINT ( 'NONE',  ( 0.000000000000000000, -70.00000000000000000, -30.99999999999996447 ) ) ;
#524 = VERTEX_POINT ( 'NONE', #117 ) ;
#525 = DIRECTION ( 'NONE',  ( -1.000000000000000000, 0.000000000000000000, -0.000000000000000000 ) ) ;
#526 = EDGE_CURVE ( 'NONE', #272, #33, #274, .T. ) ;
#527 = FACE_BOUND ( 'NONE', #870, .T. ) ;
#528 = AXIS2_PLACEMENT_3D ( 'NONE', #392, #721, #1039 ) ;
#529 = CIRCLE ( 'NONE', #697, 39.99999999999999289 ) ;
#530 = CARTESIAN_POINT ( 'NONE',  ( 70.00000000000000000, -40.00000000000000000, 17.50000000000001421 ) ) ;
#531 = PRODUCT_DEFINITION_FORMATION_WITH_SPECIFIED_SOURCE ( 'ANY', '', #536, .NOT_KNOWN. ) ;
#532 = VERTEX_POINT ( 'NONE', #921 ) ;
#533 = COORDINATED_UNIVERSAL_TIME_OFFSET ( 2, 0, .AHEAD. ) ;
#534 = EDGE_CURVE ( 'NONE', #273, #33, #830, .T. ) ;
#535 = CARTESIAN_POINT ( 'NONE',  ( 110.0000000000000142, -4.898587196589413026E-15, -32.50000000000003553 ) ) ;
#536 = PRODUCT ( 'Lug1_Default_sldprt', 'Lug1_Default_sldprt', '', ( #208 ) ) ;
#537 = CARTESIAN_POINT ( 'NONE',  ( 52.50000000000000000, 2.143131898507869037E-15, -45.00000000000000000 ) ) ;
#538 = ORIENTED_EDGE ( 'NONE', *, *, #233, .F. ) ;
#539 = CARTESIAN_POINT ( 'NONE',  ( 0.000000000000000000, 0.000000000000000000, 0.000000000000000000 ) ) ;
#540 = FACE_OUTER_BOUND ( 'NONE', #520, .T. ) ;
#541 = CARTESIAN_POINT ( 'NONE',  ( 20.00000000000000000, 100.0000000000000000, -45.00000000000000000 ) ) ;
#542 = EDGE_LOOP ( 'NONE', ( #961, #673 ) ) ;
#543 = DATE_AND_TIME ( #702, #631 ) ;
#544 = DIRECTION ( 'NONE',  ( -0.000000000000000000, -0.000000000000000000, 1.000000000000000000 ) ) ;
#545 = DIRECTION ( 'NONE',  ( 0.000000000000000000, -1.000000000000000000, 0.000000000000000000 ) ) ;
#546 = AXIS2_PLACEMENT_3D ( 'NONE', #189, #935, #1005 ) ;
#547 = EDGE_CURVE ( 'NONE', #33, #238, #1010, .T. ) ;
#548 = EDGE_CURVE ( 'NONE', #867, #755, #759, .T. ) ;
#549 = AXIS2_PLACEMENT_3D ( 'NONE', #984, #742, #322 ) ;
#550 = VECTOR ( 'NONE', #772, 1000.000000000000000 ) ;
#551 = ORIENTED_EDGE ( 'NONE', *, *, #938, .F. ) ;
#552 = APPROVAL_ROLE ( '' ) ;
#553 = CARTESIAN_POINT ( 'NONE',  ( 0.000000000000000000, 70.00000000000000000, -19.00000000000001776 ) ) ;
#554 = CARTESIAN_POINT ( 'NONE',  ( 70.00000000000000000, 40.00000000000000000, 32.50000000000001421 ) ) ;
#555 = EDGE_LOOP ( 'NONE', ( #348, #157, #42, #983 ) ) ;
#556 = EDGE_CURVE ( 'NONE', #465, #105, #34, .T. ) ;
#557 = CARTESIAN_POINT ( 'NONE',  ( 87.50000000000002842, 0.000000000000000000, 17.50000000000001421 ) ) ;
#558 = CARTESIAN_POINT ( 'NONE',  ( 0.000000000000000000, -100.0000000000000000, 45.00000000000000000 ) ) ;
#559 = ORIENTED_EDGE ( 'NONE', *, *, #154, .F. ) ;
#560 = ORIENTED_EDGE ( 'NONE', *, *, #918, .T. ) ;
#561 = CARTESIAN_POINT ( 'NONE',  ( 70.00000000000000000, -4.898587196589413026E-15, -45.00000000000000000 ) ) ;
#562 = ADVANCED_FACE ( 'NONE', ( #193 ), #612, .F. ) ;
#563 = DIRECTION ( 'NONE',  ( 0.000000000000000000, 0.000000000000000000, -1.000000000000000000 ) ) ;
#564 = AXIS2_PLACEMENT_3D ( 'NONE', #844, #916, #51 ) ;
#565 = ORIENTED_EDGE ( 'NONE', *, *, #605, .T. ) ;
#566 = AXIS2_PLACEMENT_3D ( 'NONE', #561, #1031, #695 ) ;
#567 = AXIS2_PLACEMENT_3D ( 'NONE', #758, #37, #991 ) ;
#568 = VERTEX_POINT ( 'NONE', #934 ) ;
#569 = CARTESIAN_POINT ( 'NONE',  ( 70.00000000000000000, 40.00000000000000000, -32.50000000000002842 ) ) ;
#570 = ADVANCED_FACE ( 'NONE', ( #38, #359 ), #682, .F. ) ;
#571 = DIRECTION ( 'NONE',  ( 0.000000000000000000, 0.000000000000000000, 1.000000000000000000 ) ) ;
#572 = ORIENTED_EDGE ( 'NONE', *, *, #248, .F. ) ;
#573 = ORIENTED_EDGE ( 'NONE', *, *, #270, .F. ) ;
#574 = LINE ( 'NONE', #970, #260 ) ;
#575 = APPLICATION_CONTEXT ( 'configuration controlled 3d designs of mechanical parts and assemblies' ) ;
#576 = LINE ( 'NONE', #580, #829 ) ;
#577 = EDGE_LOOP ( 'NONE', ( #162, #892, #578, #57 ) ) ;
#578 = ORIENTED_EDGE ( 'NONE', *, *, #923, .T. ) ;
#579 = CARTESIAN_POINT ( 'NONE',  ( 0.000000000000000000, -70.00000000000000000, 25.00000000000001066 ) ) ;
#580 = CARTESIAN_POINT ( 'NONE',  ( 20.00000000000000000, -39.99999999999999289, -32.50000000000004263 ) ) ;
#581 = ADVANCED_FACE ( 'NONE', ( #768 ), #687, .F. ) ;
#582 = AXIS2_PLACEMENT_3D ( 'NONE', #809, #89, #747 ) ;
#583 = EDGE_CURVE ( 'NONE', #17, #422, #462, .T. ) ;
#584 = ORIENTED_EDGE ( 'NONE', *, *, #405, .F. ) ;
#585 = DIRECTION ( 'NONE',  ( 0.000000000000000000, 0.000000000000000000, -1.000000000000000000 ) ) ;
#586 = AXIS2_PLACEMENT_3D ( 'NONE', #130, #209, #197 ) ;
#587 = DIRECTION ( 'NONE',  ( 0.000000000000000000, 1.000000000000000000, 1.734723475976807094E-16 ) ) ;
#588 = ORIENTED_EDGE ( 'NONE', *, *, #655, .T. ) ;
#589 = DIRECTION ( 'NONE',  ( 1.000000000000000000, 0.000000000000000000, -0.000000000000000000 ) ) ;
#590 = CARTESIAN_POINT ( 'NONE',  ( 52.50000000000000000, 2.143131898507869037E-15, 17.50000000000001421 ) ) ;
#591 = EDGE_LOOP ( 'NONE', ( #632, #457 ) ) ;
#592 = LINE ( 'NONE', #43, #866 ) ;
#593 = ADVANCED_FACE ( 'NONE', ( #777 ), #1016, .F. ) ;
#594 = LINE ( 'NONE', #602, #511 ) ;
#595 = FACE_OUTER_BOUND ( 'NONE', #279, .T. ) ;
#596 = EDGE_LOOP ( 'NONE', ( #81, #102, #316, #998 ) ) ;
#597 = CIRCLE ( 'NONE', #143, 17.50000000000000711 ) ;
#598 = DIRECTION ( 'NONE',  ( -0.000000000000000000, -0.000000000000000000, 1.000000000000000000 ) ) ;
#599 = DIRECTION ( 'NONE',  ( 0.000000000000000000, 0.000000000000000000, 1.000000000000000000 ) ) ;
#600 = ORIENTED_EDGE ( 'NONE', *, *, #605, .F. ) ;
#601 = DIRECTION ( 'NONE',  ( 0.000000000000000000, 0.000000000000000000, -1.000000000000000000 ) ) ;
#602 = CARTESIAN_POINT ( 'NONE',  ( 110.0000000000000000, -40.00000000000000000, 32.50000000000001421 ) ) ;
#603 = CC_DESIGN_PERSON_AND_ORGANIZATION_ASSIGNMENT ( #304, #386, ( #531 ) ) ;
#604 = CARTESIAN_POINT ( 'NONE',  ( 70.00000000000000000, 0.000000000000000000, -17.50000000000004263 ) ) ;
#605 = EDGE_CURVE ( 'NONE', #64, #431, #1025, .T. ) ;
#606 = ORIENTED_EDGE ( 'NONE', *, *, #992, .F. ) ;
#607 = DIRECTION ( 'NONE',  ( -1.000000000000000000, -0.000000000000000000, -0.000000000000000000 ) ) ;
#608 = DIRECTION ( 'NONE',  ( 0.000000000000000000, 2.602085213965211135E-16, -1.000000000000000000 ) ) ;
#609 = DIRECTION ( 'NONE',  ( -1.000000000000000000, -0.000000000000000000, -0.000000000000000000 ) ) ;
#610 = ORIENTED_EDGE ( 'NONE', *, *, #393, .T. ) ;
#611 = PERSON_AND_ORGANIZATION_ROLE ( 'creator' ) ;
#612 = PLANE ( 'NONE',  #910 ) ;
#613 = CIRCLE ( 'NONE', #546, 39.99999999999999289 ) ;
#614 = AXIS2_PLACEMENT_3D ( 'NONE', #305, #544, #784 ) ;
#615 = FACE_BOUND ( 'NONE', #334, .T. ) ;
#616 = AXIS2_PLACEMENT_3D ( 'NONE', #920, #686, #439 ) ;
#617 = ORIENTED_EDGE ( 'NONE', *, *, #420, .T. ) ;
#618 = PERSON_AND_ORGANIZATION_ROLE ( 'creator' ) ;
#619 = DIRECTION ( 'NONE',  ( 1.000000000000000000, -0.000000000000000000, -0.000000000000000000 ) ) ;
#620 = CARTESIAN_POINT ( 'NONE',  ( 0.000000000000000000, 70.00000000000000000, 24.99999999999999645 ) ) ;
#621 = ORIENTED_EDGE ( 'NONE', *, *, #744, .T. ) ;
#622 = CALENDAR_DATE ( 2021, 7, 2 ) ;
#623 = CYLINDRICAL_SURFACE ( 'NONE', #566, 39.99999999999999289 ) ;
#624 = EDGE_CURVE ( 'NONE', #485, #867, #933, .T. ) ;
#625 = LINE ( 'NONE', #150, #696 ) ;
#626 = EDGE_LOOP ( 'NONE', ( #489, #822, #70, #802 ) ) ;
#627 = CARTESIAN_POINT ( 'NONE',  ( 70.00000000000000000, 0.000000000000000000, -32.50000000000003553 ) ) ;
#628 = CARTESIAN_POINT ( 'NONE',  ( 52.50000000000000000, 2.143131898507869037E-15, -45.00000000000000000 ) ) ;
#629 = VECTOR ( 'NONE', #1027, 1000.000000000000000 ) ;
#630 = CIRCLE ( 'NONE', #77, 6.000000000000001776 ) ;
#631 = LOCAL_TIME ( 14, 21, 23.00000000000000000, #212 ) ;
#632 = ORIENTED_EDGE ( 'NONE', *, *, #756, .F. ) ;
#633 = APPLICATION_PROTOCOL_DEFINITION ( 'international standard', 'config_control_design', 1994, #575 ) ;
#634 = LINE ( 'NONE', #467, #716 ) ;
#635 = DIRECTION ( 'NONE',  ( 0.000000000000000000, 0.000000000000000000, 1.000000000000000000 ) ) ;
#636 = ADVANCED_FACE ( 'NONE', ( #61 ), #235, .F. ) ;
#637 = EDGE_LOOP ( 'NONE', ( #643, #796, #256, #600 ) ) ;
#638 = ORIENTED_EDGE ( 'NONE', *, *, #213, .T. ) ;
#639 = DIRECTION ( 'NONE',  ( 1.000000000000000000, -0.000000000000000000, -0.000000000000000000 ) ) ;
#640 = DIRECTION ( 'NONE',  ( 0.000000000000000000, -1.000000000000000000, 0.000000000000000000 ) ) ;
#641 = CARTESIAN_POINT ( 'NONE',  ( 70.00000000000000000, -4.898587196589413026E-15, -45.00000000000000000 ) ) ;
#642 = ADVANCED_FACE ( 'NONE', ( #540 ), #623, .T. ) ;
#643 = ORIENTED_EDGE ( 'NONE', *, *, #213, .F. ) ;
#644 = CARTESIAN_POINT ( 'NONE',  ( 20.00000000000000000, -100.0000000000000000, 45.00000000000000000 ) ) ;
#645 = DIRECTION ( 'NONE',  ( -0.000000000000000000, -0.000000000000000000, 1.000000000000000000 ) ) ;
#646 = CIRCLE ( 'NONE', #394, 6.000000000000001776 ) ;
#647 = CARTESIAN_POINT ( 'NONE',  ( 0.000000000000000000, 70.00000000000000000, -31.00000000000002132 ) ) ;
#648 = ORIENTED_EDGE ( 'NONE', *, *, #183, .F. ) ;
#649 = CARTESIAN_POINT ( 'NONE',  ( 20.00000000000000000, 40.00000000000000711, -32.50000000000002842 ) ) ;
#650 = DIRECTION ( 'NONE',  ( 0.000000000000000000, 2.602085213965211135E-16, -1.000000000000000000 ) ) ;
#651 = EDGE_LOOP ( 'NONE', ( #690, #559, #621, #723 ) ) ;
#652 = VERTEX_POINT ( 'NONE', #862 ) ;
#653 = FACE_OUTER_BOUND ( 'NONE', #626, .T. ) ;
#654 = DIRECTION ( 'NONE',  ( 0.000000000000000000, 1.000000000000000000, 2.602085213965211135E-16 ) ) ;
#655 = EDGE_CURVE ( 'NONE', #389, #891, #149, .T. ) ;
#656 = ORIENTED_EDGE ( 'NONE', *, *, #492, .F. ) ;
#657 = FACE_BOUND ( 'NONE', #591, .T. ) ;
#658 = DIRECTION ( 'NONE',  ( -0.000000000000000000, -0.000000000000000000, 1.000000000000000000 ) ) ;
#659 = AXIS2_PLACEMENT_3D ( 'NONE', #641, #881, #161 ) ;
#660 = EDGE_CURVE ( 'NONE', #272, #356, #297, .T. ) ;
#661 = VECTOR ( 'NONE', #302, 1000.000000000000000 ) ;
#662 = VECTOR ( 'NONE', #899, 1000.000000000000000 ) ;
#663 = ORIENTED_EDGE ( 'NONE', *, *, #689, .T. ) ;
#664 = DIRECTION ( 'NONE',  ( 0.000000000000000000, 0.000000000000000000, 1.000000000000000000 ) ) ;
#665 = VECTOR ( 'NONE', #505, 1000.000000000000000 ) ;
#666 = CARTESIAN_POINT ( 'NONE',  ( 70.00000000000000000, -4.898587196589413026E-15, -17.50000000000004263 ) ) ;
#667 = CC_DESIGN_PERSON_AND_ORGANIZATION_ASSIGNMENT ( #1036, #783, ( #96 ) ) ;
#668 = EDGE_CURVE ( 'NONE', #245, #389, #127, .T. ) ;
#669 = ORIENTED_EDGE ( 'NONE', *, *, #722, .F. ) ;
#670 = CARTESIAN_POINT ( 'NONE',  ( 20.00000000000000000, -100.0000000000000000, 45.00000000000000000 ) ) ;
#671 = CARTESIAN_POINT ( 'NONE',  ( 70.00000000000000000, 0.000000000000000000, -17.50000000000004263 ) ) ;
#672 = UNCERTAINTY_MEASURE_WITH_UNIT (LENGTH_MEASURE( 1.000000000000000082E-05 ), #452, 'distance_accuracy_value', 'NONE');
#673 = ORIENTED_EDGE ( 'NONE', *, *, #668, .T. ) ;
#674 = ORIENTED_EDGE ( 'NONE', *, *, #154, .T. ) ;
#675 =( NAMED_UNIT ( * ) PLANE_ANGLE_UNIT ( ) SI_UNIT ( $, .RADIAN. ) );
#676 = CARTESIAN_POINT ( 'NONE',  ( 20.00000000000000000, -100.0000000000000000, -45.00000000000000000 ) ) ;
#677 = EDGE_CURVE ( 'NONE', #465, #410, #634, .T. ) ;
#678 = CARTESIAN_POINT ( 'NONE',  ( 70.00000000000000000, 40.00000000000000000, -17.50000000000003197 ) ) ;
#679 = EDGE_LOOP ( 'NONE', ( #381, #398 ) ) ;
#680 = CARTESIAN_POINT ( 'NONE',  ( 20.00000000000000000, 40.00000000000000711, -32.50000000000002842 ) ) ;
#681 = VECTOR ( 'NONE', #247, 1000.000000000000000 ) ;
#682 = PLANE ( 'NONE',  #396 ) ;
#683 = APPROVAL_PERSON_ORGANIZATION ( #797, #63, #931 ) ;
#684 = CARTESIAN_POINT ( 'NONE',  ( 20.00000000000000000, -39.99999999999999289, -32.50000000000004263 ) ) ;
#685 = ORIENTED_EDGE ( 'NONE', *, *, #46, .T. ) ;
#686 = DIRECTION ( 'NONE',  ( -0.000000000000000000, -0.000000000000000000, 1.000000000000000000 ) ) ;
#687 = PLANE ( 'NONE',  #242 ) ;
#688 = DIRECTION ( 'NONE',  ( 1.000000000000000000, 0.000000000000000000, 0.000000000000000000 ) ) ;
#689 = EDGE_CURVE ( 'NONE', #741, #412, #379, .T. ) ;
#690 = ORIENTED_EDGE ( 'NONE', *, *, #767, .F. ) ;
#691 = PLANE ( 'NONE',  #380 ) ;
#692 = CARTESIAN_POINT ( 'NONE',  ( 70.00000000000000000, -40.00000000000000000, -45.00000000000000000 ) ) ;
#693 = FACE_OUTER_BOUND ( 'NONE', #719, .T. ) ;
#694 = VERTEX_POINT ( 'NONE', #947 ) ;
#695 = DIRECTION ( 'NONE',  ( 1.000000000000000000, 0.000000000000000000, 0.000000000000000000 ) ) ;
#696 = VECTOR ( 'NONE', #940, 1000.000000000000000 ) ;
#697 = AXIS2_PLACEMENT_3D ( 'NONE', #743, #19, #424 ) ;
#698 = CARTESIAN_POINT ( 'NONE',  ( 0.000000000000000000, -100.0000000000000000, -45.00000000000000000 ) ) ;
#699 = LOCAL_TIME ( 14, 21, 23.00000000000000000, #59 ) ;
#700 = PRODUCT_DEFINITION ( 'UNKNOWN', '', #531, #271 ) ;
#701 = EDGE_LOOP ( 'NONE', ( #728, #185, #135, #765 ) ) ;
#702 = CALENDAR_DATE ( 2021, 7, 2 ) ;
#703 = ADVANCED_FACE ( 'NONE', ( #68 ), #224, .F. ) ;
#704 = DIRECTION ( 'NONE',  ( 0.000000000000000000, 0.000000000000000000, 1.000000000000000000 ) ) ;
#705 = LINE ( 'NONE', #628, #661 ) ;
#706 = ORIENTED_EDGE ( 'NONE', *, *, #534, .T. ) ;
#707 = APPROVAL_DATE_TIME ( #942, #63 ) ;
#708 = DIRECTION ( 'NONE',  ( -0.000000000000000000, -0.000000000000000000, 1.000000000000000000 ) ) ;
#709 = DIRECTION ( 'NONE',  ( -0.000000000000000000, 0.000000000000000000, 1.000000000000000000 ) ) ;
#710 = EDGE_LOOP ( 'NONE', ( #264, #148 ) ) ;
#711 = CARTESIAN_POINT ( 'NONE',  ( 110.0000000000000000, -40.00000000000000000, 32.50000000000001421 ) ) ;
#712 = PLANE ( 'NONE',  #509 ) ;
#713 = VECTOR ( 'NONE', #336, 1000.000000000000000 ) ;
#714 = EDGE_CURVE ( 'NONE', #151, #73, #896, .T. ) ;
#715 = VECTOR ( 'NONE', #914, 1000.000000000000000 ) ;
#716 = VECTOR ( 'NONE', #876, 1000.000000000000000 ) ;
#717 = VERTEX_POINT ( 'NONE', #557 ) ;
#718 = PERSON_AND_ORGANIZATION ( #236, #880 ) ;
#719 = EDGE_LOOP ( 'NONE', ( #904, #407, #811, #369 ) ) ;
#720 = DIRECTION ( 'NONE',  ( 0.000000000000000000, 1.000000000000000000, 0.000000000000000000 ) ) ;
#721 = DIRECTION ( 'NONE',  ( 1.000000000000000000, 0.000000000000000000, -0.000000000000000000 ) ) ;
#722 = EDGE_CURVE ( 'NONE', #792, #451, #214, .T. ) ;
#723 = ORIENTED_EDGE ( 'NONE', *, *, #492, .T. ) ;
#724 = ORIENTED_EDGE ( 'NONE', *, *, #556, .F. ) ;
#725 = LINE ( 'NONE', #103, #879 ) ;
#726 = DIRECTION ( 'NONE',  ( 0.000000000000000000, -1.000000000000000000, 0.000000000000000000 ) ) ;
#727 = ORIENTED_EDGE ( 'NONE', *, *, #31, .T. ) ;
#728 = ORIENTED_EDGE ( 'NONE', *, *, #668, .F. ) ;
#729 = DIRECTION ( 'NONE',  ( 1.000000000000000000, 0.000000000000000000, 0.000000000000000000 ) ) ;
#730 = CARTESIAN_POINT ( 'NONE',  ( 87.50000000000002842, 0.000000000000000000, -32.50000000000003553 ) ) ;
#731 = VECTOR ( 'NONE', #1002, 1000.000000000000000 ) ;
#732 = EDGE_LOOP ( 'NONE', ( #351, #945, #936, #234 ) ) ;
#733 = VECTOR ( 'NONE', #889, 1000.000000000000000 ) ;
#734 = CC_DESIGN_PERSON_AND_ORGANIZATION_ASSIGNMENT ( #718, #611, ( #531 ) ) ;
#735 = LOCAL_TIME ( 14, 21, 23.00000000000000000, #533 ) ;
#736 = ORIENTED_EDGE ( 'NONE', *, *, #918, .F. ) ;
#737 = CARTESIAN_POINT ( 'NONE',  ( 20.00000000000000000, 100.0000000000000000, 45.00000000000000000 ) ) ;
#738 = EDGE_CURVE ( 'NONE', #73, #7, #318, .T. ) ;
#739 = ADVANCED_FACE ( 'NONE', ( #868 ), #76, .F. ) ;
#740 = LINE ( 'NONE', #890, #713 ) ;
#741 = VERTEX_POINT ( 'NONE', #399 ) ;
#742 = DIRECTION ( 'NONE',  ( 1.000000000000000000, -0.000000000000000000, -0.000000000000000000 ) ) ;
#743 = CARTESIAN_POINT ( 'NONE',  ( 70.00000000000000000, -4.898587196589413026E-15, 17.50000000000001421 ) ) ;
#744 = EDGE_CURVE ( 'NONE', #412, #757, #883, .T. ) ;
#745 = ORIENTED_EDGE ( 'NONE', *, *, #722, .T. ) ;
#746 = FACE_BOUND ( 'NONE', #542, .T. ) ;
#747 = DIRECTION ( 'NONE',  ( 0.000000000000000000, 0.000000000000000000, -1.000000000000000000 ) ) ;
#748 = APPROVAL ( #229, 'UNSPECIFIED' ) ;
#749 = VECTOR ( 'NONE', #93, 1000.000000000000000 ) ;
#750 = CIRCLE ( 'NONE', #190, 17.50000000000000711 ) ;
#751 = VERTEX_POINT ( 'NONE', #737 ) ;
#752 = CARTESIAN_POINT ( 'NONE',  ( 110.0000000000000000, -40.00000000000000000, 17.50000000000001776 ) ) ;
#753 = LOCAL_TIME ( 14, 21, 23.00000000000000000, #857 ) ;
#754 = CARTESIAN_POINT ( 'NONE',  ( 110.0000000000000000, -4.898587196589413026E-15, -45.00000000000000000 ) ) ;
#755 = VERTEX_POINT ( 'NONE', #649 ) ;
#756 = EDGE_CURVE ( 'NONE', #524, #228, #429, .T. ) ;
#757 = VERTEX_POINT ( 'NONE', #978 ) ;
#758 = CARTESIAN_POINT ( 'NONE',  ( 20.00000000000000000, 70.00000000000000000, 24.99999999999999645 ) ) ;
#759 = LINE ( 'NONE', #849, #95 ) ;
#760 = CARTESIAN_POINT ( 'NONE',  ( 0.000000000000000000, 70.00000000000000000, -19.00000000000001776 ) ) ;
#761 = ORIENTED_EDGE ( 'NONE', *, *, #141, .F. ) ;
#762 = CARTESIAN_POINT ( 'NONE',  ( 0.000000000000000000, -70.00000000000000000, 25.00000000000001066 ) ) ;
#763 = DIRECTION ( 'NONE',  ( 0.000000000000000000, -0.000000000000000000, 1.000000000000000000 ) ) ;
#764 = CARTESIAN_POINT ( 'NONE',  ( 0.000000000000000000, -70.00000000000000000, 19.00000000000001066 ) ) ;
#765 = ORIENTED_EDGE ( 'NONE', *, *, #655, .F. ) ;
#766 = FACE_OUTER_BOUND ( 'NONE', #469, .T. ) ;
#767 = EDGE_CURVE ( 'NONE', #741, #488, #574, .T. ) ;
#768 = FACE_OUTER_BOUND ( 'NONE', #596, .T. ) ;
#769 = AXIS2_PLACEMENT_3D ( 'NONE', #269, #994, #202 ) ;
#770 = CYLINDRICAL_SURFACE ( 'NONE', #108, 39.99999999999999289 ) ;
#771 = ORIENTED_EDGE ( 'NONE', *, *, #993, .T. ) ;
#772 = DIRECTION ( 'NONE',  ( -0.000000000000000000, -0.000000000000000000, 1.000000000000000000 ) ) ;
#773 = LINE ( 'NONE', #754, #346 ) ;
#774 = FACE_BOUND ( 'NONE', #710, .T. ) ;
#775 = VERTEX_POINT ( 'NONE', #257 ) ;
#776 = DIRECTION ( 'NONE',  ( 1.000000000000000000, 0.000000000000000000, 0.000000000000000000 ) ) ;
#777 = FACE_OUTER_BOUND ( 'NONE', #874, .T. ) ;
#778 = CC_DESIGN_PERSON_AND_ORGANIZATION_ASSIGNMENT ( #296, #54, ( #536 ) ) ;
#779 = CARTESIAN_POINT ( 'NONE',  ( 110.0000000000000000, 40.00000000000000711, -17.50000000000003197 ) ) ;
#780 = PRODUCT_DEFINITION_SHAPE ( 'NONE', 'NONE',  #700 ) ;
#781 = EDGE_CURVE ( 'NONE', #21, #1003, #823, .T. ) ;
#782 = ORIENTED_EDGE ( 'NONE', *, *, #1026, .F. ) ;
#783 = PERSON_AND_ORGANIZATION_ROLE ( 'classification_officer' ) ;
#784 = DIRECTION ( 'NONE',  ( 1.000000000000000000, 0.000000000000000000, 0.000000000000000000 ) ) ;
#785 = CIRCLE ( 'NONE', #40, 17.50000000000000711 ) ;
#786 = AXIS2_PLACEMENT_3D ( 'NONE', #434, #354, #454 ) ;
#787 = CARTESIAN_POINT ( 'NONE',  ( 70.00000000000000000, 0.000000000000000000, -32.50000000000003553 ) ) ;
#788 = EDGE_LOOP ( 'NONE', ( #475, #53, #990, #443 ) ) ;
#789 = DATE_TIME_ROLE ( 'creation_date' ) ;
#790 = DIRECTION ( 'NONE',  ( 0.000000000000000000, 0.000000000000000000, -1.000000000000000000 ) ) ;
#791 = DIRECTION ( 'NONE',  ( 1.000000000000000000, 0.000000000000000000, 0.000000000000000000 ) ) ;
#792 = VERTEX_POINT ( 'NONE', #500 ) ;
#793 = CC_DESIGN_DATE_AND_TIME_ASSIGNMENT ( #152, #789, ( #700 ) ) ;
#794 = CARTESIAN_POINT ( 'NONE',  ( 87.50000000000002842, 0.000000000000000000, -45.00000000000000000 ) ) ;
#795 = DIRECTION ( 'NONE',  ( 0.000000000000000000, 0.000000000000000000, -1.000000000000000000 ) ) ;
#796 = ORIENTED_EDGE ( 'NONE', *, *, #306, .T. ) ;
#797 = PERSON_AND_ORGANIZATION ( #236, #880 ) ;
#798 = DIRECTION ( 'NONE',  ( -0.000000000000000000, -1.000000000000000000, -0.000000000000000000 ) ) ;
#799 = AXIS2_PLACEMENT_3D ( 'NONE', #286, #456, #276 ) ;
#800 = DIRECTION ( 'NONE',  ( 0.000000000000000000, -0.000000000000000000, -1.000000000000000000 ) ) ;
#801 = CIRCLE ( 'NONE', #24, 6.000000000000001776 ) ;
#802 = ORIENTED_EDGE ( 'NONE', *, *, #556, .T. ) ;
#803 = ORIENTED_EDGE ( 'NONE', *, *, #583, .T. ) ;
#804 = PLANE ( 'NONE',  #41 ) ;
#805 = CARTESIAN_POINT ( 'NONE',  ( 70.00000000000000000, -4.898587196589413026E-15, -32.50000000000003553 ) ) ;
#806 = ORIENTED_EDGE ( 'NONE', *, *, #534, .F. ) ;
#807 = VERTEX_POINT ( 'NONE', #18 ) ;
#808 = DIRECTION ( 'NONE',  ( 0.000000000000000000, -1.000000000000000000, -1.734723475976807587E-16 ) ) ;
#809 = CARTESIAN_POINT ( 'NONE',  ( 0.000000000000000000, 70.00000000000000000, -25.00000000000001776 ) ) ;
#810 = EDGE_CURVE ( 'NONE', #80, #807, #725, .T. ) ;
#811 = ORIENTED_EDGE ( 'NONE', *, *, #368, .F. ) ;
#812 = ORIENTED_EDGE ( 'NONE', *, *, #547, .F. ) ;
#813 = DIRECTION ( 'NONE',  ( 0.000000000000000000, 0.000000000000000000, -1.000000000000000000 ) ) ;
#814 = LINE ( 'NONE', #107, #681 ) ;
#815 = VECTOR ( 'NONE', #198, 1000.000000000000000 ) ;
#816 = ORIENTED_EDGE ( 'NONE', *, *, #548, .F. ) ;
#817 = AXIS2_PLACEMENT_3D ( 'NONE', #579, #343, #338 ) ;
#818 = CC_DESIGN_SECURITY_CLASSIFICATION ( #96, ( #531 ) ) ;
#819 = VERTEX_POINT ( 'NONE', #167 ) ;
#820 = CYLINDRICAL_SURFACE ( 'NONE', #549, 6.000000000000001776 ) ;
#821 = DIRECTION ( 'NONE',  ( 1.000000000000000000, 0.000000000000000000, 0.000000000000000000 ) ) ;
#822 = ORIENTED_EDGE ( 'NONE', *, *, #227, .F. ) ;
#823 = LINE ( 'NONE', #92, #733 ) ;
#824 = DIRECTION ( 'NONE',  ( -0.000000000000000000, -0.000000000000000000, 1.000000000000000000 ) ) ;
#825 = EDGE_LOOP ( 'NONE', ( #771, #321 ) ) ;
#826 = DIRECTION ( 'NONE',  ( 0.000000000000000000, 0.000000000000000000, 1.000000000000000000 ) ) ;
#827 = CYLINDRICAL_SURFACE ( 'NONE', #94, 39.99999999999999289 ) ;
#828 = ADVANCED_FACE ( 'NONE', ( #657, #403 ), #804, .F. ) ;
#829 = VECTOR ( 'NONE', #587, 1000.000000000000000 ) ;
#830 = CIRCLE ( 'NONE', #60, 39.99999999999999289 ) ;
#831 = ORIENTED_EDGE ( 'NONE', *, *, #122, .T. ) ;
#832 = DIRECTION ( 'NONE',  ( 0.000000000000000000, 0.000000000000000000, 1.000000000000000000 ) ) ;
#833 = CARTESIAN_POINT ( 'NONE',  ( 20.00000000000000000, 70.00000000000000000, 31.00000000000000000 ) ) ;
#834 = DIRECTION ( 'NONE',  ( -0.000000000000000000, -0.000000000000000000, 1.000000000000000000 ) ) ;
#835 = ORIENTED_EDGE ( 'NONE', *, *, #391, .T. ) ;
#836 = LINE ( 'NONE', #752, #967 ) ;
#837 = DIRECTION ( 'NONE',  ( 0.000000000000000000, 0.000000000000000000, -1.000000000000000000 ) ) ;
#838 = FACE_OUTER_BOUND ( 'NONE', #637, .T. ) ;
#839 = EDGE_CURVE ( 'NONE', #460, #465, #423, .T. ) ;
#840 = ADVANCED_FACE ( 'NONE', ( #88 ), #820, .F. ) ;
#841 = ORIENTED_EDGE ( 'NONE', *, *, #982, .F. ) ;
#842 = CARTESIAN_POINT ( 'NONE',  ( 20.00000000000000000, 40.00000000000000711, -17.50000000000003197 ) ) ;
#843 = CARTESIAN_POINT ( 'NONE',  ( 110.0000000000000000, -4.898587196589413026E-15, 17.50000000000001421 ) ) ;
#844 = CARTESIAN_POINT ( 'NONE',  ( 20.00000000000000000, -70.00000000000000000, 25.00000000000001066 ) ) ;
#845 = ORIENTED_EDGE ( 'NONE', *, *, #391, .F. ) ;
#846 = AXIS2_PLACEMENT_3D ( 'NONE', #995, #459, #599 ) ;
#847 = DIRECTION ( 'NONE',  ( 0.000000000000000000, 0.000000000000000000, 1.000000000000000000 ) ) ;
#848 = VECTOR ( 'NONE', #639, 1000.000000000000000 ) ;
#849 = CARTESIAN_POINT ( 'NONE',  ( 110.0000000000000000, 40.00000000000000711, -32.50000000000002842 ) ) ;
#850 =( GEOMETRIC_REPRESENTATION_CONTEXT ( 3 ) GLOBAL_UNCERTAINTY_ASSIGNED_CONTEXT ( ( #672 ) ) GLOBAL_UNIT_ASSIGNED_CONTEXT ( ( #452, #675, #466 ) ) REPRESENTATION_CONTEXT ( 'NONE', 'WORKASPACE' ) );
#851 = DIRECTION ( 'NONE',  ( 0.000000000000000000, 2.602085213965211135E-16, -1.000000000000000000 ) ) ;
#852 = EDGE_LOOP ( 'NONE', ( #941, #538 ) ) ;
#853 = CARTESIAN_POINT ( 'NONE',  ( 0.000000000000000000, 70.00000000000000000, 24.99999999999999645 ) ) ;
#854 = ADVANCED_FACE ( 'NONE', ( #653 ), #179, .F. ) ;
#855 = CARTESIAN_POINT ( 'NONE',  ( 70.00000000000000000, -40.00000000000000000, -17.50000000000005329 ) ) ;
#856 = ORIENTED_EDGE ( 'NONE', *, *, #992, .T. ) ;
#857 = COORDINATED_UNIVERSAL_TIME_OFFSET ( 2, 0, .AHEAD. ) ;
#858 = CARTESIAN_POINT ( 'NONE',  ( 0.000000000000000000, -100.0000000000000000, 45.00000000000000000 ) ) ;
#859 = CARTESIAN_POINT ( 'NONE',  ( 52.50000000000000000, 2.143131898507869037E-15, 32.50000000000001421 ) ) ;
#860 = ORIENTED_EDGE ( 'NONE', *, *, #917, .F. ) ;
#861 = APPLICATION_PROTOCOL_DEFINITION ( 'international standard', 'config_control_design', 1994, #287 ) ;
#862 = CARTESIAN_POINT ( 'NONE',  ( 0.000000000000000000, 100.0000000000000000, -45.00000000000000000 ) ) ;
#863 = CIRCLE ( 'NONE', #205, 39.99999999999999289 ) ;
#864 = AXIS2_PLACEMENT_3D ( 'NONE', #853, #281, #837 ) ;
#865 = FACE_OUTER_BOUND ( 'NONE', #701, .T. ) ;
#866 = VECTOR ( 'NONE', #1008, 1000.000000000000000 ) ;
#867 = VERTEX_POINT ( 'NONE', #569 ) ;
#868 = FACE_OUTER_BOUND ( 'NONE', #342, .T. ) ;
#869 = CARTESIAN_POINT ( 'NONE',  ( 0.000000000000000000, -70.00000000000000000, -24.99999999999996447 ) ) ;
#870 = EDGE_LOOP ( 'NONE', ( #109, #1013, #1037, #98 ) ) ;
#871 = PERSON_AND_ORGANIZATION ( #236, #880 ) ;
#872 = DIRECTION ( 'NONE',  ( -0.000000000000000000, 1.000000000000000000, 0.000000000000000000 ) ) ;
#873 = DIRECTION ( 'NONE',  ( 1.000000000000000000, 0.000000000000000000, -0.000000000000000000 ) ) ;
#874 = EDGE_LOOP ( 'NONE', ( #495, #30, #835, #337 ) ) ;
#875 = ORIENTED_EDGE ( 'NONE', *, *, #781, .F. ) ;
#876 = DIRECTION ( 'NONE',  ( 0.000000000000000000, 1.000000000000000000, 0.000000000000000000 ) ) ;
#877 = CARTESIAN_POINT ( 'NONE',  ( 70.00000000000000000, -4.898587196589413026E-15, 32.50000000000001421 ) ) ;
#878 = AXIS2_PLACEMENT_3D ( 'NONE', #666, #650, #654 ) ;
#879 = VECTOR ( 'NONE', #413, 1000.000000000000000 ) ;
#880 = ORGANIZATION ( 'UNSPECIFIED', 'UNSPECIFIED', '' ) ;
#881 = DIRECTION ( 'NONE',  ( -0.000000000000000000, -0.000000000000000000, 1.000000000000000000 ) ) ;
#882 = EDGE_LOOP ( 'NONE', ( #137, #75, #648, #875 ) ) ;
#883 = LINE ( 'NONE', #163, #662 ) ;
#884 = ADVANCED_FACE ( 'NONE', ( #241 ), #253, .F. ) ;
#885 = CARTESIAN_POINT ( 'NONE',  ( 20.00000000000000000, -39.99999999999999289, -17.50000000000005329 ) ) ;
#886 = ADVANCED_FACE ( 'NONE', ( #746, #893 ), #158, .F. ) ;
#887 = ORIENTED_EDGE ( 'NONE', *, *, #455, .T. ) ;
#888 = EDGE_LOOP ( 'NONE', ( #736, #91, #969, #1023 ) ) ;
#889 = DIRECTION ( 'NONE',  ( -0.000000000000000000, -0.000000000000000000, 1.000000000000000000 ) ) ;
#890 = CARTESIAN_POINT ( 'NONE',  ( 20.00000000000000000, 100.0000000000000000, 45.00000000000000000 ) ) ;
#891 = VERTEX_POINT ( 'NONE', #173 ) ;
#892 = ORIENTED_EDGE ( 'NONE', *, *, #368, .T. ) ;
#893 = FACE_OUTER_BOUND ( 'NONE', #12, .T. ) ;
#894 = CARTESIAN_POINT ( 'NONE',  ( 20.00000000000000000, 40.00000000000000000, 17.50000000000001776 ) ) ;
#895 = VECTOR ( 'NONE', #824, 1000.000000000000000 ) ;
#896 = CIRCLE ( 'NONE', #11, 6.000000000000001776 ) ;
#897 = EDGE_CURVE ( 'NONE', #374, #717, #362, .T. ) ;
#898 = ORIENTED_EDGE ( 'NONE', *, *, #455, .F. ) ;
#899 = DIRECTION ( 'NONE',  ( 1.000000000000000000, -0.000000000000000000, -0.000000000000000000 ) ) ;
#900 = DIRECTION ( 'NONE',  ( 0.000000000000000000, 0.000000000000000000, 1.000000000000000000 ) ) ;
#901 = ORIENTED_EDGE ( 'NONE', *, *, #329, .T. ) ;
#902 = ADVANCED_FACE ( 'NONE', ( #8 ), #490, .F. ) ;
#903 = FACE_BOUND ( 'NONE', #852, .T. ) ;
#904 = ORIENTED_EDGE ( 'NONE', *, *, #358, .T. ) ;
#905 = DIRECTION ( 'NONE',  ( 0.000000000000000000, 0.000000000000000000, 1.000000000000000000 ) ) ;
#906 = DIRECTION ( 'NONE',  ( -0.000000000000000000, -0.000000000000000000, 1.000000000000000000 ) ) ;
#907 = DIRECTION ( 'NONE',  ( 0.000000000000000000, 0.000000000000000000, 1.000000000000000000 ) ) ;
#908 = CLOSED_SHELL ( 'NONE', ( #636, #263, #328, #129, #902, #86, #952, #514, #1012, #828, #886, #570, #20, #199, #453, #854, #140, #1006, #562, #66, #840, #373, #703, #884, #739, #581, #1, #642, #964, #593 ) ) ;
#909 = VECTOR ( 'NONE', #266, 1000.000000000000000 ) ;
#910 = AXIS2_PLACEMENT_3D ( 'NONE', #440, #518, #763 ) ;
#911 = ORIENTED_EDGE ( 'NONE', *, *, #52, .F. ) ;
#912 = CARTESIAN_POINT ( 'NONE',  ( 70.00000000000000000, -40.00000000000000000, 32.50000000000001421 ) ) ;
#913 = VECTOR ( 'NONE', #826, 1000.000000000000000 ) ;
#914 = DIRECTION ( 'NONE',  ( -1.000000000000000000, -0.000000000000000000, -0.000000000000000000 ) ) ;
#915 = EDGE_CURVE ( 'NONE', #867, #27, #99, .T. ) ;
#916 = DIRECTION ( 'NONE',  ( 1.000000000000000000, 0.000000000000000000, -0.000000000000000000 ) ) ;
#917 = EDGE_CURVE ( 'NONE', #21, #17, #836, .T. ) ;
#918 = EDGE_CURVE ( 'NONE', #485, #273, #508, .T. ) ;
#919 = ORIENTED_EDGE ( 'NONE', *, *, #436, .F. ) ;
#920 = CARTESIAN_POINT ( 'NONE',  ( 70.00000000000000000, 0.000000000000000000, -45.00000000000000000 ) ) ;
#921 = CARTESIAN_POINT ( 'NONE',  ( 20.00000000000000000, 40.00000000000000000, 32.50000000000001421 ) ) ;
#922 = CARTESIAN_POINT ( 'NONE',  ( 20.00000000000000000, -40.00000000000000000, 32.50000000000001421 ) ) ;
#923 = EDGE_CURVE ( 'NONE', #751, #460, #999, .T. ) ;
#924 = ORIENTED_EDGE ( 'NONE', *, *, #84, .T. ) ;
#925 = LINE ( 'NONE', #112, #665 ) ;
#926 = FACE_OUTER_BOUND ( 'NONE', #326, .T. ) ;
#927 = LINE ( 'NONE', #779, #10 ) ;
#928 = CC_DESIGN_DATE_AND_TIME_ASSIGNMENT ( #954, #474, ( #96 ) ) ;
#929 = EDGE_LOOP ( 'NONE', ( #745, #606, #128, #610 ) ) ;
#930 = CIRCLE ( 'NONE', #528, 6.000000000000001776 ) ;
#931 = APPROVAL_ROLE ( '' ) ;
#932 = EDGE_CURVE ( 'NONE', #2, #1019, #592, .T. ) ;
#933 = CIRCLE ( 'NONE', #414, 39.99999999999999289 ) ;
#934 = CARTESIAN_POINT ( 'NONE',  ( 20.00000000000000000, -70.00000000000000000, -18.99999999999996092 ) ) ;
#935 = DIRECTION ( 'NONE',  ( 0.000000000000000000, 0.000000000000000000, 1.000000000000000000 ) ) ;
#936 = ORIENTED_EDGE ( 'NONE', *, *, #13, .T. ) ;
#937 = APPROVAL_ROLE ( '' ) ;
#938 = EDGE_CURVE ( 'NONE', #488, #757, #480, .T. ) ;
#939 = DIRECTION ( 'NONE',  ( 1.000000000000000000, 0.000000000000000000, -0.000000000000000000 ) ) ;
#940 = DIRECTION ( 'NONE',  ( -0.000000000000000000, -0.000000000000000000, 1.000000000000000000 ) ) ;
#941 = ORIENTED_EDGE ( 'NONE', *, *, #255, .F. ) ;
#942 = DATE_AND_TIME ( #622, #110 ) ;
#943 = CARTESIAN_POINT ( 'NONE',  ( 20.00000000000000000, -40.00000000000000000, 17.50000000000001776 ) ) ;
#944 = CARTESIAN_POINT ( 'NONE',  ( 20.00000000000000000, -70.00000000000000000, -24.99999999999996447 ) ) ;
#945 = ORIENTED_EDGE ( 'NONE', *, *, #714, .F. ) ;
#946 = SECURITY_CLASSIFICATION_LEVEL ( 'unclassified' ) ;
#947 = CARTESIAN_POINT ( 'NONE',  ( 70.00000000000000000, 40.00000000000000000, 17.50000000000001421 ) ) ;
#948 = AXIS2_PLACEMENT_3D ( 'NONE', #869, #1022, #216 ) ;
#949 = CIRCLE ( 'NONE', #786, 6.000000000000001776 ) ;
#950 = DIRECTION ( 'NONE',  ( 0.000000000000000000, -1.734723475976807587E-16, 1.000000000000000000 ) ) ;
#951 = AXIS2_PLACEMENT_3D ( 'NONE', #762, #192, #847 ) ;
#952 = ADVANCED_FACE ( 'NONE', ( #766 ), #353, .F. ) ;
#953 = ORIENTED_EDGE ( 'NONE', *, *, #897, .F. ) ;
#954 = DATE_AND_TIME ( #382, #699 ) ;
#955 = DIRECTION ( 'NONE',  ( 0.000000000000000000, -0.000000000000000000, 1.000000000000000000 ) ) ;
#956 = CARTESIAN_POINT ( 'NONE',  ( 20.00000000000000000, -70.00000000000000000, 25.00000000000001066 ) ) ;
#957 = EDGE_LOOP ( 'NONE', ( #232, #1007 ) ) ;
#958 = ORIENTED_EDGE ( 'NONE', *, *, #97, .F. ) ;
#959 = DIRECTION ( 'NONE',  ( 0.000000000000000000, -1.000000000000000000, -1.734723475976807341E-16 ) ) ;
#960 = CARTESIAN_POINT ( 'NONE',  ( 0.000000000000000000, -70.00000000000000000, -24.99999999999996447 ) ) ;
#961 = ORIENTED_EDGE ( 'NONE', *, *, #250, .T. ) ;
#962 = VERTEX_POINT ( 'NONE', #349 ) ;
#963 = DIRECTION ( 'NONE',  ( 0.000000000000000000, -1.734723475976807587E-16, 1.000000000000000000 ) ) ;
#964 = ADVANCED_FACE ( 'NONE', ( #521 ), #116, .F. ) ;
#965 = LINE ( 'NONE', #885, #996 ) ;
#966 = AXIS2_PLACEMENT_3D ( 'NONE', #877, #709, #307 ) ;
#967 = VECTOR ( 'NONE', #517, 1000.000000000000000 ) ;
#968 = DIRECTION ( 'NONE',  ( 1.000000000000000000, -0.000000000000000000, -0.000000000000000000 ) ) ;
#969 = ORIENTED_EDGE ( 'NONE', *, *, #915, .T. ) ;
#970 = CARTESIAN_POINT ( 'NONE',  ( 0.000000000000000000, 70.00000000000000000, 31.00000000000000000 ) ) ;
#971 = CARTESIAN_POINT ( 'NONE',  ( 20.00000000000000000, 100.0000000000000000, -45.00000000000000000 ) ) ;
#972 = CYLINDRICAL_SURFACE ( 'NONE', #659, 39.99999999999999289 ) ;
#973 = VERTEX_POINT ( 'NONE', #842 ) ;
#974 = CARTESIAN_POINT ( 'NONE',  ( 20.00000000000000000, -100.0000000000000000, -45.00000000000000000 ) ) ;
#975 = CARTESIAN_POINT ( 'NONE',  ( 0.000000000000000000, 70.00000000000000000, 18.99999999999999645 ) ) ;
#976 = EDGE_CURVE ( 'NONE', #755, #973, #49, .T. ) ;
#977 = ORIENTED_EDGE ( 'NONE', *, *, #315, .F. ) ;
#978 = CARTESIAN_POINT ( 'NONE',  ( 20.00000000000000000, 70.00000000000000000, 18.99999999999999645 ) ) ;
#979 = CARTESIAN_POINT ( 'NONE',  ( 20.00000000000000000, -70.00000000000000000, -30.99999999999996447 ) ) ;
#980 = AXIS2_PLACEMENT_3D ( 'NONE', #960, #237, #795 ) ;
#981 = VECTOR ( 'NONE', #476, 1000.000000000000000 ) ;
#982 = EDGE_CURVE ( 'NONE', #73, #151, #313, .T. ) ;
#983 = ORIENTED_EDGE ( 'NONE', *, *, #67, .F. ) ;
#984 = CARTESIAN_POINT ( 'NONE',  ( 0.000000000000000000, 70.00000000000000000, 24.99999999999999645 ) ) ;
#985 = CARTESIAN_POINT ( 'NONE',  ( 20.00000000000000000, 70.00000000000000000, -25.00000000000001776 ) ) ;
#986 = ORIENTED_EDGE ( 'NONE', *, *, #358, .F. ) ;
#987 = PLANE ( 'NONE',  #363 ) ;
#988 = CARTESIAN_POINT ( 'NONE',  ( 20.00000000000000000, -100.0000000000000000, -45.00000000000000000 ) ) ;
#989 = ORIENTED_EDGE ( 'NONE', *, *, #215, .T. ) ;
#990 = ORIENTED_EDGE ( 'NONE', *, *, #141, .T. ) ;
#991 = DIRECTION ( 'NONE',  ( 0.000000000000000000, 0.000000000000000000, -1.000000000000000000 ) ) ;
#992 = EDGE_CURVE ( 'NONE', #460, #451, #280, .T. ) ;
#993 = EDGE_CURVE ( 'NONE', #80, #2, #225, .T. ) ;
#994 = DIRECTION ( 'NONE',  ( -0.000000000000000000, 0.000000000000000000, 1.000000000000000000 ) ) ;
#995 = CARTESIAN_POINT ( 'NONE',  ( 0.000000000000000000, 0.000000000000000000, 0.000000000000000000 ) ) ;
#996 = VECTOR ( 'NONE', #5, 1000.000000000000000 ) ;
#997 = AXIS2_PLACEMENT_3D ( 'NONE', #974, #664, #589 ) ;
#998 = ORIENTED_EDGE ( 'NONE', *, *, #100, .T. ) ;
#999 = LINE ( 'NONE', #426, #1000 ) ;
#1000 = VECTOR ( 'NONE', #433, 1000.000000000000000 ) ;
#1001 = FACE_BOUND ( 'NONE', #504, .T. ) ;
#1002 = DIRECTION ( 'NONE',  ( -1.000000000000000000, -0.000000000000000000, -0.000000000000000000 ) ) ;
#1003 = VERTEX_POINT ( 'NONE', #912 ) ;
#1004 = CARTESIAN_POINT ( 'NONE',  ( 110.0000000000000000, -39.99999999999999289, -32.50000000000004263 ) ) ;
#1005 = DIRECTION ( 'NONE',  ( 1.000000000000000000, 0.000000000000000000, 0.000000000000000000 ) ) ;
#1006 = ADVANCED_FACE ( 'NONE', ( #121 ), #987, .F. ) ;
#1007 = ORIENTED_EDGE ( 'NONE', *, *, #97, .T. ) ;
#1008 = DIRECTION ( 'NONE',  ( 1.000000000000000000, -0.000000000000000000, -0.000000000000000000 ) ) ;
#1009 = ORIENTED_EDGE ( 'NONE', *, *, #46, .F. ) ;
#1010 = LINE ( 'NONE', #113, #450 ) ;
#1011 = FACE_OUTER_BOUND ( 'NONE', #3, .T. ) ;
#1012 = ADVANCED_FACE ( 'NONE', ( #444, #182 ), #691, .F. ) ;
#1013 = ORIENTED_EDGE ( 'NONE', *, *, #100, .F. ) ;
#1014 = DATE_AND_TIME ( #375, #735 ) ;
#1015 = VECTOR ( 'NONE', #15, 1000.000000000000000 ) ;
#1016 = CYLINDRICAL_SURFACE ( 'NONE', #311, 17.50000000000001421 ) ;
#1017 = CC_DESIGN_APPROVAL ( #748, ( #700 ) ) ;
#1018 = CARTESIAN_POINT ( 'NONE',  ( 110.0000000000000000, 40.00000000000000000, 32.50000000000001421 ) ) ;
#1019 = VERTEX_POINT ( 'NONE', #365 ) ;
#1020 = APPROVAL_STATUS ( 'not_yet_approved' ) ;
#1021 = CARTESIAN_POINT ( 'NONE',  ( 70.00000000000000000, -4.898587196589413026E-15, -32.50000000000003553 ) ) ;
#1022 = DIRECTION ( 'NONE',  ( 1.000000000000000000, 0.000000000000000000, 0.000000000000000000 ) ) ;
#1023 = ORIENTED_EDGE ( 'NONE', *, *, #405, .T. ) ;
#1024 = SHAPE_DEFINITION_REPRESENTATION ( #780, #503 ) ;
#1025 = LINE ( 'NONE', #55, #848 ) ;
#1026 = EDGE_CURVE ( 'NONE', #105, #652, #925, .T. ) ;
#1027 = DIRECTION ( 'NONE',  ( 0.000000000000000000, 0.000000000000000000, -1.000000000000000000 ) ) ;
#1028 = ORIENTED_EDGE ( 'NONE', *, *, #13, .F. ) ;
#1029 = PERSON_AND_ORGANIZATION ( #236, #880 ) ;
#1030 = EDGE_LOOP ( 'NONE', ( #919, #36 ) ) ;
#1031 = DIRECTION ( 'NONE',  ( -0.000000000000000000, -0.000000000000000000, 1.000000000000000000 ) ) ;
#1032 = AXIS2_PLACEMENT_3D ( 'NONE', #404, #545, #155 ) ;
#1033 = VECTOR ( 'NONE', #71, 1000.000000000000000 ) ;
#1034 = DIRECTION ( 'NONE',  ( 0.000000000000000000, 0.000000000000000000, -1.000000000000000000 ) ) ;
#1035 = ORIENTED_EDGE ( 'NONE', *, *, #170, .T. ) ;
#1036 = PERSON_AND_ORGANIZATION ( #236, #880 ) ;
#1037 = ORIENTED_EDGE ( 'NONE', *, *, #329, .F. ) ;
#1038 = DIRECTION ( 'NONE',  ( 0.000000000000000000, -1.734723475976807587E-16, 1.000000000000000000 ) ) ;
#1039 = DIRECTION ( 'NONE',  ( 0.000000000000000000, 0.000000000000000000, 1.000000000000000000 ) ) ;
ENDSEC;
END-ISO-10303-21;
